<org.springframework.boot.loader.jar.CentralDirectoryEndRecord: void <init>(org.springframework.boot.loader.data.RandomAccessData)>	27	CentralDirectoryEndRecord.java	65	Virtual Method Invocation
<org.springframework.boot.loader.jar.CentralDirectoryEndRecord: void <init>(org.springframework.boot.loader.data.RandomAccessData)>	36	CentralDirectoryEndRecord.java	65	Virtual Method Invocation
<org.springframework.boot.loader.jar.CentralDirectoryEndRecord: void <init>(org.springframework.boot.loader.data.RandomAccessData)>	37	CentralDirectoryEndRecord.java	65	Virtual Method Invocation
<org.springframework.boot.loader.jar.CentralDirectoryEndRecord: void <init>(org.springframework.boot.loader.data.RandomAccessData)>	39	CentralDirectoryEndRecord.java	65	Virtual Method Invocation
<org.springframework.boot.loader.jar.CentralDirectoryEndRecord: byte[] createBlockFromEndOfData(org.springframework.boot.loader.data.RandomAccessData,int)>	4	CentralDirectoryEndRecord.java	76	Virtual Method Invocation
<org.springframework.boot.loader.jar.CentralDirectoryEndRecord: byte[] createBlockFromEndOfData(org.springframework.boot.loader.data.RandomAccessData,int)>	8	CentralDirectoryEndRecord.java	77	Virtual Method Invocation
<org.springframework.boot.loader.jar.CentralDirectoryEndRecord: byte[] createBlockFromEndOfData(org.springframework.boot.loader.data.RandomAccessData,int)>	12	CentralDirectoryEndRecord.java	77	Virtual Method Invocation
<org.springframework.boot.loader.jar.CentralDirectoryEndRecord: long getStartOfArchive(org.springframework.boot.loader.data.RandomAccessData)>	13	CentralDirectoryEndRecord.java	101	Virtual Method Invocation
<org.springframework.boot.loader.jar.CentralDirectoryEndRecord: org.springframework.boot.loader.data.RandomAccessData getCentralDirectory(org.springframework.boot.loader.data.RandomAccessData)>	13	CentralDirectoryEndRecord.java	114	Virtual Method Invocation
<org.springframework.boot.loader.jar.AsciiBytes: boolean equals(java.lang.Object)>	10	AsciiBytes.java	203	Virtual Method Invocation
<org.springframework.boot.loader.jar.AsciiBytes: boolean equals(java.lang.Object)>	29	AsciiBytes.java	207	Load Array Index
<org.springframework.boot.loader.jar.JarFileEntries: org.springframework.boot.loader.data.RandomAccessData getEntryData(org.springframework.boot.loader.jar.FileHeader)>	5	JarFileEntries.java	213	Virtual Method Invocation
<org.springframework.boot.loader.jar.JarFileEntries: org.springframework.boot.loader.data.RandomAccessData getEntryData(org.springframework.boot.loader.jar.FileHeader)>	15	JarFileEntries.java	216	Virtual Method Invocation
<org.springframework.boot.loader.jar.JarFileEntries: org.springframework.boot.loader.data.RandomAccessData getEntryData(org.springframework.boot.loader.jar.FileHeader)>	19	JarFileEntries.java	217	Virtual Method Invocation
<org.springframework.boot.loader.jar.JarFileEntries: org.springframework.boot.loader.jar.FileHeader getEntry(int,java.lang.String,java.lang.String,java.lang.Class,boolean)>	14	JarFileEntries.java	241	Load Array Index
<org.springframework.boot.loader.jar.JarFileEntries: int getFirstIndex(int)>	15	JarFileEntries.java	275	Load Array Index
<org.springframework.boot.loader.jar.JarFile: org.springframework.boot.loader.jar.JarFile createJarFileFromDirectoryEntry(org.springframework.boot.loader.jar.JarEntry)>	4	JarFile.java	264	Virtual Method Invocation
<org.springframework.boot.loader.jar.JarFile: org.springframework.boot.loader.jar.JarFile createJarFileFromDirectoryEntry(org.springframework.boot.loader.jar.JarEntry)>	16	JarFile.java	276	Virtual Method Invocation
<org.springframework.boot.loader.jar.JarFile: org.springframework.boot.loader.jar.JarFile createJarFileFromDirectoryEntry(org.springframework.boot.loader.jar.JarEntry)>	18	JarFile.java	278	Virtual Method Invocation
<org.springframework.boot.loader.jar.JarFile: org.springframework.boot.loader.jar.JarFile createJarFileFromDirectoryEntry(org.springframework.boot.loader.jar.JarEntry)>	21	JarFile.java	278	Virtual Method Invocation
<org.springframework.boot.loader.jar.JarFile: org.springframework.boot.loader.jar.JarFile createJarFileFromDirectoryEntry(org.springframework.boot.loader.jar.JarEntry)>	23	JarFile.java	278	Virtual Method Invocation
<org.springframework.boot.loader.jar.JarFile: org.springframework.boot.loader.jar.JarFile createJarFileFromDirectoryEntry(org.springframework.boot.loader.jar.JarEntry)>	24	JarFile.java	278	Virtual Method Invocation
<org.springframework.boot.loader.jar.CentralDirectoryFileHeader: void load(byte[],int,org.springframework.boot.loader.data.RandomAccessData,int,org.springframework.boot.loader.jar.JarEntryFilter)>	28	CentralDirectoryFileHeader.java	79	Virtual Method Invocation
<org.springframework.boot.loader.jar.CentralDirectoryFileHeader: void load(byte[],int,org.springframework.boot.loader.data.RandomAccessData,int,org.springframework.boot.loader.jar.JarEntryFilter)>	41	CentralDirectoryFileHeader.java	85	Virtual Method Invocation
<org.springframework.boot.loader.jar.JarEntry: boolean hasName(java.lang.String,java.lang.String)>	5	JarEntry.java	58	Virtual Method Invocation
<org.springframework.boot.loader.jar.JarEntry: boolean hasName(java.lang.String,java.lang.String)>	6	JarEntry.java	58	Virtual Method Invocation
<org.springframework.boot.loader.jar.JarEntry: boolean hasName(java.lang.String,java.lang.String)>	11	JarEntry.java	59	Virtual Method Invocation
<org.springframework.boot.loader.jar.JarEntry: boolean hasName(java.lang.String,java.lang.String)>	14	JarEntry.java	58	Virtual Method Invocation
<org.springframework.boot.loader.archive.JarFileArchive: org.springframework.boot.loader.archive.Archive getUnpackedNestedArchive(java.util.jar.JarEntry)>	3	JarFileArchive.java	114	Virtual Method Invocation
<org.springframework.boot.loader.archive.JarFileArchive: org.springframework.boot.loader.archive.Archive getUnpackedNestedArchive(java.util.jar.JarEntry)>	4	JarFileArchive.java	115	Virtual Method Invocation
<org.springframework.boot.loader.archive.JarFileArchive: org.springframework.boot.loader.archive.Archive getUnpackedNestedArchive(java.util.jar.JarEntry)>	7	JarFileArchive.java	116	Virtual Method Invocation
<org.springframework.boot.loader.archive.JarFileArchive: org.springframework.boot.loader.archive.Archive getUnpackedNestedArchive(java.util.jar.JarEntry)>	10	JarFileArchive.java	116	Virtual Method Invocation
<org.springframework.boot.loader.archive.JarFileArchive: org.springframework.boot.loader.archive.Archive getUnpackedNestedArchive(java.util.jar.JarEntry)>	20	JarFileArchive.java	122	Virtual Method Invocation
<org.springframework.boot.loader.archive.JarFileArchive: org.springframework.boot.loader.archive.Archive getUnpackedNestedArchive(java.util.jar.JarEntry)>	26	JarFileArchive.java	122	Virtual Method Invocation
<org.springframework.boot.loader.archive.JarFileArchive: java.io.File createUnpackFolder(java.io.File)>	18	JarFileArchive.java	137	Virtual Method Invocation
<org.springframework.boot.loader.archive.JarFileArchive: java.io.File createUnpackFolder(java.io.File)>	21	JarFileArchive.java	138	Virtual Method Invocation
<org.springframework.boot.loader.archive.JarFileArchive: java.io.File createUnpackFolder(java.io.File)>	22	JarFileArchive.java	138	Virtual Method Invocation
<org.springframework.boot.loader.archive.JarFileArchive: java.io.File createUnpackFolder(java.io.File)>	34	JarFileArchive.java	143	Virtual Method Invocation
<org.springframework.boot.loader.archive.JarFileArchive: java.io.File createUnpackFolder(java.io.File)>	35	JarFileArchive.java	143	Virtual Method Invocation
<org.springframework.boot.loader.archive.JarFileArchive: java.io.File createUnpackFolder(java.io.File)>	37	JarFileArchive.java	143	Virtual Method Invocation
<org.springframework.boot.loader.PropertiesLauncher: void initializeProperties()>	15	PropertiesLauncher.java	163	Virtual Method Invocation
<org.springframework.boot.loader.PropertiesLauncher: void initializeProperties()>	18	PropertiesLauncher.java	164	Unary Operator
<org.springframework.boot.loader.PropertiesLauncher: void initializeProperties()>	23	PropertiesLauncher.java	188	Load Array Index
<org.springframework.boot.loader.PropertiesLauncher: void initializeProperties()>	29	PropertiesLauncher.java	165	Virtual Method Invocation
<org.springframework.boot.loader.PropertiesLauncher: void initializeProperties()>	30	PropertiesLauncher.java	165	Virtual Method Invocation
<org.springframework.boot.loader.PropertiesLauncher: void initializeProperties()>	32	PropertiesLauncher.java	165	Virtual Method Invocation
<org.springframework.boot.loader.PropertiesLauncher: void initializeProperties()>	33	PropertiesLauncher.java	165	Virtual Method Invocation
<org.springframework.boot.loader.PropertiesLauncher: void initializeProperties()>	35	PropertiesLauncher.java	165	Virtual Method Invocation
<org.springframework.boot.loader.PropertiesLauncher: void initializeProperties()>	41	PropertiesLauncher.java	166	Virtual Method Invocation
<org.springframework.boot.loader.PropertiesLauncher: void initializeProperties()>	42	PropertiesLauncher.java	166	Virtual Method Invocation
<org.springframework.boot.loader.PropertiesLauncher: void initializeProperties()>	44	PropertiesLauncher.java	166	Virtual Method Invocation
<org.springframework.boot.loader.PropertiesLauncher: void initializeProperties()>	50	PropertiesLauncher.java	167	Virtual Method Invocation
<org.springframework.boot.loader.PropertiesLauncher: void initializeProperties()>	51	PropertiesLauncher.java	167	Virtual Method Invocation
<org.springframework.boot.loader.PropertiesLauncher: void initializeProperties()>	53	PropertiesLauncher.java	167	Virtual Method Invocation
<org.springframework.boot.loader.PropertiesLauncher: void initializeProperties()>	60	PropertiesLauncher.java	170	Virtual Method Invocation
<org.springframework.boot.loader.PropertiesLauncher: void initializeProperties()>	62	PropertiesLauncher.java	206	Virtual Method Invocation
<org.springframework.boot.loader.PropertiesLauncher: void initializeProperties()>	70	PropertiesLauncher.java	173	Virtual Method Invocation
<org.springframework.boot.loader.PropertiesLauncher: void initializeProperties()>	71	PropertiesLauncher.java	173	Virtual Method Invocation
<org.springframework.boot.loader.PropertiesLauncher: void initializeProperties()>	75	PropertiesLauncher.java	178	Virtual Method Invocation
<org.springframework.boot.loader.PropertiesLauncher: void initializeProperties()>	79	PropertiesLauncher.java	178	Virtual Method Invocation
<org.springframework.boot.loader.PropertiesLauncher: void initializeProperties()>	84	PropertiesLauncher.java	180	Virtual Method Invocation
<org.springframework.boot.loader.PropertiesLauncher: void initializeProperties()>	89	PropertiesLauncher.java	180	Virtual Method Invocation
<org.springframework.boot.loader.PropertiesLauncher: void initializeProperties()>	91	PropertiesLauncher.java	197	Virtual Method Invocation
<org.springframework.boot.loader.PropertiesLauncher: void initializeProperties()>	92	PropertiesLauncher.java	181	Virtual Method Invocation
<org.springframework.boot.loader.PropertiesLauncher: void initializeProperties()>	96	PropertiesLauncher.java	182	Virtual Method Invocation
<org.springframework.boot.loader.PropertiesLauncher: void initializeProperties()>	120	PropertiesLauncher.java	194	Virtual Method Invocation
<org.springframework.boot.loader.PropertiesLauncher: void initializeProperties()>	125	PropertiesLauncher.java	194	Virtual Method Invocation
<org.springframework.boot.loader.PropertiesLauncher: void initializeProperties()>	127	PropertiesLauncher.java	200	Virtual Method Invocation
<org.springframework.boot.loader.PropertiesLauncher: void initializeProperties()>	145	PropertiesLauncher.java	203	Virtual Method Invocation
<org.springframework.boot.loader.PropertiesLauncher: void initializeProperties()>	146	PropertiesLauncher.java	203	Virtual Method Invocation
<org.springframework.boot.loader.PropertiesLauncher: java.util.List parsePathsProperty(java.lang.String)>	6	PropertiesLauncher.java	308	Virtual Method Invocation
<org.springframework.boot.loader.PropertiesLauncher: java.util.List parsePathsProperty(java.lang.String)>	8	PropertiesLauncher.java	308	Unary Operator
<org.springframework.boot.loader.PropertiesLauncher: java.util.List parsePathsProperty(java.lang.String)>	17	PropertiesLauncher.java	317	Load Array Index
<org.springframework.boot.loader.PropertiesLauncher: java.lang.String[] getArgs(java.lang.String[])>	6	PropertiesLauncher.java	323	Virtual Method Invocation
<org.springframework.boot.loader.PropertiesLauncher: java.lang.String[] getArgs(java.lang.String[])>	9	PropertiesLauncher.java	325	Unary Operator
<org.springframework.boot.loader.PropertiesLauncher: java.lang.String[] getArgs(java.lang.String[])>	13	PropertiesLauncher.java	326	Unary Operator
<org.springframework.boot.loader.PropertiesLauncher: java.lang.String[] getArgs(java.lang.String[])>	17	PropertiesLauncher.java	327	Unary Operator
<org.springframework.boot.loader.PropertiesLauncher: java.util.List getNestedArchives(java.lang.String)>	5	PropertiesLauncher.java	508	Virtual Method Invocation
<org.springframework.boot.loader.PropertiesLauncher: java.util.List getNestedArchives(java.lang.String)>	8	PropertiesLauncher.java	511	Virtual Method Invocation
<org.springframework.boot.loader.PropertiesLauncher: java.util.List getNestedArchives(java.lang.String)>	14	PropertiesLauncher.java	509	Virtual Method Invocation
<org.springframework.boot.loader.PropertiesLauncher: java.util.List getNestedArchives(java.lang.String)>	15	PropertiesLauncher.java	509	Virtual Method Invocation
<org.springframework.boot.loader.PropertiesLauncher: java.util.List getNestedArchives(java.lang.String)>	19	PropertiesLauncher.java	513	Virtual Method Invocation
<org.springframework.boot.loader.PropertiesLauncher: java.util.List getNestedArchives(java.lang.String)>	22	PropertiesLauncher.java	514	Virtual Method Invocation
<org.springframework.boot.loader.PropertiesLauncher: java.util.List getNestedArchives(java.lang.String)>	26	PropertiesLauncher.java	515	Virtual Method Invocation
<org.springframework.boot.loader.PropertiesLauncher: java.util.List getNestedArchives(java.lang.String)>	30	PropertiesLauncher.java	516	Virtual Method Invocation
<org.springframework.boot.loader.PropertiesLauncher: java.util.List getNestedArchives(java.lang.String)>	36	PropertiesLauncher.java	517	Virtual Method Invocation
<org.springframework.boot.loader.PropertiesLauncher: java.util.List getNestedArchives(java.lang.String)>	45	PropertiesLauncher.java	520	Virtual Method Invocation
<org.springframework.boot.loader.PropertiesLauncher: java.util.List getNestedArchives(java.lang.String)>	46	PropertiesLauncher.java	520	Virtual Method Invocation
<org.springframework.boot.loader.PropertiesLauncher: java.util.List getNestedArchives(java.lang.String)>	49	PropertiesLauncher.java	521	Virtual Method Invocation
<org.springframework.boot.loader.PropertiesLauncher: java.util.List getNestedArchives(java.lang.String)>	52	PropertiesLauncher.java	522	Virtual Method Invocation
<org.springframework.boot.loader.PropertiesLauncher: java.util.List getNestedArchives(java.lang.String)>	61	PropertiesLauncher.java	525	Virtual Method Invocation
<org.springframework.boot.loader.PropertiesLauncher: java.util.List getNestedArchives(java.lang.String)>	106	PropertiesLauncher.java	538	Virtual Method Invocation
<org.springframework.boot.loader.PropertiesLauncher: java.lang.String cleanupPath(java.lang.String)>	3	PropertiesLauncher.java	570	Virtual Method Invocation
<org.springframework.boot.loader.PropertiesLauncher: java.lang.String cleanupPath(java.lang.String)>	4	PropertiesLauncher.java	572	Virtual Method Invocation
<org.springframework.boot.loader.PropertiesLauncher: java.lang.String cleanupPath(java.lang.String)>	7	PropertiesLauncher.java	573	Virtual Method Invocation
<org.springframework.boot.loader.PropertiesLauncher: java.lang.String cleanupPath(java.lang.String)>	12	PropertiesLauncher.java	575	Virtual Method Invocation
<org.springframework.boot.loader.PropertiesLauncher: java.lang.String cleanupPath(java.lang.String)>	13	PropertiesLauncher.java	576	Virtual Method Invocation
<org.springframework.boot.loader.PropertiesLauncher: java.lang.String cleanupPath(java.lang.String)>	16	PropertiesLauncher.java	577	Virtual Method Invocation
<org.springframework.boot.loader.PropertiesLauncher: java.lang.String cleanupPath(java.lang.String)>	20	PropertiesLauncher.java	579	Virtual Method Invocation
<org.springframework.boot.loader.PropertiesLauncher: java.lang.String cleanupPath(java.lang.String)>	23	PropertiesLauncher.java	580	Virtual Method Invocation
<org.springframework.boot.loader.PropertiesLauncher: java.lang.String cleanupPath(java.lang.String)>	25	PropertiesLauncher.java	580	Virtual Method Invocation
<org.springframework.boot.loader.PropertiesLauncher: java.lang.String cleanupPath(java.lang.String)>	28	PropertiesLauncher.java	584	Virtual Method Invocation
<org.springframework.boot.loader.PropertiesLauncher: java.lang.String cleanupPath(java.lang.String)>	31	PropertiesLauncher.java	588	Virtual Method Invocation
<org.springframework.boot.loader.PropertiesLauncher: java.lang.String cleanupPath(java.lang.String)>	37	PropertiesLauncher.java	585	Virtual Method Invocation
<org.springframework.boot.loader.PropertiesLauncher: java.lang.String cleanupPath(java.lang.String)>	39	PropertiesLauncher.java	585	Virtual Method Invocation
<org.springframework.boot.loader.util.SystemPropertyUtils: java.lang.String parseStringValue(java.util.Properties,java.lang.String,java.lang.String,java.util.Set)>	8	SystemPropertyUtils.java	95	Virtual Method Invocation
<org.springframework.boot.loader.util.SystemPropertyUtils: java.lang.String parseStringValue(java.util.Properties,java.lang.String,java.lang.String,java.util.Set)>	31	SystemPropertyUtils.java	103	Virtual Method Invocation
<org.springframework.boot.loader.util.SystemPropertyUtils: java.lang.String parseStringValue(java.util.Properties,java.lang.String,java.lang.String,java.util.Set)>	32	SystemPropertyUtils.java	103	Virtual Method Invocation
<org.springframework.boot.loader.util.SystemPropertyUtils: java.lang.String parseStringValue(java.util.Properties,java.lang.String,java.lang.String,java.util.Set)>	34	SystemPropertyUtils.java	103	Virtual Method Invocation
<org.springframework.boot.loader.util.SystemPropertyUtils: java.lang.String parseStringValue(java.util.Properties,java.lang.String,java.lang.String,java.util.Set)>	41	SystemPropertyUtils.java	114	Virtual Method Invocation
<org.springframework.boot.loader.util.SystemPropertyUtils: java.lang.String parseStringValue(java.util.Properties,java.lang.String,java.lang.String,java.util.Set)>	44	SystemPropertyUtils.java	116	Virtual Method Invocation
<org.springframework.boot.loader.util.SystemPropertyUtils: java.lang.String parseStringValue(java.util.Properties,java.lang.String,java.lang.String,java.util.Set)>	49	SystemPropertyUtils.java	119	Virtual Method Invocation
<org.springframework.boot.loader.util.SystemPropertyUtils: java.lang.String parseStringValue(java.util.Properties,java.lang.String,java.lang.String,java.util.Set)>	64	SystemPropertyUtils.java	135	Virtual Method Invocation
<org.springframework.boot.loader.util.SystemPropertyUtils: int findPlaceholderEndIndex(java.lang.CharSequence,int)>	32	SystemPropertyUtils.java	221	Virtual Method Invocation
<org.springframework.boot.loader.jar.CentralDirectoryParser: org.springframework.boot.loader.data.RandomAccessData getArchiveData(org.springframework.boot.loader.jar.CentralDirectoryEndRecord,org.springframework.boot.loader.data.RandomAccessData)>	8	CentralDirectoryParser.java	82	Virtual Method Invocation
<org.springframework.boot.loader.jar.CentralDirectoryParser: org.springframework.boot.loader.data.RandomAccessData getArchiveData(org.springframework.boot.loader.jar.CentralDirectoryEndRecord,org.springframework.boot.loader.data.RandomAccessData)>	10	CentralDirectoryParser.java	82	Virtual Method Invocation
<org.springframework.boot.loader.jar.AsciiBytes: void <init>(byte[])>	3	AsciiBytes.java	57	Unary Operator
<org.springframework.boot.loader.Launcher: org.springframework.boot.loader.archive.Archive createArchive()>	3	Launcher.java	117	Virtual Method Invocation
<org.springframework.boot.loader.Launcher: org.springframework.boot.loader.archive.Archive createArchive()>	4	Launcher.java	118	Virtual Method Invocation
<org.springframework.boot.loader.Launcher: org.springframework.boot.loader.archive.Archive createArchive()>	8	Launcher.java	119	Virtual Method Invocation
<org.springframework.boot.loader.Launcher: org.springframework.boot.loader.archive.Archive createArchive()>	9	Launcher.java	119	Virtual Method Invocation
<org.springframework.boot.loader.Launcher: org.springframework.boot.loader.archive.Archive createArchive()>	16	Launcher.java	120	Virtual Method Invocation
<org.springframework.boot.loader.Launcher: org.springframework.boot.loader.archive.Archive createArchive()>	35	Launcher.java	126	Virtual Method Invocation
<org.springframework.boot.loader.Launcher: org.springframework.boot.loader.archive.Archive createArchive()>	36	Launcher.java	126	Virtual Method Invocation
<org.springframework.boot.loader.PropertiesLauncher: java.io.InputStream getResource(java.lang.String)>	3	PropertiesLauncher.java	209	Virtual Method Invocation
<org.springframework.boot.loader.PropertiesLauncher: java.io.InputStream getResource(java.lang.String)>	8	PropertiesLauncher.java	210	Virtual Method Invocation
<org.springframework.boot.loader.PropertiesLauncher: java.lang.String handleUrl(java.lang.String)>	3	PropertiesLauncher.java	220	Virtual Method Invocation
<org.springframework.boot.loader.PropertiesLauncher: java.lang.String handleUrl(java.lang.String)>	6	PropertiesLauncher.java	229	Virtual Method Invocation
<org.springframework.boot.loader.PropertiesLauncher: java.lang.String handleUrl(java.lang.String)>	11	PropertiesLauncher.java	222	Virtual Method Invocation
<org.springframework.boot.loader.PropertiesLauncher: java.lang.String handleUrl(java.lang.String)>	16	PropertiesLauncher.java	223	Virtual Method Invocation
<org.springframework.boot.loader.PropertiesLauncher: java.lang.String handleUrl(java.lang.String)>	17	PropertiesLauncher.java	224	Virtual Method Invocation
<org.springframework.boot.loader.PropertiesLauncher: java.lang.String handleUrl(java.lang.String)>	20	PropertiesLauncher.java	225	Virtual Method Invocation
<org.springframework.boot.loader.PropertiesLauncher: java.io.InputStream getFileResource(java.lang.String)>	10	PropertiesLauncher.java	247	Virtual Method Invocation
<org.springframework.boot.loader.PropertiesLauncher: java.io.InputStream getFileResource(java.lang.String)>	11	PropertiesLauncher.java	247	Virtual Method Invocation
<org.springframework.boot.loader.PropertiesLauncher: java.io.InputStream getURLResource(java.lang.String)>	9	PropertiesLauncher.java	259	Virtual Method Invocation
<org.springframework.boot.loader.PropertiesLauncher: java.io.InputStream getURLResource(java.lang.String)>	16	PropertiesLauncher.java	264	Virtual Method Invocation
<org.springframework.boot.loader.PropertiesLauncher: boolean exists(java.net.URL)>	4	PropertiesLauncher.java	277	Virtual Method Invocation
<org.springframework.boot.loader.PropertiesLauncher: boolean exists(java.net.URL)>	5	PropertiesLauncher.java	277	Virtual Method Invocation
<org.springframework.boot.loader.PropertiesLauncher: boolean exists(java.net.URL)>	6	PropertiesLauncher.java	277	Virtual Method Invocation
<org.springframework.boot.loader.PropertiesLauncher: boolean exists(java.net.URL)>	8	PropertiesLauncher.java	276	Virtual Method Invocation
<org.springframework.boot.loader.PropertiesLauncher: boolean exists(java.net.URL)>	12	PropertiesLauncher.java	280	Virtual Method Invocation
<org.springframework.boot.loader.PropertiesLauncher: boolean exists(java.net.URL)>	14	PropertiesLauncher.java	281	Virtual Method Invocation
<org.springframework.boot.loader.PropertiesLauncher: boolean exists(java.net.URL)>	20	PropertiesLauncher.java	293	Virtual Method Invocation
<org.springframework.boot.loader.PropertiesLauncher: boolean exists(java.net.URL)>	27	PropertiesLauncher.java	293	Virtual Method Invocation
<org.springframework.boot.loader.PropertiesLauncher: boolean exists(java.net.URL)>	29	PropertiesLauncher.java	289	Virtual Method Invocation
<org.springframework.boot.loader.PropertiesLauncher: boolean exists(java.net.URL)>	40	PropertiesLauncher.java	293	Virtual Method Invocation
<org.springframework.boot.loader.PropertiesLauncher: boolean exists(java.net.URL)>	54	PropertiesLauncher.java	293	Virtual Method Invocation
<org.springframework.boot.loader.PropertiesLauncher: void initializePaths()>	12	PropertiesLauncher.java	303	Virtual Method Invocation
<org.springframework.boot.loader.PropertiesLauncher: void initializePaths()>	13	PropertiesLauncher.java	303	Virtual Method Invocation
<org.springframework.boot.loader.PropertiesLauncher: java.lang.ClassLoader createClassLoader(java.util.List)>	8	PropertiesLauncher.java	346	Virtual Method Invocation
<org.springframework.boot.loader.PropertiesLauncher: java.lang.ClassLoader createClassLoader(java.util.List)>	10	PropertiesLauncher.java	357	Virtual Method Invocation
<org.springframework.boot.loader.PropertiesLauncher: java.lang.ClassLoader createClassLoader(java.util.List)>	12	PropertiesLauncher.java	347	Virtual Method Invocation
<org.springframework.boot.loader.PropertiesLauncher: java.lang.ClassLoader createClassLoader(java.util.List)>	20	PropertiesLauncher.java	350	Virtual Method Invocation
<org.springframework.boot.loader.PropertiesLauncher: java.lang.ClassLoader createClassLoader(java.util.List)>	27	PropertiesLauncher.java	351	Virtual Method Invocation
<org.springframework.boot.loader.PropertiesLauncher: java.lang.ClassLoader createClassLoader(java.util.List)>	28	PropertiesLauncher.java	351	Virtual Method Invocation
<org.springframework.boot.loader.PropertiesLauncher: java.lang.ClassLoader createClassLoader(java.util.List)>	38	PropertiesLauncher.java	355	Virtual Method Invocation
<org.springframework.boot.loader.PropertiesLauncher: java.lang.ClassLoader createClassLoader(java.util.List)>	39	PropertiesLauncher.java	355	Virtual Method Invocation
<org.springframework.boot.loader.PropertiesLauncher: java.lang.ClassLoader wrapWithCustomClassLoader(java.lang.ClassLoader,java.lang.String)>	10	PropertiesLauncher.java	367	Virtual Method Invocation
<org.springframework.boot.loader.PropertiesLauncher: java.lang.ClassLoader wrapWithCustomClassLoader(java.lang.ClassLoader,java.lang.String)>	14	PropertiesLauncher.java	367	Virtual Method Invocation
<org.springframework.boot.loader.PropertiesLauncher: java.lang.ClassLoader wrapWithCustomClassLoader(java.lang.ClassLoader,java.lang.String)>	26	PropertiesLauncher.java	373	Virtual Method Invocation
<org.springframework.boot.loader.PropertiesLauncher: java.lang.ClassLoader wrapWithCustomClassLoader(java.lang.ClassLoader,java.lang.String)>	33	PropertiesLauncher.java	374	Virtual Method Invocation
<org.springframework.boot.loader.PropertiesLauncher: java.lang.ClassLoader wrapWithCustomClassLoader(java.lang.ClassLoader,java.lang.String)>	38	PropertiesLauncher.java	379	Virtual Method Invocation
<org.springframework.boot.loader.PropertiesLauncher: java.lang.String getProperty(java.lang.String,java.lang.String,java.lang.String)>	20	PropertiesLauncher.java	405	Virtual Method Invocation
<org.springframework.boot.loader.PropertiesLauncher: java.lang.String getProperty(java.lang.String,java.lang.String,java.lang.String)>	21	PropertiesLauncher.java	405	Virtual Method Invocation
<org.springframework.boot.loader.PropertiesLauncher: java.lang.String getProperty(java.lang.String,java.lang.String,java.lang.String)>	23	PropertiesLauncher.java	405	Virtual Method Invocation
<org.springframework.boot.loader.PropertiesLauncher: java.lang.String getProperty(java.lang.String,java.lang.String,java.lang.String)>	24	PropertiesLauncher.java	405	Virtual Method Invocation
<org.springframework.boot.loader.PropertiesLauncher: java.lang.String getProperty(java.lang.String,java.lang.String,java.lang.String)>	38	PropertiesLauncher.java	411	Virtual Method Invocation
<org.springframework.boot.loader.PropertiesLauncher: java.lang.String getProperty(java.lang.String,java.lang.String,java.lang.String)>	39	PropertiesLauncher.java	411	Virtual Method Invocation
<org.springframework.boot.loader.PropertiesLauncher: java.lang.String getProperty(java.lang.String,java.lang.String,java.lang.String)>	41	PropertiesLauncher.java	411	Virtual Method Invocation
<org.springframework.boot.loader.PropertiesLauncher: java.lang.String getProperty(java.lang.String,java.lang.String,java.lang.String)>	42	PropertiesLauncher.java	411	Virtual Method Invocation
<org.springframework.boot.loader.PropertiesLauncher: java.lang.String getProperty(java.lang.String,java.lang.String,java.lang.String)>	54	PropertiesLauncher.java	419	Virtual Method Invocation
<org.springframework.boot.loader.PropertiesLauncher: java.lang.String getProperty(java.lang.String,java.lang.String,java.lang.String)>	60	PropertiesLauncher.java	421	Virtual Method Invocation
<org.springframework.boot.loader.PropertiesLauncher: java.lang.String getProperty(java.lang.String,java.lang.String,java.lang.String)>	61	PropertiesLauncher.java	421	Virtual Method Invocation
<org.springframework.boot.loader.PropertiesLauncher: java.lang.String getProperty(java.lang.String,java.lang.String,java.lang.String)>	63	PropertiesLauncher.java	421	Virtual Method Invocation
<org.springframework.boot.loader.PropertiesLauncher: java.lang.String getProperty(java.lang.String,java.lang.String,java.lang.String)>	64	PropertiesLauncher.java	421	Virtual Method Invocation
<org.springframework.boot.loader.PropertiesLauncher: java.lang.String getProperty(java.lang.String,java.lang.String,java.lang.String)>	88	PropertiesLauncher.java	435	Virtual Method Invocation
<org.springframework.boot.loader.PropertiesLauncher: java.lang.String getProperty(java.lang.String,java.lang.String,java.lang.String)>	89	PropertiesLauncher.java	435	Virtual Method Invocation
<org.springframework.boot.loader.PropertiesLauncher: java.lang.String getProperty(java.lang.String,java.lang.String,java.lang.String)>	95	PropertiesLauncher.java	437	Virtual Method Invocation
<org.springframework.boot.loader.PropertiesLauncher: java.lang.String getProperty(java.lang.String,java.lang.String,java.lang.String)>	96	PropertiesLauncher.java	437	Virtual Method Invocation
<org.springframework.boot.loader.PropertiesLauncher: java.lang.String getProperty(java.lang.String,java.lang.String,java.lang.String)>	98	PropertiesLauncher.java	437	Virtual Method Invocation
<org.springframework.boot.loader.PropertiesLauncher: java.lang.String getProperty(java.lang.String,java.lang.String,java.lang.String)>	99	PropertiesLauncher.java	437	Virtual Method Invocation
<org.springframework.boot.loader.PropertiesLauncher: java.util.List getClassPathArchives()>	7	PropertiesLauncher.java	448	Virtual Method Invocation
<org.springframework.boot.loader.PropertiesLauncher: java.util.List getClassPathArchives()>	9	PropertiesLauncher.java	462	Virtual Method Invocation
<org.springframework.boot.loader.PropertiesLauncher: java.util.List getClassPathArchives()>	13	PropertiesLauncher.java	449	Virtual Method Invocation
<org.springframework.boot.loader.PropertiesLauncher: java.util.List getClassPathArchives()>	15	PropertiesLauncher.java	460	Virtual Method Invocation
<org.springframework.boot.loader.PropertiesLauncher: java.util.List getClassPathArchives()>	23	PropertiesLauncher.java	452	Virtual Method Invocation
<org.springframework.boot.loader.PropertiesLauncher: java.util.List getClassPathArchives(java.lang.String)>	28	PropertiesLauncher.java	474	Virtual Method Invocation
<org.springframework.boot.loader.PropertiesLauncher: java.util.List getClassPathArchives(java.lang.String)>	29	PropertiesLauncher.java	474	Virtual Method Invocation
<org.springframework.boot.loader.PropertiesLauncher: java.util.List getClassPathArchives(java.lang.String)>	45	PropertiesLauncher.java	481	Virtual Method Invocation
<org.springframework.boot.loader.PropertiesLauncher: java.util.List getClassPathArchives(java.lang.String)>	46	PropertiesLauncher.java	481	Virtual Method Invocation
<org.springframework.boot.loader.PropertiesLauncher: java.util.List getClassPathArchives(java.lang.String)>	47	PropertiesLauncher.java	481	Virtual Method Invocation
<org.springframework.boot.loader.PropertiesLauncher: java.util.List getClassPathArchives(java.lang.String)>	48	PropertiesLauncher.java	481	Virtual Method Invocation
<org.springframework.boot.loader.PropertiesLauncher: java.util.List getClassPathArchives(java.lang.String)>	57	PropertiesLauncher.java	486	Virtual Method Invocation
<org.springframework.boot.loader.PropertiesLauncher: java.util.List getClassPathArchives(java.lang.String)>	58	PropertiesLauncher.java	486	Virtual Method Invocation
<org.springframework.boot.loader.PropertiesLauncher: org.springframework.boot.loader.archive.Archive getArchive(java.io.File)>	5	PropertiesLauncher.java	498	Virtual Method Invocation
<org.springframework.boot.loader.PropertiesLauncher: org.springframework.boot.loader.archive.Archive getArchive(java.io.File)>	6	PropertiesLauncher.java	499	Virtual Method Invocation
<org.springframework.boot.loader.PropertiesLauncher: org.springframework.boot.loader.archive.Archive getArchive(java.io.File)>	9	PropertiesLauncher.java	500	Virtual Method Invocation
<org.springframework.boot.loader.PropertiesLauncher: java.io.InputStream getClasspathResource(java.lang.String)>	5	PropertiesLauncher.java	237	Virtual Method Invocation
<org.springframework.boot.loader.PropertiesLauncher: java.io.InputStream getClasspathResource(java.lang.String)>	8	PropertiesLauncher.java	238	Virtual Method Invocation
<org.springframework.boot.loader.PropertiesLauncher: java.io.InputStream getClasspathResource(java.lang.String)>	15	PropertiesLauncher.java	240	Virtual Method Invocation
<org.springframework.boot.loader.PropertiesLauncher: java.io.InputStream getClasspathResource(java.lang.String)>	16	PropertiesLauncher.java	240	Virtual Method Invocation
<org.springframework.boot.loader.PropertiesLauncher: java.io.InputStream getClasspathResource(java.lang.String)>	21	PropertiesLauncher.java	241	Virtual Method Invocation
<org.springframework.boot.loader.PropertiesLauncher: java.io.InputStream getClasspathResource(java.lang.String)>	22	PropertiesLauncher.java	241	Virtual Method Invocation
<org.springframework.boot.loader.PropertiesLauncher: java.io.InputStream getClasspathResource(java.lang.String)>	25	PropertiesLauncher.java	242	Virtual Method Invocation
<org.springframework.boot.loader.PropertiesLauncher: boolean isAbsolutePath(java.lang.String)>	3	PropertiesLauncher.java	494	Virtual Method Invocation
<org.springframework.boot.loader.PropertiesLauncher: boolean isAbsolutePath(java.lang.String)>	6	PropertiesLauncher.java	494	Virtual Method Invocation
<org.springframework.boot.loader.PropertiesLauncher: java.lang.String toCamelCase(java.lang.CharSequence)>	9	PropertiesLauncher.java	602	Virtual Method Invocation
<org.springframework.boot.loader.PropertiesLauncher: java.lang.String toCamelCase(java.lang.CharSequence)>	13	PropertiesLauncher.java	604	Virtual Method Invocation
<org.springframework.boot.loader.PropertiesLauncher: java.lang.String toCamelCase(java.lang.CharSequence)>	15	PropertiesLauncher.java	605	Virtual Method Invocation
<org.springframework.boot.loader.PropertiesLauncher: java.lang.String toCamelCase(java.lang.CharSequence)>	16	PropertiesLauncher.java	605	Virtual Method Invocation
<org.springframework.boot.loader.PropertiesLauncher: java.lang.String toCamelCase(java.lang.CharSequence)>	17	PropertiesLauncher.java	605	Virtual Method Invocation
<org.springframework.boot.loader.PropertiesLauncher: java.lang.String toCamelCase(java.lang.CharSequence)>	20	PropertiesLauncher.java	606	Virtual Method Invocation
<org.springframework.boot.loader.PropertiesLauncher: java.lang.String toCamelCase(java.lang.CharSequence)>	22	PropertiesLauncher.java	608	Virtual Method Invocation
<org.springframework.boot.loader.PropertiesLauncher: java.lang.String toCamelCase(java.lang.CharSequence)>	23	PropertiesLauncher.java	608	Virtual Method Invocation
<org.springframework.boot.loader.PropertiesLauncher: java.lang.String toCamelCase(java.lang.CharSequence)>	24	PropertiesLauncher.java	608	Virtual Method Invocation
<org.springframework.boot.loader.PropertiesLauncher: java.lang.String capitalize(java.lang.String)>	4	PropertiesLauncher.java	613	Virtual Method Invocation
<org.springframework.boot.loader.PropertiesLauncher: java.lang.String capitalize(java.lang.String)>	8	PropertiesLauncher.java	613	Virtual Method Invocation
<org.springframework.boot.loader.PropertiesLauncher: java.lang.String capitalize(java.lang.String)>	10	PropertiesLauncher.java	613	Virtual Method Invocation
<org.springframework.boot.loader.PropertiesLauncher: java.lang.String capitalize(java.lang.String)>	11	PropertiesLauncher.java	613	Virtual Method Invocation
<org.springframework.boot.loader.util.SystemPropertyUtils: java.lang.String getProperty(java.lang.String,java.lang.String,java.lang.String)>	19	SystemPropertyUtils.java	193	Virtual Method Invocation
<org.springframework.boot.loader.util.SystemPropertyUtils: java.lang.String getProperty(java.lang.String,java.lang.String,java.lang.String)>	42	SystemPropertyUtils.java	200	Virtual Method Invocation
<org.springframework.boot.loader.util.SystemPropertyUtils: java.lang.String getProperty(java.lang.String,java.lang.String,java.lang.String)>	43	SystemPropertyUtils.java	200	Virtual Method Invocation
<org.springframework.boot.loader.util.SystemPropertyUtils: java.lang.String getProperty(java.lang.String,java.lang.String,java.lang.String)>	45	SystemPropertyUtils.java	200	Virtual Method Invocation
<org.springframework.boot.loader.util.SystemPropertyUtils: java.lang.String getProperty(java.lang.String,java.lang.String,java.lang.String)>	46	SystemPropertyUtils.java	200	Virtual Method Invocation
<org.springframework.boot.loader.util.SystemPropertyUtils: java.lang.String getProperty(java.lang.String,java.lang.String,java.lang.String)>	48	SystemPropertyUtils.java	200	Virtual Method Invocation
<org.springframework.boot.loader.util.SystemPropertyUtils: java.lang.String getProperty(java.lang.String,java.lang.String,java.lang.String)>	49	SystemPropertyUtils.java	200	Virtual Method Invocation
<org.springframework.boot.loader.util.SystemPropertyUtils: java.lang.String getProperty(java.lang.String,java.lang.String,java.lang.String)>	50	SystemPropertyUtils.java	200	Virtual Method Invocation
<org.springframework.boot.loader.PropertiesLauncher: boolean isUrl(java.lang.String)>	3	PropertiesLauncher.java	233	Virtual Method Invocation
<org.springframework.boot.loader.PropertiesLauncher: void warn(java.lang.String)>	7	PropertiesLauncher.java	623	Virtual Method Invocation
<org.springframework.boot.loader.PropertiesLauncher: void warn(java.lang.String)>	8	PropertiesLauncher.java	623	Virtual Method Invocation
<org.springframework.boot.loader.PropertiesLauncher: void log(java.lang.String)>	4	PropertiesLauncher.java	628	Virtual Method Invocation
<org.springframework.boot.loader.jar.JarFile: void registerUrlProtocolHandler()>	12	JarFile.java	385	Virtual Method Invocation
<org.springframework.boot.loader.jar.JarFile: void registerUrlProtocolHandler()>	14	JarFile.java	385	Virtual Method Invocation
<org.springframework.boot.loader.jar.JarFile: void registerUrlProtocolHandler()>	16	JarFile.java	385	Virtual Method Invocation
<org.springframework.boot.loader.ExecutableArchiveLauncher: java.lang.String getMainClass()>	6	ExecutableArchiveLauncher.java	60	Virtual Method Invocation
<org.springframework.boot.loader.ExecutableArchiveLauncher: java.lang.String getMainClass()>	7	ExecutableArchiveLauncher.java	60	Virtual Method Invocation
<org.springframework.boot.loader.ExecutableArchiveLauncher: java.lang.String getMainClass()>	17	ExecutableArchiveLauncher.java	63	Virtual Method Invocation
<org.springframework.boot.loader.ExecutableArchiveLauncher: java.lang.String getMainClass()>	18	ExecutableArchiveLauncher.java	63	Virtual Method Invocation
<org.springframework.boot.loader.Launcher: java.lang.ClassLoader createClassLoader(java.util.List)>	8	Launcher.java	61	Virtual Method Invocation
<org.springframework.boot.loader.Launcher: java.lang.ClassLoader createClassLoader(java.util.List)>	10	Launcher.java	64	Virtual Method Invocation
<org.springframework.boot.loader.Launcher: java.lang.ClassLoader createClassLoader(java.util.List)>	12	Launcher.java	62	Virtual Method Invocation
<org.springframework.boot.loader.Launcher: java.lang.ClassLoader createClassLoader(java.net.URL[])>	5	Launcher.java	74	Virtual Method Invocation
<org.springframework.boot.loader.WarLauncher: boolean isNestedArchive(org.springframework.boot.loader.archive.Archive$Entry)>	3	WarLauncher.java	49	Virtual Method Invocation
<org.springframework.boot.loader.WarLauncher: boolean isNestedArchive(org.springframework.boot.loader.archive.Archive$Entry)>	5	WarLauncher.java	50	Virtual Method Invocation
<org.springframework.boot.loader.WarLauncher: boolean isNestedArchive(org.springframework.boot.loader.archive.Archive$Entry)>	6	WarLauncher.java	50	Virtual Method Invocation
<org.springframework.boot.loader.WarLauncher: boolean isNestedArchive(org.springframework.boot.loader.archive.Archive$Entry)>	9	WarLauncher.java	53	Virtual Method Invocation
<org.springframework.boot.loader.WarLauncher: boolean isNestedArchive(org.springframework.boot.loader.archive.Archive$Entry)>	10	WarLauncher.java	53	Virtual Method Invocation
<org.springframework.boot.loader.WarLauncher: boolean isNestedArchive(org.springframework.boot.loader.archive.Archive$Entry)>	13	WarLauncher.java	54	Virtual Method Invocation
<org.springframework.boot.loader.WarLauncher: boolean isNestedArchive(org.springframework.boot.loader.archive.Archive$Entry)>	14	WarLauncher.java	54	Virtual Method Invocation
<org.springframework.boot.loader.JarLauncher: boolean isNestedArchive(org.springframework.boot.loader.archive.Archive$Entry)>	3	JarLauncher.java	44	Virtual Method Invocation
<org.springframework.boot.loader.JarLauncher: boolean isNestedArchive(org.springframework.boot.loader.archive.Archive$Entry)>	5	JarLauncher.java	45	Virtual Method Invocation
<org.springframework.boot.loader.JarLauncher: boolean isNestedArchive(org.springframework.boot.loader.archive.Archive$Entry)>	6	JarLauncher.java	45	Virtual Method Invocation
<org.springframework.boot.loader.JarLauncher: boolean isNestedArchive(org.springframework.boot.loader.archive.Archive$Entry)>	9	JarLauncher.java	47	Virtual Method Invocation
<org.springframework.boot.loader.JarLauncher: boolean isNestedArchive(org.springframework.boot.loader.archive.Archive$Entry)>	10	JarLauncher.java	47	Virtual Method Invocation
<org.springframework.boot.loader.jar.AsciiBytes: void <init>(java.lang.String)>	4	AsciiBytes.java	47	Virtual Method Invocation
<org.springframework.boot.loader.archive.ExplodedArchive: java.net.URL getUrl()>	4	ExplodedArchive.java	88	Virtual Method Invocation
<org.springframework.boot.loader.archive.ExplodedArchive: org.springframework.boot.loader.archive.Archive getNestedArchive(org.springframework.boot.loader.archive.Archive$Entry)>	4	ExplodedArchive.java	122	Virtual Method Invocation
<org.springframework.boot.loader.archive.ExplodedArchive: org.springframework.boot.loader.archive.Archive getNestedArchive(org.springframework.boot.loader.archive.Archive$Entry)>	5	ExplodedArchive.java	123	Virtual Method Invocation
<org.springframework.boot.loader.archive.ExplodedArchive: void <init>(java.io.File,boolean)>	14	ExplodedArchive.java	74	Virtual Method Invocation
<org.springframework.boot.loader.archive.ExplodedArchive: void <init>(java.io.File,boolean)>	15	ExplodedArchive.java	74	Virtual Method Invocation
<org.springframework.boot.loader.archive.JarFileArchive: org.springframework.boot.loader.archive.Archive getNestedArchive(org.springframework.boot.loader.archive.Archive$Entry)>	4	JarFileArchive.java	99	Virtual Method Invocation
<org.springframework.boot.loader.archive.JarFileArchive: org.springframework.boot.loader.archive.Archive getNestedArchive(org.springframework.boot.loader.archive.Archive$Entry)>	5	JarFileArchive.java	100	Virtual Method Invocation
<org.springframework.boot.loader.archive.JarFileArchive: org.springframework.boot.loader.archive.Archive getNestedArchive(org.springframework.boot.loader.archive.Archive$Entry)>	6	JarFileArchive.java	100	Virtual Method Invocation
<org.springframework.boot.loader.archive.JarFileArchive: org.springframework.boot.loader.archive.Archive getNestedArchive(org.springframework.boot.loader.archive.Archive$Entry)>	23	JarFileArchive.java	109	Virtual Method Invocation
<org.springframework.boot.loader.archive.JarFileArchive: org.springframework.boot.loader.archive.Archive getNestedArchive(org.springframework.boot.loader.archive.Archive$Entry)>	24	JarFileArchive.java	109	Virtual Method Invocation
<org.springframework.boot.loader.archive.JarFileArchive: org.springframework.boot.loader.archive.Archive getNestedArchive(org.springframework.boot.loader.archive.Archive$Entry)>	25	JarFileArchive.java	109	Virtual Method Invocation
<org.springframework.boot.loader.archive.JarFileArchive: void unpack(java.util.jar.JarEntry,java.io.File)>	11	JarFileArchive.java	154	Virtual Method Invocation
<org.springframework.boot.loader.archive.JarFileArchive: void unpack(java.util.jar.JarEntry,java.io.File)>	24	JarFileArchive.java	164	Virtual Method Invocation
<org.springframework.boot.loader.archive.JarFileArchive: void unpack(java.util.jar.JarEntry,java.io.File)>	28	JarFileArchive.java	164	Virtual Method Invocation
<org.springframework.boot.loader.MainMethodRunner: void run()>	5	MainMethodRunner.java	46	Virtual Method Invocation
<org.springframework.boot.loader.MainMethodRunner: void run()>	10	MainMethodRunner.java	47	Virtual Method Invocation
<org.springframework.boot.loader.MainMethodRunner: void run()>	16	MainMethodRunner.java	48	Virtual Method Invocation
<org.springframework.boot.loader.PropertiesLauncher$1: boolean matches(org.springframework.boot.loader.archive.Archive$Entry)>	3	PropertiesLauncher.java	556	Virtual Method Invocation
<org.springframework.boot.loader.PropertiesLauncher$1: boolean matches(org.springframework.boot.loader.archive.Archive$Entry)>	5	PropertiesLauncher.java	557	Virtual Method Invocation
<org.springframework.boot.loader.PropertiesLauncher$1: boolean matches(org.springframework.boot.loader.archive.Archive$Entry)>	6	PropertiesLauncher.java	557	Virtual Method Invocation
<org.springframework.boot.loader.PropertiesLauncher$1: boolean matches(org.springframework.boot.loader.archive.Archive$Entry)>	9	PropertiesLauncher.java	559	Virtual Method Invocation
<org.springframework.boot.loader.PropertiesLauncher$1: boolean matches(org.springframework.boot.loader.archive.Archive$Entry)>	10	PropertiesLauncher.java	559	Virtual Method Invocation
<org.springframework.boot.loader.PropertiesLauncher$PrefixMatchingArchiveFilter: boolean matches(org.springframework.boot.loader.archive.Archive$Entry)>	3	PropertiesLauncher.java	647	Virtual Method Invocation
<org.springframework.boot.loader.PropertiesLauncher$PrefixMatchingArchiveFilter: boolean matches(org.springframework.boot.loader.archive.Archive$Entry)>	5	PropertiesLauncher.java	648	Virtual Method Invocation
<org.springframework.boot.loader.PropertiesLauncher$PrefixMatchingArchiveFilter: boolean matches(org.springframework.boot.loader.archive.Archive$Entry)>	7	PropertiesLauncher.java	648	Virtual Method Invocation
<org.springframework.boot.loader.PropertiesLauncher$PrefixMatchingArchiveFilter: boolean matches(org.springframework.boot.loader.archive.Archive$Entry)>	9	PropertiesLauncher.java	650	Virtual Method Invocation
<org.springframework.boot.loader.PropertiesLauncher$PrefixMatchingArchiveFilter: boolean matches(org.springframework.boot.loader.archive.Archive$Entry)>	11	PropertiesLauncher.java	650	Virtual Method Invocation
<org.springframework.boot.loader.jar.JarFile: java.util.jar.Manifest getManifest()>	30	JarFile.java	172	Virtual Method Invocation
<org.springframework.boot.loader.jar.JarFile: java.util.jar.Manifest getManifest()>	36	JarFile.java	172	Virtual Method Invocation
<org.springframework.boot.loader.jar.JarFile: java.io.InputStream getInputStream(java.util.zip.ZipEntry,org.springframework.boot.loader.data.RandomAccessData$ResourceAccess)>	13	JarFile.java	222	Virtual Method Invocation
<org.springframework.boot.loader.jar.JarFile: org.springframework.boot.loader.jar.JarFile getNestedJarFile(org.springframework.boot.loader.jar.JarEntry)>	12	JarFile.java	252	Virtual Method Invocation
<org.springframework.boot.loader.jar.JarFile: org.springframework.boot.loader.jar.JarFile getNestedJarFile(org.springframework.boot.loader.jar.JarEntry)>	13	JarFile.java	252	Virtual Method Invocation
<org.springframework.boot.loader.jar.JarFile: org.springframework.boot.loader.jar.JarFile getNestedJarFile(org.springframework.boot.loader.jar.JarEntry)>	14	JarFile.java	252	Virtual Method Invocation
<org.springframework.boot.loader.jar.JarFile: org.springframework.boot.loader.jar.JarFile getNestedJarFile(org.springframework.boot.loader.jar.JarEntry)>	16	JarFile.java	252	Virtual Method Invocation
<org.springframework.boot.loader.jar.JarFile: org.springframework.boot.loader.jar.JarFile createJarFileFromEntry(org.springframework.boot.loader.jar.JarEntry)>	3	JarFile.java	257	Virtual Method Invocation
<org.springframework.boot.loader.jar.JarFile: org.springframework.boot.loader.jar.JarFile createJarFileFromFileEntry(org.springframework.boot.loader.jar.JarEntry)>	3	JarFile.java	283	Virtual Method Invocation
<org.springframework.boot.loader.jar.JarFile: org.springframework.boot.loader.jar.JarFile createJarFileFromFileEntry(org.springframework.boot.loader.jar.JarEntry)>	10	JarFile.java	285	Virtual Method Invocation
<org.springframework.boot.loader.jar.JarFile: org.springframework.boot.loader.jar.JarFile createJarFileFromFileEntry(org.springframework.boot.loader.jar.JarEntry)>	11	JarFile.java	285	Virtual Method Invocation
<org.springframework.boot.loader.jar.JarFile: org.springframework.boot.loader.jar.JarFile createJarFileFromFileEntry(org.springframework.boot.loader.jar.JarEntry)>	12	JarFile.java	285	Virtual Method Invocation
<org.springframework.boot.loader.jar.JarFile: org.springframework.boot.loader.jar.JarFile createJarFileFromFileEntry(org.springframework.boot.loader.jar.JarEntry)>	14	JarFile.java	285	Virtual Method Invocation
<org.springframework.boot.loader.jar.JarFile: org.springframework.boot.loader.jar.JarFile createJarFileFromFileEntry(org.springframework.boot.loader.jar.JarEntry)>	18	JarFile.java	289	Virtual Method Invocation
<org.springframework.boot.loader.jar.JarFile: org.springframework.boot.loader.jar.JarFile createJarFileFromFileEntry(org.springframework.boot.loader.jar.JarEntry)>	26	JarFile.java	290	Virtual Method Invocation
<org.springframework.boot.loader.jar.JarFile: org.springframework.boot.loader.jar.JarFile createJarFileFromFileEntry(org.springframework.boot.loader.jar.JarEntry)>	28	JarFile.java	290	Virtual Method Invocation
<org.springframework.boot.loader.jar.JarFile: org.springframework.boot.loader.jar.JarFile createJarFileFromFileEntry(org.springframework.boot.loader.jar.JarEntry)>	29	JarFile.java	290	Virtual Method Invocation
<org.springframework.boot.loader.jar.JarFile: org.springframework.boot.loader.jar.JarFile createJarFileFromFileEntry(org.springframework.boot.loader.jar.JarEntry)>	30	JarFile.java	290	Virtual Method Invocation
<org.springframework.boot.loader.jar.JarFile: java.net.URL getUrl()>	14	JarFile.java	314	Virtual Method Invocation
<org.springframework.boot.loader.jar.JarFile: java.net.URL getUrl()>	15	JarFile.java	314	Virtual Method Invocation
<org.springframework.boot.loader.jar.JarFile: java.net.URL getUrl()>	17	JarFile.java	314	Virtual Method Invocation
<org.springframework.boot.loader.jar.JarFile: java.net.URL getUrl()>	18	JarFile.java	315	Virtual Method Invocation
<org.springframework.boot.loader.jar.JarFile: java.lang.String getName()>	8	JarFile.java	328	Virtual Method Invocation
<org.springframework.boot.loader.jar.JarFile: java.lang.String getName()>	9	JarFile.java	328	Virtual Method Invocation
<org.springframework.boot.loader.archive.ExplodedArchive$FileEntryIterator: java.util.Iterator listFiles(java.io.File)>	6	ExplodedArchive.java	183	Virtual Method Invocation
<org.springframework.boot.loader.archive.ExplodedArchive$FileEntryIterator: java.util.Iterator listFiles(java.io.File)>	11	ExplodedArchive.java	186	Virtual Method Invocation
<org.springframework.boot.loader.archive.ExplodedArchive$FileEntryIterator: java.io.File poll()>	8	ExplodedArchive.java	191	Virtual Method Invocation
<org.springframework.boot.loader.archive.ExplodedArchive$FileEntryIterator: java.io.File poll()>	13	ExplodedArchive.java	192	Virtual Method Invocation
<org.springframework.boot.loader.archive.ExplodedArchive$FileEntryIterator: java.io.File poll()>	16	ExplodedArchive.java	193	Virtual Method Invocation
<org.springframework.boot.loader.PropertiesLauncher$ArchiveEntryFilter: boolean matches(org.springframework.boot.loader.archive.Archive$Entry)>	3	PropertiesLauncher.java	667	Virtual Method Invocation
<org.springframework.boot.loader.PropertiesLauncher$ArchiveEntryFilter: boolean matches(org.springframework.boot.loader.archive.Archive$Entry)>	4	PropertiesLauncher.java	667	Virtual Method Invocation
<org.springframework.boot.loader.PropertiesLauncher$ArchiveEntryFilter: boolean matches(org.springframework.boot.loader.archive.Archive$Entry)>	7	PropertiesLauncher.java	667	Virtual Method Invocation
<org.springframework.boot.loader.PropertiesLauncher$ArchiveEntryFilter: boolean matches(org.springframework.boot.loader.archive.Archive$Entry)>	8	PropertiesLauncher.java	667	Virtual Method Invocation
<org.springframework.boot.loader.jar.CentralDirectoryParser: void visitStart(org.springframework.boot.loader.jar.CentralDirectoryEndRecord,org.springframework.boot.loader.data.RandomAccessData)>	6	CentralDirectoryParser.java	87	Virtual Method Invocation
<org.springframework.boot.loader.jar.CentralDirectoryParser: void visitStart(org.springframework.boot.loader.jar.CentralDirectoryEndRecord,org.springframework.boot.loader.data.RandomAccessData)>	8	CentralDirectoryParser.java	90	Virtual Method Invocation
<org.springframework.boot.loader.jar.CentralDirectoryParser: void visitStart(org.springframework.boot.loader.jar.CentralDirectoryEndRecord,org.springframework.boot.loader.data.RandomAccessData)>	10	CentralDirectoryParser.java	88	Virtual Method Invocation
<org.springframework.boot.loader.jar.CentralDirectoryParser: void visitFileHeader(int,org.springframework.boot.loader.jar.CentralDirectoryFileHeader)>	6	CentralDirectoryParser.java	93	Virtual Method Invocation
<org.springframework.boot.loader.jar.CentralDirectoryParser: void visitFileHeader(int,org.springframework.boot.loader.jar.CentralDirectoryFileHeader)>	8	CentralDirectoryParser.java	96	Virtual Method Invocation
<org.springframework.boot.loader.jar.CentralDirectoryParser: void visitFileHeader(int,org.springframework.boot.loader.jar.CentralDirectoryFileHeader)>	10	CentralDirectoryParser.java	94	Virtual Method Invocation
<org.springframework.boot.loader.jar.CentralDirectoryParser: void visitEnd()>	4	CentralDirectoryParser.java	99	Virtual Method Invocation
<org.springframework.boot.loader.jar.CentralDirectoryParser: void visitEnd()>	6	CentralDirectoryParser.java	102	Virtual Method Invocation
<org.springframework.boot.loader.jar.CentralDirectoryParser: void visitEnd()>	8	CentralDirectoryParser.java	100	Virtual Method Invocation
<org.springframework.boot.loader.jar.JarFileEntries: java.io.InputStream getInputStream(org.springframework.boot.loader.jar.FileHeader,org.springframework.boot.loader.data.RandomAccessData$ResourceAccess)>	9	JarFileEntries.java	193	Virtual Method Invocation
<org.springframework.boot.loader.jar.JarFileEntries: java.io.InputStream getInputStream(org.springframework.boot.loader.jar.FileHeader,org.springframework.boot.loader.data.RandomAccessData$ResourceAccess)>	12	JarFileEntries.java	194	Virtual Method Invocation
<org.springframework.boot.loader.jar.CentralDirectoryFileHeader: org.springframework.boot.loader.jar.CentralDirectoryFileHeader fromRandomAccessData(org.springframework.boot.loader.data.RandomAccessData,int,org.springframework.boot.loader.jar.JarEntryFilter)>	8	CentralDirectoryFileHeader.java	180	Virtual Method Invocation
<org.springframework.boot.loader.jar.AsciiBytes: int hashCode(java.lang.String)>	2	AsciiBytes.java	223	Virtual Method Invocation
<org.springframework.boot.loader.jar.JarFileEntries: org.springframework.boot.loader.jar.FileHeader getEntry(int,java.lang.Class,boolean)>	7	JarFileEntries.java	248	Virtual Method Invocation
<org.springframework.boot.loader.jar.JarFileEntries: org.springframework.boot.loader.jar.FileHeader getEntry(int,java.lang.Class,boolean)>	14	JarFileEntries.java	250	Load Array Index
<org.springframework.boot.loader.jar.JarFileEntries: org.springframework.boot.loader.jar.FileHeader getEntry(int,java.lang.Class,boolean)>	39	JarFileEntries.java	258	Virtual Method Invocation
<org.springframework.boot.loader.jar.CentralDirectoryFileHeader: boolean hasName(java.lang.String,java.lang.String)>	12	CentralDirectoryFileHeader.java	106	Virtual Method Invocation
<org.springframework.boot.loader.jar.CentralDirectoryFileHeader: boolean hasName(java.lang.String,java.lang.String)>	13	CentralDirectoryFileHeader.java	106	Virtual Method Invocation
