java.lang.String	String
java.lang.Class	Class
java.lang.invoke.MethodHandle	MethodHandle
boolean	boolean
byte	byte
char	char
short	short
int	int
long	long
float	float
double	double
void	void
null_type	null_type
java.lang.Object	Object
java.lang.String[]	String[]
java.lang.StringBuilder	StringBuilder
java.lang.Thread	Thread
java.lang.ClassLoader	ClassLoader
java.lang.Throwable	Throwable
org.springframework.boot.loader.jar.CentralDirectoryEndRecord	CentralDirectoryEndRecord
org.springframework.boot.loader.ExecutableArchiveLauncher	ExecutableArchiveLauncher
org.springframework.boot.loader.data.RandomAccessDataFile$FilePool	RandomAccessDataFile$FilePool
org.springframework.boot.loader.jar.Handler	Handler
org.springframework.boot.loader.jar.JarURLConnection$1	JarURLConnection$1
org.springframework.boot.loader.jar.AsciiBytes	AsciiBytes
org.springframework.boot.loader.Launcher	Launcher
org.springframework.boot.loader.jar.JarFileEntries	JarFileEntries
org.springframework.boot.loader.archive.Archive$EntryFilter	Archive$EntryFilter
org.springframework.boot.loader.archive.JarFileArchive$EntryIterator	JarFileArchive$EntryIterator
org.springframework.boot.loader.data.RandomAccessData$ResourceAccess	RandomAccessData$ResourceAccess
org.springframework.boot.loader.data.RandomAccessDataFile	RandomAccessDataFile
org.springframework.boot.loader.archive.Archive	Archive
org.springframework.boot.loader.jar.JarFile	JarFile
org.springframework.boot.loader.jar.CentralDirectoryVisitor	CentralDirectoryVisitor
org.springframework.boot.loader.PropertiesLauncher$1	PropertiesLauncher$1
org.springframework.boot.loader.archive.ExplodedArchive$FileEntryIterator$EntryComparator	ExplodedArchive$FileEntryIterator$EntryComparator
org.springframework.boot.loader.data.RandomAccessData	RandomAccessData
org.springframework.boot.loader.jar.ZipInflaterInputStream	ZipInflaterInputStream
org.springframework.boot.loader.jar.JarFile$2	JarFile$2
org.springframework.boot.loader.archive.ExplodedArchive$FileEntryIterator	ExplodedArchive$FileEntryIterator
org.springframework.boot.loader.data.ByteArrayRandomAccessData	ByteArrayRandomAccessData
org.springframework.boot.loader.jar.JarFileEntries$EntryIterator	JarFileEntries$EntryIterator
org.springframework.boot.loader.jar.JarURLConnection$JarEntryName	JarURLConnection$JarEntryName
org.springframework.boot.loader.jar.JarFile$JarFileType	JarFile$JarFileType
org.springframework.boot.loader.jar.CentralDirectoryFileHeader	CentralDirectoryFileHeader
org.springframework.boot.loader.jar.JarFile$3	JarFile$3
org.springframework.boot.loader.jar.JarURLConnection	JarURLConnection
org.springframework.boot.loader.MainMethodRunner	MainMethodRunner
org.springframework.boot.loader.LaunchedURLClassLoader	LaunchedURLClassLoader
org.springframework.boot.loader.LaunchedURLClassLoader$1	LaunchedURLClassLoader$1
org.springframework.boot.loader.PropertiesLauncher$PrefixMatchingArchiveFilter	PropertiesLauncher$PrefixMatchingArchiveFilter
org.springframework.boot.loader.ExecutableArchiveLauncher$1	ExecutableArchiveLauncher$1
org.springframework.boot.loader.archive.ExplodedArchive	ExplodedArchive
org.springframework.boot.loader.jar.JarFile$1	JarFile$1
org.springframework.boot.loader.WarLauncher	WarLauncher
org.springframework.boot.loader.archive.ExplodedArchive$1	ExplodedArchive$1
org.springframework.boot.loader.jar.JarEntry	JarEntry
org.springframework.boot.loader.jar.JarEntryFilter	JarEntryFilter
org.springframework.boot.loader.jar.Bytes	Bytes
org.springframework.boot.loader.jar.FileHeader	FileHeader
org.springframework.boot.loader.archive.JarFileArchive	JarFileArchive
org.springframework.boot.loader.JarLauncher	JarLauncher
org.springframework.boot.loader.archive.ExplodedArchive$FileEntry	ExplodedArchive$FileEntry
org.springframework.boot.loader.PropertiesLauncher$ArchiveEntryFilter	PropertiesLauncher$ArchiveEntryFilter
org.springframework.boot.loader.PropertiesLauncher	PropertiesLauncher
org.springframework.boot.loader.jar.JarFileEntries$1	JarFileEntries$1
org.springframework.boot.loader.archive.JarFileArchive$JarFileEntry	JarFileArchive$JarFileEntry
org.springframework.boot.loader.util.SystemPropertyUtils	SystemPropertyUtils
org.springframework.boot.loader.jar.CentralDirectoryParser	CentralDirectoryParser
org.springframework.boot.loader.archive.Archive$Entry	Archive$Entry
org.springframework.boot.loader.data.RandomAccessDataFile$DataInputStream	RandomAccessDataFile$DataInputStream
byte[]	byte[]
java.lang.Object[]	Object[]
java.lang.Class[]	Class[]
java.net.URL[]	URL[]
int[]	int[]
org.springframework.boot.loader.data.RandomAccessData$ResourceAccess[]	RandomAccessData$ResourceAccess[]
java.io.File[]	File[]
org.springframework.boot.loader.jar.JarFile$JarFileType[]	JarFile$JarFileType[]
java.security.cert.Certificate[]	Certificate[]
java.security.CodeSigner[]	CodeSigner[]
java.net.URLStreamHandler	URLStreamHandler
java.net.URL	URL
org.owasp.webgoat.StartWebGoat	StartWebGoat
org.owasp.webgoat.HSQLDBDatabaseConfig	HSQLDBDatabaseConfig
java.io.File	File
java.security.cert.Certificate	Certificate
java.security.CodeSigner	CodeSigner
java.lang.Enum	Enum
java.util.jar.JarFile	JarFile
java.util.zip.InflaterInputStream	InflaterInputStream
java.net.JarURLConnection	JarURLConnection
java.net.URLClassLoader	URLClassLoader
java.util.jar.JarEntry	JarEntry
java.util.LinkedHashMap	LinkedHashMap
java.io.InputStream	InputStream
java.lang.Iterable	Iterable
java.util.Iterator	Iterator
java.util.Comparator	Comparator
java.util.Enumeration	Enumeration
java.security.PrivilegedExceptionAction	PrivilegedExceptionAction
java.io.IOException	IOException
java.lang.Exception	Exception
java.net.MalformedURLException	MalformedURLException
java.lang.CloneNotSupportedException	CloneNotSupportedException
java.io.FileNotFoundException	FileNotFoundException
java.lang.ClassNotFoundException	ClassNotFoundException
java.lang.IllegalArgumentException	IllegalArgumentException
java.io.UnsupportedEncodingException	UnsupportedEncodingException
java.lang.IllegalStateException	IllegalStateException
java.util.ArrayList	ArrayList
java.util.concurrent.Semaphore	Semaphore
java.util.concurrent.ConcurrentLinkedQueue	ConcurrentLinkedQueue
java.io.RandomAccessFile	RandomAccessFile
java.util.concurrent.ConcurrentHashMap	ConcurrentHashMap
java.lang.ref.SoftReference	SoftReference
java.lang.IndexOutOfBoundsException	IndexOutOfBoundsException
java.lang.UnsupportedOperationException	UnsupportedOperationException
java.util.jar.Manifest	Manifest
java.util.jar.JarInputStream	JarInputStream
java.util.zip.Inflater	Inflater
java.util.LinkedList	LinkedList
java.util.NoSuchElementException	NoSuchElementException
java.io.ByteArrayInputStream	ByteArrayInputStream
java.io.ByteArrayOutputStream	ByteArrayOutputStream
java.util.GregorianCalendar	GregorianCalendar
java.io.FilePermission	FilePermission
java.lang.ThreadLocal	ThreadLocal
java.lang.AssertionError	AssertionError
java.io.FileInputStream	FileInputStream
java.util.HashSet	HashSet
java.io.FileOutputStream	FileOutputStream
java.util.Properties	Properties
java.util.LinkedHashSet	LinkedHashSet
java.lang.NullPointerException	NullPointerException
java.util.jar.Attributes	Attributes
java.util.List	List
java.util.Queue	Queue
java.net.URLConnection	URLConnection
java.lang.RuntimeException	RuntimeException
java.util.logging.Logger	Logger
java.io.PrintStream	PrintStream
java.util.logging.Level	Level
java.lang.reflect.Method	Method
java.util.regex.Pattern	Pattern
java.util.regex.Matcher	Matcher
java.util.Map	Map
java.nio.charset.Charset	Charset
java.security.ProtectionDomain	ProtectionDomain
java.security.CodeSource	CodeSource
java.net.URI	URI
java.lang.Integer	Integer
java.util.zip.ZipEntry	ZipEntry
java.lang.Error	Error
java.net.URLStreamHandlerFactory	URLStreamHandlerFactory
java.io.EOFException	EOFException
java.util.Deque	Deque
java.util.Set	Set
java.util.Calendar	Calendar
java.lang.Boolean	Boolean
java.security.Permission	Permission
java.lang.Package	Package
java.security.PrivilegedActionException	PrivilegedActionException
java.security.AccessControlContext	AccessControlContext
java.lang.NoSuchMethodError	NoSuchMethodError
java.util.UUID	UUID
java.net.HttpURLConnection	HttpURLConnection
java.lang.reflect.Constructor	Constructor
java.lang.NoSuchMethodException	NoSuchMethodException
java.util.Locale	Locale
java.lang.CharSequence	CharSequence
java.util.Map$Entry	Map$Entry
