java.lang.String	6
java.lang.Class	5
java.lang.invoke.MethodHandle	12
boolean	7
byte	4
char	4
short	5
int	3
long	4
float	5
double	6
void	4
null_type	9
java.lang.Object	6
java.lang.String[]	8
java.lang.StringBuilder	13
java.lang.Thread	6
java.lang.ClassLoader	11
java.lang.Throwable	9
org.springframework.boot.loader.jar.CentralDirectoryEndRecord	25
org.springframework.boot.loader.ExecutableArchiveLauncher	25
org.springframework.boot.loader.data.RandomAccessDataFile$FilePool	29
org.springframework.boot.loader.jar.Handler	7
org.springframework.boot.loader.jar.JarURLConnection$1	18
org.springframework.boot.loader.jar.AsciiBytes	10
org.springframework.boot.loader.Launcher	8
org.springframework.boot.loader.jar.JarFileEntries	14
org.springframework.boot.loader.archive.Archive$EntryFilter	19
org.springframework.boot.loader.archive.JarFileArchive$EntryIterator	28
org.springframework.boot.loader.data.RandomAccessData$ResourceAccess	31
org.springframework.boot.loader.data.RandomAccessDataFile	20
org.springframework.boot.loader.archive.Archive	7
org.springframework.boot.loader.jar.JarFile	7
org.springframework.boot.loader.jar.CentralDirectoryVisitor	23
org.springframework.boot.loader.PropertiesLauncher$1	20
org.springframework.boot.loader.archive.ExplodedArchive$FileEntryIterator$EntryComparator	49
org.springframework.boot.loader.data.RandomAccessData	16
org.springframework.boot.loader.jar.ZipInflaterInputStream	22
org.springframework.boot.loader.jar.JarFile$2	9
org.springframework.boot.loader.archive.ExplodedArchive$FileEntryIterator	33
org.springframework.boot.loader.data.ByteArrayRandomAccessData	25
org.springframework.boot.loader.jar.JarFileEntries$EntryIterator	28
org.springframework.boot.loader.jar.JarURLConnection$JarEntryName	29
org.springframework.boot.loader.jar.JarFile$JarFileType	19
org.springframework.boot.loader.jar.CentralDirectoryFileHeader	26
org.springframework.boot.loader.jar.JarFile$3	9
org.springframework.boot.loader.jar.JarURLConnection	16
org.springframework.boot.loader.MainMethodRunner	16
org.springframework.boot.loader.LaunchedURLClassLoader	22
org.springframework.boot.loader.LaunchedURLClassLoader$1	24
org.springframework.boot.loader.PropertiesLauncher$PrefixMatchingArchiveFilter	46
org.springframework.boot.loader.ExecutableArchiveLauncher$1	27
org.springframework.boot.loader.archive.ExplodedArchive	15
org.springframework.boot.loader.jar.JarFile$1	9
org.springframework.boot.loader.WarLauncher	11
org.springframework.boot.loader.archive.ExplodedArchive$1	17
org.springframework.boot.loader.jar.JarEntry	8
org.springframework.boot.loader.jar.JarEntryFilter	14
org.springframework.boot.loader.jar.Bytes	5
org.springframework.boot.loader.jar.FileHeader	10
org.springframework.boot.loader.archive.JarFileArchive	14
org.springframework.boot.loader.JarLauncher	11
org.springframework.boot.loader.archive.ExplodedArchive$FileEntry	25
org.springframework.boot.loader.PropertiesLauncher$ArchiveEntryFilter	37
org.springframework.boot.loader.PropertiesLauncher	18
org.springframework.boot.loader.jar.JarFileEntries$1	16
org.springframework.boot.loader.archive.JarFileArchive$JarFileEntry	27
org.springframework.boot.loader.util.SystemPropertyUtils	19
org.springframework.boot.loader.jar.CentralDirectoryParser	22
org.springframework.boot.loader.archive.Archive$Entry	13
org.springframework.boot.loader.data.RandomAccessDataFile$DataInputStream	36
byte[]	6
java.lang.Object[]	8
java.lang.Class[]	7
java.net.URL[]	5
int[]	5
org.springframework.boot.loader.data.RandomAccessData$ResourceAccess[]	33
java.io.File[]	6
org.springframework.boot.loader.jar.JarFile$JarFileType[]	21
java.security.cert.Certificate[]	13
java.security.CodeSigner[]	12
java.net.URLStreamHandler	16
java.net.URL	3
org.owasp.webgoat.StartWebGoat	12
org.owasp.webgoat.HSQLDBDatabaseConfig	20
java.io.File	4
java.security.cert.Certificate	11
java.security.CodeSigner	10
java.lang.Enum	4
java.util.jar.JarFile	7
java.util.zip.InflaterInputStream	19
java.net.JarURLConnection	16
java.net.URLClassLoader	14
java.util.jar.JarEntry	8
java.util.LinkedHashMap	13
java.io.InputStream	11
java.lang.Iterable	8
java.util.Iterator	8
java.util.Comparator	10
java.util.Enumeration	11
java.security.PrivilegedExceptionAction	25
java.io.IOException	11
java.lang.Exception	9
java.net.MalformedURLException	21
java.lang.CloneNotSupportedException	26
java.io.FileNotFoundException	21
java.lang.ClassNotFoundException	22
java.lang.IllegalArgumentException	24
java.io.UnsupportedEncodingException	28
java.lang.IllegalStateException	21
java.util.ArrayList	9
java.util.concurrent.Semaphore	9
java.util.concurrent.ConcurrentLinkedQueue	21
java.io.RandomAccessFile	16
java.util.concurrent.ConcurrentHashMap	17
java.lang.ref.SoftReference	13
java.lang.IndexOutOfBoundsException	25
java.lang.UnsupportedOperationException	29
java.util.jar.Manifest	8
java.util.jar.JarInputStream	14
java.util.zip.Inflater	8
java.util.LinkedList	10
java.util.NoSuchElementException	22
java.io.ByteArrayInputStream	20
java.io.ByteArrayOutputStream	21
java.util.GregorianCalendar	17
java.io.FilePermission	14
java.lang.ThreadLocal	11
java.lang.AssertionError	14
java.io.FileInputStream	15
java.util.HashSet	7
java.io.FileOutputStream	16
java.util.Properties	10
java.util.LinkedHashSet	13
java.lang.NullPointerException	20
java.util.jar.Attributes	10
java.util.List	4
java.util.Queue	5
java.net.URLConnection	13
java.lang.RuntimeException	16
java.util.logging.Logger	6
java.io.PrintStream	11
java.util.logging.Level	5
java.lang.reflect.Method	6
java.util.regex.Pattern	7
java.util.regex.Matcher	7
java.util.Map	3
java.nio.charset.Charset	7
java.security.ProtectionDomain	16
java.security.CodeSource	10
java.net.URI	3
java.lang.Integer	7
java.util.zip.ZipEntry	8
java.lang.Error	5
java.net.URLStreamHandlerFactory	23
java.io.EOFException	12
java.util.Deque	5
java.util.Set	3
java.util.Calendar	8
java.lang.Boolean	7
java.security.Permission	10
java.lang.Package	7
java.security.PrivilegedActionException	25
java.security.AccessControlContext	20
java.lang.NoSuchMethodError	17
java.util.UUID	4
java.net.HttpURLConnection	17
java.lang.reflect.Constructor	11
java.lang.NoSuchMethodException	21
java.util.Locale	6
java.lang.CharSequence	12
java.util.Map$Entry	9
