java.lang.String	String	6
java.lang.String	lang.String	11
java.lang.String	java.lang.String	16
java.lang.Class	Class	5
java.lang.Class	lang.Class	10
java.lang.Class	java.lang.Class	15
java.lang.invoke.MethodHandle	MethodHandle	12
java.lang.invoke.MethodHandle	invoke.MethodHandle	19
java.lang.invoke.MethodHandle	lang.invoke.MethodHandle	24
java.lang.invoke.MethodHandle	java.lang.invoke.MethodHandle	29
boolean	boolean	7
byte	byte	4
char	char	4
short	short	5
int	int	3
long	long	4
float	float	5
double	double	6
void	void	4
null_type	null_type	9
java.lang.Object	Object	6
java.lang.Object	lang.Object	11
java.lang.Object	java.lang.Object	16
java.lang.String[]	String[]	8
java.lang.String[]	lang.String[]	13
java.lang.String[]	java.lang.String[]	18
java.lang.StringBuilder	StringBuilder	13
java.lang.StringBuilder	lang.StringBuilder	18
java.lang.StringBuilder	java.lang.StringBuilder	23
java.lang.Thread	Thread	6
java.lang.Thread	lang.Thread	11
java.lang.Thread	java.lang.Thread	16
java.lang.ClassLoader	ClassLoader	11
java.lang.ClassLoader	lang.ClassLoader	16
java.lang.ClassLoader	java.lang.ClassLoader	21
java.lang.Throwable	Throwable	9
java.lang.Throwable	lang.Throwable	14
java.lang.Throwable	java.lang.Throwable	19
org.springframework.boot.loader.jar.CentralDirectoryEndRecord	CentralDirectoryEndRecord	25
org.springframework.boot.loader.jar.CentralDirectoryEndRecord	jar.CentralDirectoryEndRecord	29
org.springframework.boot.loader.jar.CentralDirectoryEndRecord	loader.jar.CentralDirectoryEndRecord	36
org.springframework.boot.loader.jar.CentralDirectoryEndRecord	boot.loader.jar.CentralDirectoryEndRecord	41
org.springframework.boot.loader.jar.CentralDirectoryEndRecord	springframework.boot.loader.jar.CentralDirectoryEndRecord	57
org.springframework.boot.loader.jar.CentralDirectoryEndRecord	org.springframework.boot.loader.jar.CentralDirectoryEndRecord	61
org.springframework.boot.loader.ExecutableArchiveLauncher	ExecutableArchiveLauncher	25
org.springframework.boot.loader.ExecutableArchiveLauncher	loader.ExecutableArchiveLauncher	32
org.springframework.boot.loader.ExecutableArchiveLauncher	boot.loader.ExecutableArchiveLauncher	37
org.springframework.boot.loader.ExecutableArchiveLauncher	springframework.boot.loader.ExecutableArchiveLauncher	53
org.springframework.boot.loader.ExecutableArchiveLauncher	org.springframework.boot.loader.ExecutableArchiveLauncher	57
org.springframework.boot.loader.data.RandomAccessDataFile$FilePool	RandomAccessDataFile$FilePool	29
org.springframework.boot.loader.data.RandomAccessDataFile$FilePool	data.RandomAccessDataFile$FilePool	34
org.springframework.boot.loader.data.RandomAccessDataFile$FilePool	loader.data.RandomAccessDataFile$FilePool	41
org.springframework.boot.loader.data.RandomAccessDataFile$FilePool	boot.loader.data.RandomAccessDataFile$FilePool	46
org.springframework.boot.loader.data.RandomAccessDataFile$FilePool	springframework.boot.loader.data.RandomAccessDataFile$FilePool	62
org.springframework.boot.loader.data.RandomAccessDataFile$FilePool	org.springframework.boot.loader.data.RandomAccessDataFile$FilePool	66
org.springframework.boot.loader.jar.Handler	Handler	7
org.springframework.boot.loader.jar.Handler	jar.Handler	11
org.springframework.boot.loader.jar.Handler	loader.jar.Handler	18
org.springframework.boot.loader.jar.Handler	boot.loader.jar.Handler	23
org.springframework.boot.loader.jar.Handler	springframework.boot.loader.jar.Handler	39
org.springframework.boot.loader.jar.Handler	org.springframework.boot.loader.jar.Handler	43
org.springframework.boot.loader.jar.JarURLConnection$1	JarURLConnection$1	18
org.springframework.boot.loader.jar.JarURLConnection$1	jar.JarURLConnection$1	22
org.springframework.boot.loader.jar.JarURLConnection$1	loader.jar.JarURLConnection$1	29
org.springframework.boot.loader.jar.JarURLConnection$1	boot.loader.jar.JarURLConnection$1	34
org.springframework.boot.loader.jar.JarURLConnection$1	springframework.boot.loader.jar.JarURLConnection$1	50
org.springframework.boot.loader.jar.JarURLConnection$1	org.springframework.boot.loader.jar.JarURLConnection$1	54
org.springframework.boot.loader.jar.AsciiBytes	AsciiBytes	10
org.springframework.boot.loader.jar.AsciiBytes	jar.AsciiBytes	14
org.springframework.boot.loader.jar.AsciiBytes	loader.jar.AsciiBytes	21
org.springframework.boot.loader.jar.AsciiBytes	boot.loader.jar.AsciiBytes	26
org.springframework.boot.loader.jar.AsciiBytes	springframework.boot.loader.jar.AsciiBytes	42
org.springframework.boot.loader.jar.AsciiBytes	org.springframework.boot.loader.jar.AsciiBytes	46
org.springframework.boot.loader.Launcher	Launcher	8
org.springframework.boot.loader.Launcher	loader.Launcher	15
org.springframework.boot.loader.Launcher	boot.loader.Launcher	20
org.springframework.boot.loader.Launcher	springframework.boot.loader.Launcher	36
org.springframework.boot.loader.Launcher	org.springframework.boot.loader.Launcher	40
org.springframework.boot.loader.jar.JarFileEntries	JarFileEntries	14
org.springframework.boot.loader.jar.JarFileEntries	jar.JarFileEntries	18
org.springframework.boot.loader.jar.JarFileEntries	loader.jar.JarFileEntries	25
org.springframework.boot.loader.jar.JarFileEntries	boot.loader.jar.JarFileEntries	30
org.springframework.boot.loader.jar.JarFileEntries	springframework.boot.loader.jar.JarFileEntries	46
org.springframework.boot.loader.jar.JarFileEntries	org.springframework.boot.loader.jar.JarFileEntries	50
org.springframework.boot.loader.archive.Archive$EntryFilter	Archive$EntryFilter	19
org.springframework.boot.loader.archive.Archive$EntryFilter	archive.Archive$EntryFilter	27
org.springframework.boot.loader.archive.Archive$EntryFilter	loader.archive.Archive$EntryFilter	34
org.springframework.boot.loader.archive.Archive$EntryFilter	boot.loader.archive.Archive$EntryFilter	39
org.springframework.boot.loader.archive.Archive$EntryFilter	springframework.boot.loader.archive.Archive$EntryFilter	55
org.springframework.boot.loader.archive.Archive$EntryFilter	org.springframework.boot.loader.archive.Archive$EntryFilter	59
org.springframework.boot.loader.archive.JarFileArchive$EntryIterator	JarFileArchive$EntryIterator	28
org.springframework.boot.loader.archive.JarFileArchive$EntryIterator	archive.JarFileArchive$EntryIterator	36
org.springframework.boot.loader.archive.JarFileArchive$EntryIterator	loader.archive.JarFileArchive$EntryIterator	43
org.springframework.boot.loader.archive.JarFileArchive$EntryIterator	boot.loader.archive.JarFileArchive$EntryIterator	48
org.springframework.boot.loader.archive.JarFileArchive$EntryIterator	springframework.boot.loader.archive.JarFileArchive$EntryIterator	64
org.springframework.boot.loader.archive.JarFileArchive$EntryIterator	org.springframework.boot.loader.archive.JarFileArchive$EntryIterator	68
org.springframework.boot.loader.data.RandomAccessData$ResourceAccess	RandomAccessData$ResourceAccess	31
org.springframework.boot.loader.data.RandomAccessData$ResourceAccess	data.RandomAccessData$ResourceAccess	36
org.springframework.boot.loader.data.RandomAccessData$ResourceAccess	loader.data.RandomAccessData$ResourceAccess	43
org.springframework.boot.loader.data.RandomAccessData$ResourceAccess	boot.loader.data.RandomAccessData$ResourceAccess	48
org.springframework.boot.loader.data.RandomAccessData$ResourceAccess	springframework.boot.loader.data.RandomAccessData$ResourceAccess	64
org.springframework.boot.loader.data.RandomAccessData$ResourceAccess	org.springframework.boot.loader.data.RandomAccessData$ResourceAccess	68
org.springframework.boot.loader.data.RandomAccessDataFile	RandomAccessDataFile	20
org.springframework.boot.loader.data.RandomAccessDataFile	data.RandomAccessDataFile	25
org.springframework.boot.loader.data.RandomAccessDataFile	loader.data.RandomAccessDataFile	32
org.springframework.boot.loader.data.RandomAccessDataFile	boot.loader.data.RandomAccessDataFile	37
org.springframework.boot.loader.data.RandomAccessDataFile	springframework.boot.loader.data.RandomAccessDataFile	53
org.springframework.boot.loader.data.RandomAccessDataFile	org.springframework.boot.loader.data.RandomAccessDataFile	57
org.springframework.boot.loader.archive.Archive	Archive	7
org.springframework.boot.loader.archive.Archive	archive.Archive	15
org.springframework.boot.loader.archive.Archive	loader.archive.Archive	22
org.springframework.boot.loader.archive.Archive	boot.loader.archive.Archive	27
org.springframework.boot.loader.archive.Archive	springframework.boot.loader.archive.Archive	43
org.springframework.boot.loader.archive.Archive	org.springframework.boot.loader.archive.Archive	47
org.springframework.boot.loader.jar.JarFile	JarFile	7
org.springframework.boot.loader.jar.JarFile	jar.JarFile	11
org.springframework.boot.loader.jar.JarFile	loader.jar.JarFile	18
org.springframework.boot.loader.jar.JarFile	boot.loader.jar.JarFile	23
org.springframework.boot.loader.jar.JarFile	springframework.boot.loader.jar.JarFile	39
org.springframework.boot.loader.jar.JarFile	org.springframework.boot.loader.jar.JarFile	43
org.springframework.boot.loader.jar.CentralDirectoryVisitor	CentralDirectoryVisitor	23
org.springframework.boot.loader.jar.CentralDirectoryVisitor	jar.CentralDirectoryVisitor	27
org.springframework.boot.loader.jar.CentralDirectoryVisitor	loader.jar.CentralDirectoryVisitor	34
org.springframework.boot.loader.jar.CentralDirectoryVisitor	boot.loader.jar.CentralDirectoryVisitor	39
org.springframework.boot.loader.jar.CentralDirectoryVisitor	springframework.boot.loader.jar.CentralDirectoryVisitor	55
org.springframework.boot.loader.jar.CentralDirectoryVisitor	org.springframework.boot.loader.jar.CentralDirectoryVisitor	59
org.springframework.boot.loader.PropertiesLauncher$1	PropertiesLauncher$1	20
org.springframework.boot.loader.PropertiesLauncher$1	loader.PropertiesLauncher$1	27
org.springframework.boot.loader.PropertiesLauncher$1	boot.loader.PropertiesLauncher$1	32
org.springframework.boot.loader.PropertiesLauncher$1	springframework.boot.loader.PropertiesLauncher$1	48
org.springframework.boot.loader.PropertiesLauncher$1	org.springframework.boot.loader.PropertiesLauncher$1	52
org.springframework.boot.loader.archive.ExplodedArchive$FileEntryIterator$EntryComparator	ExplodedArchive$FileEntryIterator$EntryComparator	49
org.springframework.boot.loader.archive.ExplodedArchive$FileEntryIterator$EntryComparator	archive.ExplodedArchive$FileEntryIterator$EntryComparator	57
org.springframework.boot.loader.archive.ExplodedArchive$FileEntryIterator$EntryComparator	loader.archive.ExplodedArchive$FileEntryIterator$EntryComparator	64
org.springframework.boot.loader.archive.ExplodedArchive$FileEntryIterator$EntryComparator	boot.loader.archive.ExplodedArchive$FileEntryIterator$EntryComparator	69
org.springframework.boot.loader.archive.ExplodedArchive$FileEntryIterator$EntryComparator	springframework.boot.loader.archive.ExplodedArchive$FileEntryIterator$EntryComparator	85
org.springframework.boot.loader.archive.ExplodedArchive$FileEntryIterator$EntryComparator	org.springframework.boot.loader.archive.ExplodedArchive$FileEntryIterator$EntryComparator	89
org.springframework.boot.loader.data.RandomAccessData	RandomAccessData	16
org.springframework.boot.loader.data.RandomAccessData	data.RandomAccessData	21
org.springframework.boot.loader.data.RandomAccessData	loader.data.RandomAccessData	28
org.springframework.boot.loader.data.RandomAccessData	boot.loader.data.RandomAccessData	33
org.springframework.boot.loader.data.RandomAccessData	springframework.boot.loader.data.RandomAccessData	49
org.springframework.boot.loader.data.RandomAccessData	org.springframework.boot.loader.data.RandomAccessData	53
org.springframework.boot.loader.jar.ZipInflaterInputStream	ZipInflaterInputStream	22
org.springframework.boot.loader.jar.ZipInflaterInputStream	jar.ZipInflaterInputStream	26
org.springframework.boot.loader.jar.ZipInflaterInputStream	loader.jar.ZipInflaterInputStream	33
org.springframework.boot.loader.jar.ZipInflaterInputStream	boot.loader.jar.ZipInflaterInputStream	38
org.springframework.boot.loader.jar.ZipInflaterInputStream	springframework.boot.loader.jar.ZipInflaterInputStream	54
org.springframework.boot.loader.jar.ZipInflaterInputStream	org.springframework.boot.loader.jar.ZipInflaterInputStream	58
org.springframework.boot.loader.jar.JarFile$2	JarFile$2	9
org.springframework.boot.loader.jar.JarFile$2	jar.JarFile$2	13
org.springframework.boot.loader.jar.JarFile$2	loader.jar.JarFile$2	20
org.springframework.boot.loader.jar.JarFile$2	boot.loader.jar.JarFile$2	25
org.springframework.boot.loader.jar.JarFile$2	springframework.boot.loader.jar.JarFile$2	41
org.springframework.boot.loader.jar.JarFile$2	org.springframework.boot.loader.jar.JarFile$2	45
org.springframework.boot.loader.archive.ExplodedArchive$FileEntryIterator	ExplodedArchive$FileEntryIterator	33
org.springframework.boot.loader.archive.ExplodedArchive$FileEntryIterator	archive.ExplodedArchive$FileEntryIterator	41
org.springframework.boot.loader.archive.ExplodedArchive$FileEntryIterator	loader.archive.ExplodedArchive$FileEntryIterator	48
org.springframework.boot.loader.archive.ExplodedArchive$FileEntryIterator	boot.loader.archive.ExplodedArchive$FileEntryIterator	53
org.springframework.boot.loader.archive.ExplodedArchive$FileEntryIterator	springframework.boot.loader.archive.ExplodedArchive$FileEntryIterator	69
org.springframework.boot.loader.archive.ExplodedArchive$FileEntryIterator	org.springframework.boot.loader.archive.ExplodedArchive$FileEntryIterator	73
org.springframework.boot.loader.data.ByteArrayRandomAccessData	ByteArrayRandomAccessData	25
org.springframework.boot.loader.data.ByteArrayRandomAccessData	data.ByteArrayRandomAccessData	30
org.springframework.boot.loader.data.ByteArrayRandomAccessData	loader.data.ByteArrayRandomAccessData	37
org.springframework.boot.loader.data.ByteArrayRandomAccessData	boot.loader.data.ByteArrayRandomAccessData	42
org.springframework.boot.loader.data.ByteArrayRandomAccessData	springframework.boot.loader.data.ByteArrayRandomAccessData	58
org.springframework.boot.loader.data.ByteArrayRandomAccessData	org.springframework.boot.loader.data.ByteArrayRandomAccessData	62
org.springframework.boot.loader.jar.JarFileEntries$EntryIterator	JarFileEntries$EntryIterator	28
org.springframework.boot.loader.jar.JarFileEntries$EntryIterator	jar.JarFileEntries$EntryIterator	32
org.springframework.boot.loader.jar.JarFileEntries$EntryIterator	loader.jar.JarFileEntries$EntryIterator	39
org.springframework.boot.loader.jar.JarFileEntries$EntryIterator	boot.loader.jar.JarFileEntries$EntryIterator	44
org.springframework.boot.loader.jar.JarFileEntries$EntryIterator	springframework.boot.loader.jar.JarFileEntries$EntryIterator	60
org.springframework.boot.loader.jar.JarFileEntries$EntryIterator	org.springframework.boot.loader.jar.JarFileEntries$EntryIterator	64
org.springframework.boot.loader.jar.JarURLConnection$JarEntryName	JarURLConnection$JarEntryName	29
org.springframework.boot.loader.jar.JarURLConnection$JarEntryName	jar.JarURLConnection$JarEntryName	33
org.springframework.boot.loader.jar.JarURLConnection$JarEntryName	loader.jar.JarURLConnection$JarEntryName	40
org.springframework.boot.loader.jar.JarURLConnection$JarEntryName	boot.loader.jar.JarURLConnection$JarEntryName	45
org.springframework.boot.loader.jar.JarURLConnection$JarEntryName	springframework.boot.loader.jar.JarURLConnection$JarEntryName	61
org.springframework.boot.loader.jar.JarURLConnection$JarEntryName	org.springframework.boot.loader.jar.JarURLConnection$JarEntryName	65
org.springframework.boot.loader.jar.JarFile$JarFileType	JarFile$JarFileType	19
org.springframework.boot.loader.jar.JarFile$JarFileType	jar.JarFile$JarFileType	23
org.springframework.boot.loader.jar.JarFile$JarFileType	loader.jar.JarFile$JarFileType	30
org.springframework.boot.loader.jar.JarFile$JarFileType	boot.loader.jar.JarFile$JarFileType	35
org.springframework.boot.loader.jar.JarFile$JarFileType	springframework.boot.loader.jar.JarFile$JarFileType	51
org.springframework.boot.loader.jar.JarFile$JarFileType	org.springframework.boot.loader.jar.JarFile$JarFileType	55
org.springframework.boot.loader.jar.CentralDirectoryFileHeader	CentralDirectoryFileHeader	26
org.springframework.boot.loader.jar.CentralDirectoryFileHeader	jar.CentralDirectoryFileHeader	30
org.springframework.boot.loader.jar.CentralDirectoryFileHeader	loader.jar.CentralDirectoryFileHeader	37
org.springframework.boot.loader.jar.CentralDirectoryFileHeader	boot.loader.jar.CentralDirectoryFileHeader	42
org.springframework.boot.loader.jar.CentralDirectoryFileHeader	springframework.boot.loader.jar.CentralDirectoryFileHeader	58
org.springframework.boot.loader.jar.CentralDirectoryFileHeader	org.springframework.boot.loader.jar.CentralDirectoryFileHeader	62
org.springframework.boot.loader.jar.JarFile$3	JarFile$3	9
org.springframework.boot.loader.jar.JarFile$3	jar.JarFile$3	13
org.springframework.boot.loader.jar.JarFile$3	loader.jar.JarFile$3	20
org.springframework.boot.loader.jar.JarFile$3	boot.loader.jar.JarFile$3	25
org.springframework.boot.loader.jar.JarFile$3	springframework.boot.loader.jar.JarFile$3	41
org.springframework.boot.loader.jar.JarFile$3	org.springframework.boot.loader.jar.JarFile$3	45
org.springframework.boot.loader.jar.JarURLConnection	JarURLConnection	16
org.springframework.boot.loader.jar.JarURLConnection	jar.JarURLConnection	20
org.springframework.boot.loader.jar.JarURLConnection	loader.jar.JarURLConnection	27
org.springframework.boot.loader.jar.JarURLConnection	boot.loader.jar.JarURLConnection	32
org.springframework.boot.loader.jar.JarURLConnection	springframework.boot.loader.jar.JarURLConnection	48
org.springframework.boot.loader.jar.JarURLConnection	org.springframework.boot.loader.jar.JarURLConnection	52
org.springframework.boot.loader.MainMethodRunner	MainMethodRunner	16
org.springframework.boot.loader.MainMethodRunner	loader.MainMethodRunner	23
org.springframework.boot.loader.MainMethodRunner	boot.loader.MainMethodRunner	28
org.springframework.boot.loader.MainMethodRunner	springframework.boot.loader.MainMethodRunner	44
org.springframework.boot.loader.MainMethodRunner	org.springframework.boot.loader.MainMethodRunner	48
org.springframework.boot.loader.LaunchedURLClassLoader	LaunchedURLClassLoader	22
org.springframework.boot.loader.LaunchedURLClassLoader	loader.LaunchedURLClassLoader	29
org.springframework.boot.loader.LaunchedURLClassLoader	boot.loader.LaunchedURLClassLoader	34
org.springframework.boot.loader.LaunchedURLClassLoader	springframework.boot.loader.LaunchedURLClassLoader	50
org.springframework.boot.loader.LaunchedURLClassLoader	org.springframework.boot.loader.LaunchedURLClassLoader	54
org.springframework.boot.loader.LaunchedURLClassLoader$1	LaunchedURLClassLoader$1	24
org.springframework.boot.loader.LaunchedURLClassLoader$1	loader.LaunchedURLClassLoader$1	31
org.springframework.boot.loader.LaunchedURLClassLoader$1	boot.loader.LaunchedURLClassLoader$1	36
org.springframework.boot.loader.LaunchedURLClassLoader$1	springframework.boot.loader.LaunchedURLClassLoader$1	52
org.springframework.boot.loader.LaunchedURLClassLoader$1	org.springframework.boot.loader.LaunchedURLClassLoader$1	56
org.springframework.boot.loader.PropertiesLauncher$PrefixMatchingArchiveFilter	PropertiesLauncher$PrefixMatchingArchiveFilter	46
org.springframework.boot.loader.PropertiesLauncher$PrefixMatchingArchiveFilter	loader.PropertiesLauncher$PrefixMatchingArchiveFilter	53
org.springframework.boot.loader.PropertiesLauncher$PrefixMatchingArchiveFilter	boot.loader.PropertiesLauncher$PrefixMatchingArchiveFilter	58
org.springframework.boot.loader.PropertiesLauncher$PrefixMatchingArchiveFilter	springframework.boot.loader.PropertiesLauncher$PrefixMatchingArchiveFilter	74
org.springframework.boot.loader.PropertiesLauncher$PrefixMatchingArchiveFilter	org.springframework.boot.loader.PropertiesLauncher$PrefixMatchingArchiveFilter	78
org.springframework.boot.loader.ExecutableArchiveLauncher$1	ExecutableArchiveLauncher$1	27
org.springframework.boot.loader.ExecutableArchiveLauncher$1	loader.ExecutableArchiveLauncher$1	34
org.springframework.boot.loader.ExecutableArchiveLauncher$1	boot.loader.ExecutableArchiveLauncher$1	39
org.springframework.boot.loader.ExecutableArchiveLauncher$1	springframework.boot.loader.ExecutableArchiveLauncher$1	55
org.springframework.boot.loader.ExecutableArchiveLauncher$1	org.springframework.boot.loader.ExecutableArchiveLauncher$1	59
org.springframework.boot.loader.archive.ExplodedArchive	ExplodedArchive	15
org.springframework.boot.loader.archive.ExplodedArchive	archive.ExplodedArchive	23
org.springframework.boot.loader.archive.ExplodedArchive	loader.archive.ExplodedArchive	30
org.springframework.boot.loader.archive.ExplodedArchive	boot.loader.archive.ExplodedArchive	35
org.springframework.boot.loader.archive.ExplodedArchive	springframework.boot.loader.archive.ExplodedArchive	51
org.springframework.boot.loader.archive.ExplodedArchive	org.springframework.boot.loader.archive.ExplodedArchive	55
org.springframework.boot.loader.jar.JarFile$1	JarFile$1	9
org.springframework.boot.loader.jar.JarFile$1	jar.JarFile$1	13
org.springframework.boot.loader.jar.JarFile$1	loader.jar.JarFile$1	20
org.springframework.boot.loader.jar.JarFile$1	boot.loader.jar.JarFile$1	25
org.springframework.boot.loader.jar.JarFile$1	springframework.boot.loader.jar.JarFile$1	41
org.springframework.boot.loader.jar.JarFile$1	org.springframework.boot.loader.jar.JarFile$1	45
org.springframework.boot.loader.WarLauncher	WarLauncher	11
org.springframework.boot.loader.WarLauncher	loader.WarLauncher	18
org.springframework.boot.loader.WarLauncher	boot.loader.WarLauncher	23
org.springframework.boot.loader.WarLauncher	springframework.boot.loader.WarLauncher	39
org.springframework.boot.loader.WarLauncher	org.springframework.boot.loader.WarLauncher	43
org.springframework.boot.loader.archive.ExplodedArchive$1	ExplodedArchive$1	17
org.springframework.boot.loader.archive.ExplodedArchive$1	archive.ExplodedArchive$1	25
org.springframework.boot.loader.archive.ExplodedArchive$1	loader.archive.ExplodedArchive$1	32
org.springframework.boot.loader.archive.ExplodedArchive$1	boot.loader.archive.ExplodedArchive$1	37
org.springframework.boot.loader.archive.ExplodedArchive$1	springframework.boot.loader.archive.ExplodedArchive$1	53
org.springframework.boot.loader.archive.ExplodedArchive$1	org.springframework.boot.loader.archive.ExplodedArchive$1	57
org.springframework.boot.loader.jar.JarEntry	JarEntry	8
org.springframework.boot.loader.jar.JarEntry	jar.JarEntry	12
org.springframework.boot.loader.jar.JarEntry	loader.jar.JarEntry	19
org.springframework.boot.loader.jar.JarEntry	boot.loader.jar.JarEntry	24
org.springframework.boot.loader.jar.JarEntry	springframework.boot.loader.jar.JarEntry	40
org.springframework.boot.loader.jar.JarEntry	org.springframework.boot.loader.jar.JarEntry	44
org.springframework.boot.loader.jar.JarEntryFilter	JarEntryFilter	14
org.springframework.boot.loader.jar.JarEntryFilter	jar.JarEntryFilter	18
org.springframework.boot.loader.jar.JarEntryFilter	loader.jar.JarEntryFilter	25
org.springframework.boot.loader.jar.JarEntryFilter	boot.loader.jar.JarEntryFilter	30
org.springframework.boot.loader.jar.JarEntryFilter	springframework.boot.loader.jar.JarEntryFilter	46
org.springframework.boot.loader.jar.JarEntryFilter	org.springframework.boot.loader.jar.JarEntryFilter	50
org.springframework.boot.loader.jar.Bytes	Bytes	5
org.springframework.boot.loader.jar.Bytes	jar.Bytes	9
org.springframework.boot.loader.jar.Bytes	loader.jar.Bytes	16
org.springframework.boot.loader.jar.Bytes	boot.loader.jar.Bytes	21
org.springframework.boot.loader.jar.Bytes	springframework.boot.loader.jar.Bytes	37
org.springframework.boot.loader.jar.Bytes	org.springframework.boot.loader.jar.Bytes	41
org.springframework.boot.loader.jar.FileHeader	FileHeader	10
org.springframework.boot.loader.jar.FileHeader	jar.FileHeader	14
org.springframework.boot.loader.jar.FileHeader	loader.jar.FileHeader	21
org.springframework.boot.loader.jar.FileHeader	boot.loader.jar.FileHeader	26
org.springframework.boot.loader.jar.FileHeader	springframework.boot.loader.jar.FileHeader	42
org.springframework.boot.loader.jar.FileHeader	org.springframework.boot.loader.jar.FileHeader	46
org.springframework.boot.loader.archive.JarFileArchive	JarFileArchive	14
org.springframework.boot.loader.archive.JarFileArchive	archive.JarFileArchive	22
org.springframework.boot.loader.archive.JarFileArchive	loader.archive.JarFileArchive	29
org.springframework.boot.loader.archive.JarFileArchive	boot.loader.archive.JarFileArchive	34
org.springframework.boot.loader.archive.JarFileArchive	springframework.boot.loader.archive.JarFileArchive	50
org.springframework.boot.loader.archive.JarFileArchive	org.springframework.boot.loader.archive.JarFileArchive	54
org.springframework.boot.loader.JarLauncher	JarLauncher	11
org.springframework.boot.loader.JarLauncher	loader.JarLauncher	18
org.springframework.boot.loader.JarLauncher	boot.loader.JarLauncher	23
org.springframework.boot.loader.JarLauncher	springframework.boot.loader.JarLauncher	39
org.springframework.boot.loader.JarLauncher	org.springframework.boot.loader.JarLauncher	43
org.springframework.boot.loader.archive.ExplodedArchive$FileEntry	ExplodedArchive$FileEntry	25
org.springframework.boot.loader.archive.ExplodedArchive$FileEntry	archive.ExplodedArchive$FileEntry	33
org.springframework.boot.loader.archive.ExplodedArchive$FileEntry	loader.archive.ExplodedArchive$FileEntry	40
org.springframework.boot.loader.archive.ExplodedArchive$FileEntry	boot.loader.archive.ExplodedArchive$FileEntry	45
org.springframework.boot.loader.archive.ExplodedArchive$FileEntry	springframework.boot.loader.archive.ExplodedArchive$FileEntry	61
org.springframework.boot.loader.archive.ExplodedArchive$FileEntry	org.springframework.boot.loader.archive.ExplodedArchive$FileEntry	65
org.springframework.boot.loader.PropertiesLauncher$ArchiveEntryFilter	PropertiesLauncher$ArchiveEntryFilter	37
org.springframework.boot.loader.PropertiesLauncher$ArchiveEntryFilter	loader.PropertiesLauncher$ArchiveEntryFilter	44
org.springframework.boot.loader.PropertiesLauncher$ArchiveEntryFilter	boot.loader.PropertiesLauncher$ArchiveEntryFilter	49
org.springframework.boot.loader.PropertiesLauncher$ArchiveEntryFilter	springframework.boot.loader.PropertiesLauncher$ArchiveEntryFilter	65
org.springframework.boot.loader.PropertiesLauncher$ArchiveEntryFilter	org.springframework.boot.loader.PropertiesLauncher$ArchiveEntryFilter	69
org.springframework.boot.loader.PropertiesLauncher	PropertiesLauncher	18
org.springframework.boot.loader.PropertiesLauncher	loader.PropertiesLauncher	25
org.springframework.boot.loader.PropertiesLauncher	boot.loader.PropertiesLauncher	30
org.springframework.boot.loader.PropertiesLauncher	springframework.boot.loader.PropertiesLauncher	46
org.springframework.boot.loader.PropertiesLauncher	org.springframework.boot.loader.PropertiesLauncher	50
org.springframework.boot.loader.jar.JarFileEntries$1	JarFileEntries$1	16
org.springframework.boot.loader.jar.JarFileEntries$1	jar.JarFileEntries$1	20
org.springframework.boot.loader.jar.JarFileEntries$1	loader.jar.JarFileEntries$1	27
org.springframework.boot.loader.jar.JarFileEntries$1	boot.loader.jar.JarFileEntries$1	32
org.springframework.boot.loader.jar.JarFileEntries$1	springframework.boot.loader.jar.JarFileEntries$1	48
org.springframework.boot.loader.jar.JarFileEntries$1	org.springframework.boot.loader.jar.JarFileEntries$1	52
org.springframework.boot.loader.archive.JarFileArchive$JarFileEntry	JarFileArchive$JarFileEntry	27
org.springframework.boot.loader.archive.JarFileArchive$JarFileEntry	archive.JarFileArchive$JarFileEntry	35
org.springframework.boot.loader.archive.JarFileArchive$JarFileEntry	loader.archive.JarFileArchive$JarFileEntry	42
org.springframework.boot.loader.archive.JarFileArchive$JarFileEntry	boot.loader.archive.JarFileArchive$JarFileEntry	47
org.springframework.boot.loader.archive.JarFileArchive$JarFileEntry	springframework.boot.loader.archive.JarFileArchive$JarFileEntry	63
org.springframework.boot.loader.archive.JarFileArchive$JarFileEntry	org.springframework.boot.loader.archive.JarFileArchive$JarFileEntry	67
org.springframework.boot.loader.util.SystemPropertyUtils	SystemPropertyUtils	19
org.springframework.boot.loader.util.SystemPropertyUtils	util.SystemPropertyUtils	24
org.springframework.boot.loader.util.SystemPropertyUtils	loader.util.SystemPropertyUtils	31
org.springframework.boot.loader.util.SystemPropertyUtils	boot.loader.util.SystemPropertyUtils	36
org.springframework.boot.loader.util.SystemPropertyUtils	springframework.boot.loader.util.SystemPropertyUtils	52
org.springframework.boot.loader.util.SystemPropertyUtils	org.springframework.boot.loader.util.SystemPropertyUtils	56
org.springframework.boot.loader.jar.CentralDirectoryParser	CentralDirectoryParser	22
org.springframework.boot.loader.jar.CentralDirectoryParser	jar.CentralDirectoryParser	26
org.springframework.boot.loader.jar.CentralDirectoryParser	loader.jar.CentralDirectoryParser	33
org.springframework.boot.loader.jar.CentralDirectoryParser	boot.loader.jar.CentralDirectoryParser	38
org.springframework.boot.loader.jar.CentralDirectoryParser	springframework.boot.loader.jar.CentralDirectoryParser	54
org.springframework.boot.loader.jar.CentralDirectoryParser	org.springframework.boot.loader.jar.CentralDirectoryParser	58
org.springframework.boot.loader.archive.Archive$Entry	Archive$Entry	13
org.springframework.boot.loader.archive.Archive$Entry	archive.Archive$Entry	21
org.springframework.boot.loader.archive.Archive$Entry	loader.archive.Archive$Entry	28
org.springframework.boot.loader.archive.Archive$Entry	boot.loader.archive.Archive$Entry	33
org.springframework.boot.loader.archive.Archive$Entry	springframework.boot.loader.archive.Archive$Entry	49
org.springframework.boot.loader.archive.Archive$Entry	org.springframework.boot.loader.archive.Archive$Entry	53
org.springframework.boot.loader.data.RandomAccessDataFile$DataInputStream	RandomAccessDataFile$DataInputStream	36
org.springframework.boot.loader.data.RandomAccessDataFile$DataInputStream	data.RandomAccessDataFile$DataInputStream	41
org.springframework.boot.loader.data.RandomAccessDataFile$DataInputStream	loader.data.RandomAccessDataFile$DataInputStream	48
org.springframework.boot.loader.data.RandomAccessDataFile$DataInputStream	boot.loader.data.RandomAccessDataFile$DataInputStream	53
org.springframework.boot.loader.data.RandomAccessDataFile$DataInputStream	springframework.boot.loader.data.RandomAccessDataFile$DataInputStream	69
org.springframework.boot.loader.data.RandomAccessDataFile$DataInputStream	org.springframework.boot.loader.data.RandomAccessDataFile$DataInputStream	73
byte[]	byte[]	6
java.lang.Object[]	Object[]	8
java.lang.Object[]	lang.Object[]	13
java.lang.Object[]	java.lang.Object[]	18
java.lang.Class[]	Class[]	7
java.lang.Class[]	lang.Class[]	12
java.lang.Class[]	java.lang.Class[]	17
java.net.URL[]	URL[]	5
java.net.URL[]	net.URL[]	9
java.net.URL[]	java.net.URL[]	14
int[]	int[]	5
org.springframework.boot.loader.data.RandomAccessData$ResourceAccess[]	RandomAccessData$ResourceAccess[]	33
org.springframework.boot.loader.data.RandomAccessData$ResourceAccess[]	data.RandomAccessData$ResourceAccess[]	38
org.springframework.boot.loader.data.RandomAccessData$ResourceAccess[]	loader.data.RandomAccessData$ResourceAccess[]	45
org.springframework.boot.loader.data.RandomAccessData$ResourceAccess[]	boot.loader.data.RandomAccessData$ResourceAccess[]	50
org.springframework.boot.loader.data.RandomAccessData$ResourceAccess[]	springframework.boot.loader.data.RandomAccessData$ResourceAccess[]	66
org.springframework.boot.loader.data.RandomAccessData$ResourceAccess[]	org.springframework.boot.loader.data.RandomAccessData$ResourceAccess[]	70
java.io.File[]	File[]	6
java.io.File[]	io.File[]	9
java.io.File[]	java.io.File[]	14
org.springframework.boot.loader.jar.JarFile$JarFileType[]	JarFile$JarFileType[]	21
org.springframework.boot.loader.jar.JarFile$JarFileType[]	jar.JarFile$JarFileType[]	25
org.springframework.boot.loader.jar.JarFile$JarFileType[]	loader.jar.JarFile$JarFileType[]	32
org.springframework.boot.loader.jar.JarFile$JarFileType[]	boot.loader.jar.JarFile$JarFileType[]	37
org.springframework.boot.loader.jar.JarFile$JarFileType[]	springframework.boot.loader.jar.JarFile$JarFileType[]	53
org.springframework.boot.loader.jar.JarFile$JarFileType[]	org.springframework.boot.loader.jar.JarFile$JarFileType[]	57
java.security.cert.Certificate[]	Certificate[]	13
java.security.cert.Certificate[]	cert.Certificate[]	18
java.security.cert.Certificate[]	security.cert.Certificate[]	27
java.security.cert.Certificate[]	java.security.cert.Certificate[]	32
java.security.CodeSigner[]	CodeSigner[]	12
java.security.CodeSigner[]	security.CodeSigner[]	21
java.security.CodeSigner[]	java.security.CodeSigner[]	26
java.net.URLStreamHandler	URLStreamHandler	16
java.net.URLStreamHandler	net.URLStreamHandler	20
java.net.URLStreamHandler	java.net.URLStreamHandler	25
java.net.URL	URL	3
java.net.URL	net.URL	7
java.net.URL	java.net.URL	12
org.owasp.webgoat.StartWebGoat	StartWebGoat	12
org.owasp.webgoat.StartWebGoat	webgoat.StartWebGoat	20
org.owasp.webgoat.StartWebGoat	owasp.webgoat.StartWebGoat	26
org.owasp.webgoat.StartWebGoat	org.owasp.webgoat.StartWebGoat	30
org.owasp.webgoat.HSQLDBDatabaseConfig	HSQLDBDatabaseConfig	20
org.owasp.webgoat.HSQLDBDatabaseConfig	webgoat.HSQLDBDatabaseConfig	28
org.owasp.webgoat.HSQLDBDatabaseConfig	owasp.webgoat.HSQLDBDatabaseConfig	34
org.owasp.webgoat.HSQLDBDatabaseConfig	org.owasp.webgoat.HSQLDBDatabaseConfig	38
java.io.File	File	4
java.io.File	io.File	7
java.io.File	java.io.File	12
java.security.cert.Certificate	Certificate	11
java.security.cert.Certificate	cert.Certificate	16
java.security.cert.Certificate	security.cert.Certificate	25
java.security.cert.Certificate	java.security.cert.Certificate	30
java.security.CodeSigner	CodeSigner	10
java.security.CodeSigner	security.CodeSigner	19
java.security.CodeSigner	java.security.CodeSigner	24
java.lang.Enum	Enum	4
java.lang.Enum	lang.Enum	9
java.lang.Enum	java.lang.Enum	14
java.util.jar.JarFile	JarFile	7
java.util.jar.JarFile	jar.JarFile	11
java.util.jar.JarFile	util.jar.JarFile	16
java.util.jar.JarFile	java.util.jar.JarFile	21
java.util.zip.InflaterInputStream	InflaterInputStream	19
java.util.zip.InflaterInputStream	zip.InflaterInputStream	23
java.util.zip.InflaterInputStream	util.zip.InflaterInputStream	28
java.util.zip.InflaterInputStream	java.util.zip.InflaterInputStream	33
java.net.JarURLConnection	JarURLConnection	16
java.net.JarURLConnection	net.JarURLConnection	20
java.net.JarURLConnection	java.net.JarURLConnection	25
java.net.URLClassLoader	URLClassLoader	14
java.net.URLClassLoader	net.URLClassLoader	18
java.net.URLClassLoader	java.net.URLClassLoader	23
java.util.jar.JarEntry	JarEntry	8
java.util.jar.JarEntry	jar.JarEntry	12
java.util.jar.JarEntry	util.jar.JarEntry	17
java.util.jar.JarEntry	java.util.jar.JarEntry	22
java.util.LinkedHashMap	LinkedHashMap	13
java.util.LinkedHashMap	util.LinkedHashMap	18
java.util.LinkedHashMap	java.util.LinkedHashMap	23
java.io.InputStream	InputStream	11
java.io.InputStream	io.InputStream	14
java.io.InputStream	java.io.InputStream	19
java.lang.Iterable	Iterable	8
java.lang.Iterable	lang.Iterable	13
java.lang.Iterable	java.lang.Iterable	18
java.util.Iterator	Iterator	8
java.util.Iterator	util.Iterator	13
java.util.Iterator	java.util.Iterator	18
java.util.Comparator	Comparator	10
java.util.Comparator	util.Comparator	15
java.util.Comparator	java.util.Comparator	20
java.util.Enumeration	Enumeration	11
java.util.Enumeration	util.Enumeration	16
java.util.Enumeration	java.util.Enumeration	21
java.security.PrivilegedExceptionAction	PrivilegedExceptionAction	25
java.security.PrivilegedExceptionAction	security.PrivilegedExceptionAction	34
java.security.PrivilegedExceptionAction	java.security.PrivilegedExceptionAction	39
java.io.IOException	IOException	11
java.io.IOException	io.IOException	14
java.io.IOException	java.io.IOException	19
java.lang.Exception	Exception	9
java.lang.Exception	lang.Exception	14
java.lang.Exception	java.lang.Exception	19
java.net.MalformedURLException	MalformedURLException	21
java.net.MalformedURLException	net.MalformedURLException	25
java.net.MalformedURLException	java.net.MalformedURLException	30
java.lang.CloneNotSupportedException	CloneNotSupportedException	26
java.lang.CloneNotSupportedException	lang.CloneNotSupportedException	31
java.lang.CloneNotSupportedException	java.lang.CloneNotSupportedException	36
java.io.FileNotFoundException	FileNotFoundException	21
java.io.FileNotFoundException	io.FileNotFoundException	24
java.io.FileNotFoundException	java.io.FileNotFoundException	29
java.lang.ClassNotFoundException	ClassNotFoundException	22
java.lang.ClassNotFoundException	lang.ClassNotFoundException	27
java.lang.ClassNotFoundException	java.lang.ClassNotFoundException	32
java.lang.IllegalArgumentException	IllegalArgumentException	24
java.lang.IllegalArgumentException	lang.IllegalArgumentException	29
java.lang.IllegalArgumentException	java.lang.IllegalArgumentException	34
java.io.UnsupportedEncodingException	UnsupportedEncodingException	28
java.io.UnsupportedEncodingException	io.UnsupportedEncodingException	31
java.io.UnsupportedEncodingException	java.io.UnsupportedEncodingException	36
java.lang.IllegalStateException	IllegalStateException	21
java.lang.IllegalStateException	lang.IllegalStateException	26
java.lang.IllegalStateException	java.lang.IllegalStateException	31
java.util.ArrayList	ArrayList	9
java.util.ArrayList	util.ArrayList	14
java.util.ArrayList	java.util.ArrayList	19
java.util.concurrent.Semaphore	Semaphore	9
java.util.concurrent.Semaphore	concurrent.Semaphore	20
java.util.concurrent.Semaphore	util.concurrent.Semaphore	25
java.util.concurrent.Semaphore	java.util.concurrent.Semaphore	30
java.util.concurrent.ConcurrentLinkedQueue	ConcurrentLinkedQueue	21
java.util.concurrent.ConcurrentLinkedQueue	concurrent.ConcurrentLinkedQueue	32
java.util.concurrent.ConcurrentLinkedQueue	util.concurrent.ConcurrentLinkedQueue	37
java.util.concurrent.ConcurrentLinkedQueue	java.util.concurrent.ConcurrentLinkedQueue	42
java.io.RandomAccessFile	RandomAccessFile	16
java.io.RandomAccessFile	io.RandomAccessFile	19
java.io.RandomAccessFile	java.io.RandomAccessFile	24
java.util.concurrent.ConcurrentHashMap	ConcurrentHashMap	17
java.util.concurrent.ConcurrentHashMap	concurrent.ConcurrentHashMap	28
java.util.concurrent.ConcurrentHashMap	util.concurrent.ConcurrentHashMap	33
java.util.concurrent.ConcurrentHashMap	java.util.concurrent.ConcurrentHashMap	38
java.lang.ref.SoftReference	SoftReference	13
java.lang.ref.SoftReference	ref.SoftReference	17
java.lang.ref.SoftReference	lang.ref.SoftReference	22
java.lang.ref.SoftReference	java.lang.ref.SoftReference	27
java.lang.IndexOutOfBoundsException	IndexOutOfBoundsException	25
java.lang.IndexOutOfBoundsException	lang.IndexOutOfBoundsException	30
java.lang.IndexOutOfBoundsException	java.lang.IndexOutOfBoundsException	35
java.lang.UnsupportedOperationException	UnsupportedOperationException	29
java.lang.UnsupportedOperationException	lang.UnsupportedOperationException	34
java.lang.UnsupportedOperationException	java.lang.UnsupportedOperationException	39
java.util.jar.Manifest	Manifest	8
java.util.jar.Manifest	jar.Manifest	12
java.util.jar.Manifest	util.jar.Manifest	17
java.util.jar.Manifest	java.util.jar.Manifest	22
java.util.jar.JarInputStream	JarInputStream	14
java.util.jar.JarInputStream	jar.JarInputStream	18
java.util.jar.JarInputStream	util.jar.JarInputStream	23
java.util.jar.JarInputStream	java.util.jar.JarInputStream	28
java.util.zip.Inflater	Inflater	8
java.util.zip.Inflater	zip.Inflater	12
java.util.zip.Inflater	util.zip.Inflater	17
java.util.zip.Inflater	java.util.zip.Inflater	22
java.util.LinkedList	LinkedList	10
java.util.LinkedList	util.LinkedList	15
java.util.LinkedList	java.util.LinkedList	20
java.util.NoSuchElementException	NoSuchElementException	22
java.util.NoSuchElementException	util.NoSuchElementException	27
java.util.NoSuchElementException	java.util.NoSuchElementException	32
java.io.ByteArrayInputStream	ByteArrayInputStream	20
java.io.ByteArrayInputStream	io.ByteArrayInputStream	23
java.io.ByteArrayInputStream	java.io.ByteArrayInputStream	28
java.io.ByteArrayOutputStream	ByteArrayOutputStream	21
java.io.ByteArrayOutputStream	io.ByteArrayOutputStream	24
java.io.ByteArrayOutputStream	java.io.ByteArrayOutputStream	29
java.util.GregorianCalendar	GregorianCalendar	17
java.util.GregorianCalendar	util.GregorianCalendar	22
java.util.GregorianCalendar	java.util.GregorianCalendar	27
java.io.FilePermission	FilePermission	14
java.io.FilePermission	io.FilePermission	17
java.io.FilePermission	java.io.FilePermission	22
java.lang.ThreadLocal	ThreadLocal	11
java.lang.ThreadLocal	lang.ThreadLocal	16
java.lang.ThreadLocal	java.lang.ThreadLocal	21
java.lang.AssertionError	AssertionError	14
java.lang.AssertionError	lang.AssertionError	19
java.lang.AssertionError	java.lang.AssertionError	24
java.io.FileInputStream	FileInputStream	15
java.io.FileInputStream	io.FileInputStream	18
java.io.FileInputStream	java.io.FileInputStream	23
java.util.HashSet	HashSet	7
java.util.HashSet	util.HashSet	12
java.util.HashSet	java.util.HashSet	17
java.io.FileOutputStream	FileOutputStream	16
java.io.FileOutputStream	io.FileOutputStream	19
java.io.FileOutputStream	java.io.FileOutputStream	24
java.util.Properties	Properties	10
java.util.Properties	util.Properties	15
java.util.Properties	java.util.Properties	20
java.util.LinkedHashSet	LinkedHashSet	13
java.util.LinkedHashSet	util.LinkedHashSet	18
java.util.LinkedHashSet	java.util.LinkedHashSet	23
java.lang.NullPointerException	NullPointerException	20
java.lang.NullPointerException	lang.NullPointerException	25
java.lang.NullPointerException	java.lang.NullPointerException	30
java.util.jar.Attributes	Attributes	10
java.util.jar.Attributes	jar.Attributes	14
java.util.jar.Attributes	util.jar.Attributes	19
java.util.jar.Attributes	java.util.jar.Attributes	24
java.util.List	List	4
java.util.List	util.List	9
java.util.List	java.util.List	14
java.util.Queue	Queue	5
java.util.Queue	util.Queue	10
java.util.Queue	java.util.Queue	15
java.net.URLConnection	URLConnection	13
java.net.URLConnection	net.URLConnection	17
java.net.URLConnection	java.net.URLConnection	22
java.lang.RuntimeException	RuntimeException	16
java.lang.RuntimeException	lang.RuntimeException	21
java.lang.RuntimeException	java.lang.RuntimeException	26
java.util.logging.Logger	Logger	6
java.util.logging.Logger	logging.Logger	14
java.util.logging.Logger	util.logging.Logger	19
java.util.logging.Logger	java.util.logging.Logger	24
java.io.PrintStream	PrintStream	11
java.io.PrintStream	io.PrintStream	14
java.io.PrintStream	java.io.PrintStream	19
java.util.logging.Level	Level	5
java.util.logging.Level	logging.Level	13
java.util.logging.Level	util.logging.Level	18
java.util.logging.Level	java.util.logging.Level	23
java.lang.reflect.Method	Method	6
java.lang.reflect.Method	reflect.Method	14
java.lang.reflect.Method	lang.reflect.Method	19
java.lang.reflect.Method	java.lang.reflect.Method	24
java.util.regex.Pattern	Pattern	7
java.util.regex.Pattern	regex.Pattern	13
java.util.regex.Pattern	util.regex.Pattern	18
java.util.regex.Pattern	java.util.regex.Pattern	23
java.util.regex.Matcher	Matcher	7
java.util.regex.Matcher	regex.Matcher	13
java.util.regex.Matcher	util.regex.Matcher	18
java.util.regex.Matcher	java.util.regex.Matcher	23
java.util.Map	Map	3
java.util.Map	util.Map	8
java.util.Map	java.util.Map	13
java.nio.charset.Charset	Charset	7
java.nio.charset.Charset	charset.Charset	15
java.nio.charset.Charset	nio.charset.Charset	19
java.nio.charset.Charset	java.nio.charset.Charset	24
java.security.ProtectionDomain	ProtectionDomain	16
java.security.ProtectionDomain	security.ProtectionDomain	25
java.security.ProtectionDomain	java.security.ProtectionDomain	30
java.security.CodeSource	CodeSource	10
java.security.CodeSource	security.CodeSource	19
java.security.CodeSource	java.security.CodeSource	24
java.net.URI	URI	3
java.net.URI	net.URI	7
java.net.URI	java.net.URI	12
java.lang.Integer	Integer	7
java.lang.Integer	lang.Integer	12
java.lang.Integer	java.lang.Integer	17
java.util.zip.ZipEntry	ZipEntry	8
java.util.zip.ZipEntry	zip.ZipEntry	12
java.util.zip.ZipEntry	util.zip.ZipEntry	17
java.util.zip.ZipEntry	java.util.zip.ZipEntry	22
java.lang.Error	Error	5
java.lang.Error	lang.Error	10
java.lang.Error	java.lang.Error	15
java.net.URLStreamHandlerFactory	URLStreamHandlerFactory	23
java.net.URLStreamHandlerFactory	net.URLStreamHandlerFactory	27
java.net.URLStreamHandlerFactory	java.net.URLStreamHandlerFactory	32
java.io.EOFException	EOFException	12
java.io.EOFException	io.EOFException	15
java.io.EOFException	java.io.EOFException	20
java.util.Deque	Deque	5
java.util.Deque	util.Deque	10
java.util.Deque	java.util.Deque	15
java.util.Set	Set	3
java.util.Set	util.Set	8
java.util.Set	java.util.Set	13
java.util.Calendar	Calendar	8
java.util.Calendar	util.Calendar	13
java.util.Calendar	java.util.Calendar	18
java.lang.Boolean	Boolean	7
java.lang.Boolean	lang.Boolean	12
java.lang.Boolean	java.lang.Boolean	17
java.security.Permission	Permission	10
java.security.Permission	security.Permission	19
java.security.Permission	java.security.Permission	24
java.lang.Package	Package	7
java.lang.Package	lang.Package	12
java.lang.Package	java.lang.Package	17
java.security.PrivilegedActionException	PrivilegedActionException	25
java.security.PrivilegedActionException	security.PrivilegedActionException	34
java.security.PrivilegedActionException	java.security.PrivilegedActionException	39
java.security.AccessControlContext	AccessControlContext	20
java.security.AccessControlContext	security.AccessControlContext	29
java.security.AccessControlContext	java.security.AccessControlContext	34
java.lang.NoSuchMethodError	NoSuchMethodError	17
java.lang.NoSuchMethodError	lang.NoSuchMethodError	22
java.lang.NoSuchMethodError	java.lang.NoSuchMethodError	27
java.util.UUID	UUID	4
java.util.UUID	util.UUID	9
java.util.UUID	java.util.UUID	14
java.net.HttpURLConnection	HttpURLConnection	17
java.net.HttpURLConnection	net.HttpURLConnection	21
java.net.HttpURLConnection	java.net.HttpURLConnection	26
java.lang.reflect.Constructor	Constructor	11
java.lang.reflect.Constructor	reflect.Constructor	19
java.lang.reflect.Constructor	lang.reflect.Constructor	24
java.lang.reflect.Constructor	java.lang.reflect.Constructor	29
java.lang.NoSuchMethodException	NoSuchMethodException	21
java.lang.NoSuchMethodException	lang.NoSuchMethodException	26
java.lang.NoSuchMethodException	java.lang.NoSuchMethodException	31
java.util.Locale	Locale	6
java.util.Locale	util.Locale	11
java.util.Locale	java.util.Locale	16
java.lang.CharSequence	CharSequence	12
java.lang.CharSequence	lang.CharSequence	17
java.lang.CharSequence	java.lang.CharSequence	22
java.util.Map$Entry	Map$Entry	9
java.util.Map$Entry	util.Map$Entry	14
java.util.Map$Entry	java.util.Map$Entry	19
