10	<java.lang.System: void arraycopy(java.lang.Object,int,java.lang.Object,int,int)>
186	<java.lang.System: void arraycopy(java.lang.Object,int,java.lang.Object,int,int)>
218	<java.lang.System: void arraycopy(java.lang.Object,int,java.lang.Object,int,int)>
10	<java.lang.Thread: java.lang.Thread currentThread()>
11	<java.lang.Thread: java.lang.Thread currentThread()>
12	<java.lang.Thread: java.lang.Thread currentThread()>
47	<java.lang.Thread: java.lang.Thread currentThread()>
55	<java.lang.Thread: java.lang.Thread currentThread()>
62	<java.lang.Thread: java.lang.Thread currentThread()>
183	<org.springframework.boot.loader.jar.CentralDirectoryEndRecord: void <init>(org.springframework.boot.loader.data.RandomAccessData)>
183	<org.springframework.boot.loader.jar.CentralDirectoryEndRecord: byte[] createBlockFromEndOfData(org.springframework.boot.loader.data.RandomAccessData,int)>
11	<org.springframework.boot.loader.ExecutableArchiveLauncher: java.lang.String getMainClass()>
12	<org.springframework.boot.loader.ExecutableArchiveLauncher: java.lang.String getMainClass()>
11	<org.springframework.boot.loader.ExecutableArchiveLauncher: java.util.List getClassPathArchives()>
12	<org.springframework.boot.loader.ExecutableArchiveLauncher: java.util.List getClassPathArchives()>
11	<org.springframework.boot.loader.ExecutableArchiveLauncher: void postProcessClassPathArchives(java.util.List)>
12	<org.springframework.boot.loader.ExecutableArchiveLauncher: void postProcessClassPathArchives(java.util.List)>
10	<org.springframework.boot.loader.Launcher: void launch(java.lang.String[])>
11	<org.springframework.boot.loader.Launcher: void launch(java.lang.String[])>
12	<org.springframework.boot.loader.Launcher: void launch(java.lang.String[])>
11	<org.springframework.boot.loader.Launcher: java.lang.ClassLoader createClassLoader(java.util.List)>
12	<org.springframework.boot.loader.Launcher: java.lang.ClassLoader createClassLoader(java.util.List)>
11	<org.springframework.boot.loader.Launcher: java.lang.ClassLoader createClassLoader(java.net.URL[])>
12	<org.springframework.boot.loader.Launcher: java.lang.ClassLoader createClassLoader(java.net.URL[])>
10	<org.springframework.boot.loader.Launcher: void launch(java.lang.String[],java.lang.String,java.lang.ClassLoader)>
11	<org.springframework.boot.loader.Launcher: void launch(java.lang.String[],java.lang.String,java.lang.ClassLoader)>
12	<org.springframework.boot.loader.Launcher: void launch(java.lang.String[],java.lang.String,java.lang.ClassLoader)>
10	<org.springframework.boot.loader.Launcher: org.springframework.boot.loader.archive.Archive createArchive()>
11	<org.springframework.boot.loader.Launcher: org.springframework.boot.loader.archive.Archive createArchive()>
12	<org.springframework.boot.loader.Launcher: org.springframework.boot.loader.archive.Archive createArchive()>
169	<org.springframework.boot.loader.jar.JarFileEntries: java.io.InputStream getInputStream(java.lang.String,org.springframework.boot.loader.data.RandomAccessData$ResourceAccess)>
173	<org.springframework.boot.loader.jar.JarFileEntries: java.io.InputStream getInputStream(java.lang.String,org.springframework.boot.loader.data.RandomAccessData$ResourceAccess)>
169	<org.springframework.boot.loader.jar.JarFileEntries: java.io.InputStream getInputStream(org.springframework.boot.loader.jar.FileHeader,org.springframework.boot.loader.data.RandomAccessData$ResourceAccess)>
173	<org.springframework.boot.loader.jar.JarFileEntries: java.io.InputStream getInputStream(org.springframework.boot.loader.jar.FileHeader,org.springframework.boot.loader.data.RandomAccessData$ResourceAccess)>
169	<org.springframework.boot.loader.jar.JarFileEntries: org.springframework.boot.loader.data.RandomAccessData getEntryData(java.lang.String)>
169	<org.springframework.boot.loader.jar.JarFileEntries: org.springframework.boot.loader.data.RandomAccessData getEntryData(org.springframework.boot.loader.jar.FileHeader)>
173	<org.springframework.boot.loader.jar.JarFileEntries: org.springframework.boot.loader.data.RandomAccessData getEntryData(org.springframework.boot.loader.jar.FileHeader)>
196	<org.springframework.boot.loader.data.RandomAccessDataFile: java.io.InputStream getInputStream(org.springframework.boot.loader.data.RandomAccessData$ResourceAccess)>
215	<org.springframework.boot.loader.data.RandomAccessDataFile: java.io.InputStream getInputStream(org.springframework.boot.loader.data.RandomAccessData$ResourceAccess)>
84	<org.springframework.boot.loader.jar.JarFile: void <init>(java.io.File)>
110	<org.springframework.boot.loader.jar.JarFile: void <init>(java.io.File)>
111	<org.springframework.boot.loader.jar.JarFile: void <init>(java.io.File)>
112	<org.springframework.boot.loader.jar.JarFile: void <init>(java.io.File)>
142	<org.springframework.boot.loader.jar.JarFile: void <init>(java.io.File)>
146	<org.springframework.boot.loader.jar.JarFile: void <init>(java.io.File)>
84	<org.springframework.boot.loader.jar.JarFile: void <init>(org.springframework.boot.loader.data.RandomAccessDataFile)>
110	<org.springframework.boot.loader.jar.JarFile: void <init>(org.springframework.boot.loader.data.RandomAccessDataFile)>
111	<org.springframework.boot.loader.jar.JarFile: void <init>(org.springframework.boot.loader.data.RandomAccessDataFile)>
112	<org.springframework.boot.loader.jar.JarFile: void <init>(org.springframework.boot.loader.data.RandomAccessDataFile)>
122	<org.springframework.boot.loader.jar.JarFile: void <init>(org.springframework.boot.loader.data.RandomAccessDataFile)>
142	<org.springframework.boot.loader.jar.JarFile: void <init>(org.springframework.boot.loader.data.RandomAccessDataFile)>
146	<org.springframework.boot.loader.jar.JarFile: void <init>(org.springframework.boot.loader.data.RandomAccessDataFile)>
151	<org.springframework.boot.loader.jar.JarFile: void <init>(org.springframework.boot.loader.data.RandomAccessDataFile)>
84	<org.springframework.boot.loader.jar.JarFile: void <init>(org.springframework.boot.loader.data.RandomAccessDataFile,java.lang.String,org.springframework.boot.loader.data.RandomAccessData,org.springframework.boot.loader.jar.JarFile$JarFileType)>
110	<org.springframework.boot.loader.jar.JarFile: void <init>(org.springframework.boot.loader.data.RandomAccessDataFile,java.lang.String,org.springframework.boot.loader.data.RandomAccessData,org.springframework.boot.loader.jar.JarFile$JarFileType)>
111	<org.springframework.boot.loader.jar.JarFile: void <init>(org.springframework.boot.loader.data.RandomAccessDataFile,java.lang.String,org.springframework.boot.loader.data.RandomAccessData,org.springframework.boot.loader.jar.JarFile$JarFileType)>
112	<org.springframework.boot.loader.jar.JarFile: void <init>(org.springframework.boot.loader.data.RandomAccessDataFile,java.lang.String,org.springframework.boot.loader.data.RandomAccessData,org.springframework.boot.loader.jar.JarFile$JarFileType)>
122	<org.springframework.boot.loader.jar.JarFile: void <init>(org.springframework.boot.loader.data.RandomAccessDataFile,java.lang.String,org.springframework.boot.loader.data.RandomAccessData,org.springframework.boot.loader.jar.JarFile$JarFileType)>
142	<org.springframework.boot.loader.jar.JarFile: void <init>(org.springframework.boot.loader.data.RandomAccessDataFile,java.lang.String,org.springframework.boot.loader.data.RandomAccessData,org.springframework.boot.loader.jar.JarFile$JarFileType)>
146	<org.springframework.boot.loader.jar.JarFile: void <init>(org.springframework.boot.loader.data.RandomAccessDataFile,java.lang.String,org.springframework.boot.loader.data.RandomAccessData,org.springframework.boot.loader.jar.JarFile$JarFileType)>
151	<org.springframework.boot.loader.jar.JarFile: void <init>(org.springframework.boot.loader.data.RandomAccessDataFile,java.lang.String,org.springframework.boot.loader.data.RandomAccessData,org.springframework.boot.loader.jar.JarFile$JarFileType)>
178	<org.springframework.boot.loader.jar.JarFile: void <init>(org.springframework.boot.loader.data.RandomAccessDataFile,java.lang.String,org.springframework.boot.loader.data.RandomAccessData,org.springframework.boot.loader.jar.JarFile$JarFileType)>
84	<org.springframework.boot.loader.jar.JarFile: void <init>(org.springframework.boot.loader.data.RandomAccessDataFile,java.lang.String,org.springframework.boot.loader.data.RandomAccessData,org.springframework.boot.loader.jar.JarEntryFilter,org.springframework.boot.loader.jar.JarFile$JarFileType)>
110	<org.springframework.boot.loader.jar.JarFile: void <init>(org.springframework.boot.loader.data.RandomAccessDataFile,java.lang.String,org.springframework.boot.loader.data.RandomAccessData,org.springframework.boot.loader.jar.JarEntryFilter,org.springframework.boot.loader.jar.JarFile$JarFileType)>
111	<org.springframework.boot.loader.jar.JarFile: void <init>(org.springframework.boot.loader.data.RandomAccessDataFile,java.lang.String,org.springframework.boot.loader.data.RandomAccessData,org.springframework.boot.loader.jar.JarEntryFilter,org.springframework.boot.loader.jar.JarFile$JarFileType)>
112	<org.springframework.boot.loader.jar.JarFile: void <init>(org.springframework.boot.loader.data.RandomAccessDataFile,java.lang.String,org.springframework.boot.loader.data.RandomAccessData,org.springframework.boot.loader.jar.JarEntryFilter,org.springframework.boot.loader.jar.JarFile$JarFileType)>
122	<org.springframework.boot.loader.jar.JarFile: void <init>(org.springframework.boot.loader.data.RandomAccessDataFile,java.lang.String,org.springframework.boot.loader.data.RandomAccessData,org.springframework.boot.loader.jar.JarEntryFilter,org.springframework.boot.loader.jar.JarFile$JarFileType)>
142	<org.springframework.boot.loader.jar.JarFile: void <init>(org.springframework.boot.loader.data.RandomAccessDataFile,java.lang.String,org.springframework.boot.loader.data.RandomAccessData,org.springframework.boot.loader.jar.JarEntryFilter,org.springframework.boot.loader.jar.JarFile$JarFileType)>
146	<org.springframework.boot.loader.jar.JarFile: void <init>(org.springframework.boot.loader.data.RandomAccessDataFile,java.lang.String,org.springframework.boot.loader.data.RandomAccessData,org.springframework.boot.loader.jar.JarEntryFilter,org.springframework.boot.loader.jar.JarFile$JarFileType)>
151	<org.springframework.boot.loader.jar.JarFile: void <init>(org.springframework.boot.loader.data.RandomAccessDataFile,java.lang.String,org.springframework.boot.loader.data.RandomAccessData,org.springframework.boot.loader.jar.JarEntryFilter,org.springframework.boot.loader.jar.JarFile$JarFileType)>
176	<org.springframework.boot.loader.jar.JarFile: void <init>(org.springframework.boot.loader.data.RandomAccessDataFile,java.lang.String,org.springframework.boot.loader.data.RandomAccessData,org.springframework.boot.loader.jar.JarEntryFilter,org.springframework.boot.loader.jar.JarFile$JarFileType)>
178	<org.springframework.boot.loader.jar.JarFile: void <init>(org.springframework.boot.loader.data.RandomAccessDataFile,java.lang.String,org.springframework.boot.loader.data.RandomAccessData,org.springframework.boot.loader.jar.JarEntryFilter,org.springframework.boot.loader.jar.JarFile$JarFileType)>
84	<org.springframework.boot.loader.jar.JarFile: java.util.jar.Manifest getManifest()>
122	<org.springframework.boot.loader.jar.JarFile: java.util.jar.Manifest getManifest()>
151	<org.springframework.boot.loader.jar.JarFile: java.util.jar.Manifest getManifest()>
84	<org.springframework.boot.loader.jar.JarFile: java.io.InputStream getInputStream(java.util.zip.ZipEntry,org.springframework.boot.loader.data.RandomAccessData$ResourceAccess)>
111	<org.springframework.boot.loader.jar.JarFile: java.io.InputStream getInputStream(java.util.zip.ZipEntry,org.springframework.boot.loader.data.RandomAccessData$ResourceAccess)>
112	<org.springframework.boot.loader.jar.JarFile: java.io.InputStream getInputStream(java.util.zip.ZipEntry,org.springframework.boot.loader.data.RandomAccessData$ResourceAccess)>
84	<org.springframework.boot.loader.jar.JarFile: java.io.InputStream getInputStream(java.lang.String,org.springframework.boot.loader.data.RandomAccessData$ResourceAccess)>
111	<org.springframework.boot.loader.jar.JarFile: java.io.InputStream getInputStream(java.lang.String,org.springframework.boot.loader.data.RandomAccessData$ResourceAccess)>
112	<org.springframework.boot.loader.jar.JarFile: java.io.InputStream getInputStream(java.lang.String,org.springframework.boot.loader.data.RandomAccessData$ResourceAccess)>
122	<org.springframework.boot.loader.jar.JarFile: java.io.InputStream getInputStream(java.lang.String,org.springframework.boot.loader.data.RandomAccessData$ResourceAccess)>
151	<org.springframework.boot.loader.jar.JarFile: java.io.InputStream getInputStream(java.lang.String,org.springframework.boot.loader.data.RandomAccessData$ResourceAccess)>
84	<org.springframework.boot.loader.jar.JarFile: org.springframework.boot.loader.jar.JarFile getNestedJarFile(java.util.zip.ZipEntry)>
111	<org.springframework.boot.loader.jar.JarFile: org.springframework.boot.loader.jar.JarFile getNestedJarFile(java.util.zip.ZipEntry)>
112	<org.springframework.boot.loader.jar.JarFile: org.springframework.boot.loader.jar.JarFile getNestedJarFile(java.util.zip.ZipEntry)>
84	<org.springframework.boot.loader.jar.JarFile: org.springframework.boot.loader.jar.JarFile getNestedJarFile(org.springframework.boot.loader.jar.JarEntry)>
111	<org.springframework.boot.loader.jar.JarFile: org.springframework.boot.loader.jar.JarFile getNestedJarFile(org.springframework.boot.loader.jar.JarEntry)>
112	<org.springframework.boot.loader.jar.JarFile: org.springframework.boot.loader.jar.JarFile getNestedJarFile(org.springframework.boot.loader.jar.JarEntry)>
84	<org.springframework.boot.loader.jar.JarFile: org.springframework.boot.loader.jar.JarFile createJarFileFromEntry(org.springframework.boot.loader.jar.JarEntry)>
111	<org.springframework.boot.loader.jar.JarFile: org.springframework.boot.loader.jar.JarFile createJarFileFromEntry(org.springframework.boot.loader.jar.JarEntry)>
112	<org.springframework.boot.loader.jar.JarFile: org.springframework.boot.loader.jar.JarFile createJarFileFromEntry(org.springframework.boot.loader.jar.JarEntry)>
84	<org.springframework.boot.loader.jar.JarFile: org.springframework.boot.loader.jar.JarFile createJarFileFromDirectoryEntry(org.springframework.boot.loader.jar.JarEntry)>
111	<org.springframework.boot.loader.jar.JarFile: org.springframework.boot.loader.jar.JarFile createJarFileFromDirectoryEntry(org.springframework.boot.loader.jar.JarEntry)>
112	<org.springframework.boot.loader.jar.JarFile: org.springframework.boot.loader.jar.JarFile createJarFileFromDirectoryEntry(org.springframework.boot.loader.jar.JarEntry)>
84	<org.springframework.boot.loader.jar.JarFile: org.springframework.boot.loader.jar.JarFile createJarFileFromFileEntry(org.springframework.boot.loader.jar.JarEntry)>
111	<org.springframework.boot.loader.jar.JarFile: org.springframework.boot.loader.jar.JarFile createJarFileFromFileEntry(org.springframework.boot.loader.jar.JarEntry)>
112	<org.springframework.boot.loader.jar.JarFile: org.springframework.boot.loader.jar.JarFile createJarFileFromFileEntry(org.springframework.boot.loader.jar.JarEntry)>
84	<org.springframework.boot.loader.jar.JarFile: java.net.URL getUrl()>
110	<org.springframework.boot.loader.jar.JarFile: java.net.URL getUrl()>
186	<org.springframework.boot.loader.jar.CentralDirectoryFileHeader: void load(byte[],int,org.springframework.boot.loader.data.RandomAccessData,int,org.springframework.boot.loader.jar.JarEntryFilter)>
218	<org.springframework.boot.loader.jar.CentralDirectoryFileHeader: void load(byte[],int,org.springframework.boot.loader.data.RandomAccessData,int,org.springframework.boot.loader.jar.JarEntryFilter)>
169	<org.springframework.boot.loader.jar.CentralDirectoryFileHeader: org.springframework.boot.loader.jar.CentralDirectoryFileHeader fromRandomAccessData(org.springframework.boot.loader.data.RandomAccessData,int,org.springframework.boot.loader.jar.JarEntryFilter)>
173	<org.springframework.boot.loader.jar.CentralDirectoryFileHeader: org.springframework.boot.loader.jar.CentralDirectoryFileHeader fromRandomAccessData(org.springframework.boot.loader.data.RandomAccessData,int,org.springframework.boot.loader.jar.JarEntryFilter)>
47	<org.springframework.boot.loader.MainMethodRunner: void run()>
55	<org.springframework.boot.loader.MainMethodRunner: void run()>
62	<org.springframework.boot.loader.MainMethodRunner: void run()>
21	<org.springframework.boot.loader.archive.ExplodedArchive: java.net.URL getUrl()>
21	<org.springframework.boot.loader.archive.ExplodedArchive: java.util.jar.Manifest getManifest()>
59	<org.springframework.boot.loader.archive.ExplodedArchive: java.util.jar.Manifest getManifest()>
66	<org.springframework.boot.loader.archive.ExplodedArchive: java.util.jar.Manifest getManifest()>
68	<org.springframework.boot.loader.archive.ExplodedArchive: java.util.jar.Manifest getManifest()>
21	<org.springframework.boot.loader.archive.ExplodedArchive: java.util.List getNestedArchives(org.springframework.boot.loader.archive.Archive$EntryFilter)>
59	<org.springframework.boot.loader.archive.ExplodedArchive: java.util.List getNestedArchives(org.springframework.boot.loader.archive.Archive$EntryFilter)>
66	<org.springframework.boot.loader.archive.ExplodedArchive: java.util.List getNestedArchives(org.springframework.boot.loader.archive.Archive$EntryFilter)>
21	<org.springframework.boot.loader.archive.ExplodedArchive: org.springframework.boot.loader.archive.Archive getNestedArchive(org.springframework.boot.loader.archive.Archive$Entry)>
59	<org.springframework.boot.loader.archive.ExplodedArchive: org.springframework.boot.loader.archive.Archive getNestedArchive(org.springframework.boot.loader.archive.Archive$Entry)>
66	<org.springframework.boot.loader.archive.ExplodedArchive: org.springframework.boot.loader.archive.Archive getNestedArchive(org.springframework.boot.loader.archive.Archive$Entry)>
3	<org.springframework.boot.loader.WarLauncher: void main(java.lang.String[])>
168	<org.springframework.boot.loader.jar.Bytes: byte[] get(org.springframework.boot.loader.data.RandomAccessData)>
169	<org.springframework.boot.loader.jar.Bytes: byte[] get(org.springframework.boot.loader.data.RandomAccessData)>
172	<org.springframework.boot.loader.jar.Bytes: byte[] get(org.springframework.boot.loader.data.RandomAccessData)>
173	<org.springframework.boot.loader.jar.Bytes: byte[] get(org.springframework.boot.loader.data.RandomAccessData)>
183	<org.springframework.boot.loader.jar.Bytes: byte[] get(org.springframework.boot.loader.data.RandomAccessData)>
184	<org.springframework.boot.loader.jar.Bytes: byte[] get(org.springframework.boot.loader.data.RandomAccessData)>
186	<org.springframework.boot.loader.jar.Bytes: byte[] get(org.springframework.boot.loader.data.RandomAccessData)>
192	<org.springframework.boot.loader.jar.Bytes: byte[] get(org.springframework.boot.loader.data.RandomAccessData)>
218	<org.springframework.boot.loader.jar.Bytes: byte[] get(org.springframework.boot.loader.data.RandomAccessData)>
168	<org.springframework.boot.loader.jar.Bytes: byte[] get(java.io.InputStream,long)>
169	<org.springframework.boot.loader.jar.Bytes: byte[] get(java.io.InputStream,long)>
172	<org.springframework.boot.loader.jar.Bytes: byte[] get(java.io.InputStream,long)>
173	<org.springframework.boot.loader.jar.Bytes: byte[] get(java.io.InputStream,long)>
183	<org.springframework.boot.loader.jar.Bytes: byte[] get(java.io.InputStream,long)>
184	<org.springframework.boot.loader.jar.Bytes: byte[] get(java.io.InputStream,long)>
186	<org.springframework.boot.loader.jar.Bytes: byte[] get(java.io.InputStream,long)>
192	<org.springframework.boot.loader.jar.Bytes: byte[] get(java.io.InputStream,long)>
218	<org.springframework.boot.loader.jar.Bytes: byte[] get(java.io.InputStream,long)>
168	<org.springframework.boot.loader.jar.Bytes: boolean fill(java.io.InputStream,byte[])>
169	<org.springframework.boot.loader.jar.Bytes: boolean fill(java.io.InputStream,byte[])>
172	<org.springframework.boot.loader.jar.Bytes: boolean fill(java.io.InputStream,byte[])>
173	<org.springframework.boot.loader.jar.Bytes: boolean fill(java.io.InputStream,byte[])>
183	<org.springframework.boot.loader.jar.Bytes: boolean fill(java.io.InputStream,byte[])>
184	<org.springframework.boot.loader.jar.Bytes: boolean fill(java.io.InputStream,byte[])>
186	<org.springframework.boot.loader.jar.Bytes: boolean fill(java.io.InputStream,byte[])>
192	<org.springframework.boot.loader.jar.Bytes: boolean fill(java.io.InputStream,byte[])>
218	<org.springframework.boot.loader.jar.Bytes: boolean fill(java.io.InputStream,byte[])>
168	<org.springframework.boot.loader.jar.Bytes: boolean fill(java.io.InputStream,byte[],int,int)>
169	<org.springframework.boot.loader.jar.Bytes: boolean fill(java.io.InputStream,byte[],int,int)>
172	<org.springframework.boot.loader.jar.Bytes: boolean fill(java.io.InputStream,byte[],int,int)>
173	<org.springframework.boot.loader.jar.Bytes: boolean fill(java.io.InputStream,byte[],int,int)>
183	<org.springframework.boot.loader.jar.Bytes: boolean fill(java.io.InputStream,byte[],int,int)>
184	<org.springframework.boot.loader.jar.Bytes: boolean fill(java.io.InputStream,byte[],int,int)>
186	<org.springframework.boot.loader.jar.Bytes: boolean fill(java.io.InputStream,byte[],int,int)>
192	<org.springframework.boot.loader.jar.Bytes: boolean fill(java.io.InputStream,byte[],int,int)>
218	<org.springframework.boot.loader.jar.Bytes: boolean fill(java.io.InputStream,byte[],int,int)>
23	<org.springframework.boot.loader.archive.JarFileArchive: void <init>(java.io.File)>
58	<org.springframework.boot.loader.archive.JarFileArchive: void <init>(java.io.File)>
67	<org.springframework.boot.loader.archive.JarFileArchive: void <init>(java.io.File)>
72	<org.springframework.boot.loader.archive.JarFileArchive: void <init>(java.io.File)>
77	<org.springframework.boot.loader.archive.JarFileArchive: void <init>(java.io.File)>
79	<org.springframework.boot.loader.archive.JarFileArchive: void <init>(java.io.File)>
99	<org.springframework.boot.loader.archive.JarFileArchive: void <init>(java.io.File)>
23	<org.springframework.boot.loader.archive.JarFileArchive: void <init>(java.io.File,java.net.URL)>
58	<org.springframework.boot.loader.archive.JarFileArchive: void <init>(java.io.File,java.net.URL)>
67	<org.springframework.boot.loader.archive.JarFileArchive: void <init>(java.io.File,java.net.URL)>
72	<org.springframework.boot.loader.archive.JarFileArchive: void <init>(java.io.File,java.net.URL)>
77	<org.springframework.boot.loader.archive.JarFileArchive: void <init>(java.io.File,java.net.URL)>
79	<org.springframework.boot.loader.archive.JarFileArchive: void <init>(java.io.File,java.net.URL)>
99	<org.springframework.boot.loader.archive.JarFileArchive: void <init>(java.io.File,java.net.URL)>
114	<org.springframework.boot.loader.archive.JarFileArchive: void <init>(java.io.File,java.net.URL)>
138	<org.springframework.boot.loader.archive.JarFileArchive: void <init>(java.io.File,java.net.URL)>
140	<org.springframework.boot.loader.archive.JarFileArchive: void <init>(java.io.File,java.net.URL)>
23	<org.springframework.boot.loader.archive.JarFileArchive: java.net.URL getUrl()>
72	<org.springframework.boot.loader.archive.JarFileArchive: java.net.URL getUrl()>
23	<org.springframework.boot.loader.archive.JarFileArchive: java.util.jar.Manifest getManifest()>
58	<org.springframework.boot.loader.archive.JarFileArchive: java.util.jar.Manifest getManifest()>
67	<org.springframework.boot.loader.archive.JarFileArchive: java.util.jar.Manifest getManifest()>
23	<org.springframework.boot.loader.archive.JarFileArchive: java.util.List getNestedArchives(org.springframework.boot.loader.archive.Archive$EntryFilter)>
58	<org.springframework.boot.loader.archive.JarFileArchive: java.util.List getNestedArchives(org.springframework.boot.loader.archive.Archive$EntryFilter)>
67	<org.springframework.boot.loader.archive.JarFileArchive: java.util.List getNestedArchives(org.springframework.boot.loader.archive.Archive$EntryFilter)>
77	<org.springframework.boot.loader.archive.JarFileArchive: java.util.List getNestedArchives(org.springframework.boot.loader.archive.Archive$EntryFilter)>
79	<org.springframework.boot.loader.archive.JarFileArchive: java.util.List getNestedArchives(org.springframework.boot.loader.archive.Archive$EntryFilter)>
23	<org.springframework.boot.loader.archive.JarFileArchive: org.springframework.boot.loader.archive.Archive getNestedArchive(org.springframework.boot.loader.archive.Archive$Entry)>
58	<org.springframework.boot.loader.archive.JarFileArchive: org.springframework.boot.loader.archive.Archive getNestedArchive(org.springframework.boot.loader.archive.Archive$Entry)>
67	<org.springframework.boot.loader.archive.JarFileArchive: org.springframework.boot.loader.archive.Archive getNestedArchive(org.springframework.boot.loader.archive.Archive$Entry)>
77	<org.springframework.boot.loader.archive.JarFileArchive: org.springframework.boot.loader.archive.Archive getNestedArchive(org.springframework.boot.loader.archive.Archive$Entry)>
79	<org.springframework.boot.loader.archive.JarFileArchive: org.springframework.boot.loader.archive.Archive getNestedArchive(org.springframework.boot.loader.archive.Archive$Entry)>
23	<org.springframework.boot.loader.archive.JarFileArchive: org.springframework.boot.loader.archive.Archive getUnpackedNestedArchive(java.util.jar.JarEntry)>
58	<org.springframework.boot.loader.archive.JarFileArchive: org.springframework.boot.loader.archive.Archive getUnpackedNestedArchive(java.util.jar.JarEntry)>
67	<org.springframework.boot.loader.archive.JarFileArchive: org.springframework.boot.loader.archive.Archive getUnpackedNestedArchive(java.util.jar.JarEntry)>
77	<org.springframework.boot.loader.archive.JarFileArchive: org.springframework.boot.loader.archive.Archive getUnpackedNestedArchive(java.util.jar.JarEntry)>
79	<org.springframework.boot.loader.archive.JarFileArchive: org.springframework.boot.loader.archive.Archive getUnpackedNestedArchive(java.util.jar.JarEntry)>
23	<org.springframework.boot.loader.archive.JarFileArchive: void unpack(java.util.jar.JarEntry,java.io.File)>
58	<org.springframework.boot.loader.archive.JarFileArchive: void unpack(java.util.jar.JarEntry,java.io.File)>
67	<org.springframework.boot.loader.archive.JarFileArchive: void unpack(java.util.jar.JarEntry,java.io.File)>
77	<org.springframework.boot.loader.archive.JarFileArchive: void unpack(java.util.jar.JarEntry,java.io.File)>
79	<org.springframework.boot.loader.archive.JarFileArchive: void unpack(java.util.jar.JarEntry,java.io.File)>
3	<org.springframework.boot.loader.JarLauncher: void main(java.lang.String[])>
10	<org.springframework.boot.loader.PropertiesLauncher: void initializeProperties()>
10	<org.springframework.boot.loader.PropertiesLauncher: java.io.InputStream getResource(java.lang.String)>
10	<org.springframework.boot.loader.PropertiesLauncher: java.lang.String handleUrl(java.lang.String)>
10	<org.springframework.boot.loader.PropertiesLauncher: java.io.InputStream getFileResource(java.lang.String)>
10	<org.springframework.boot.loader.PropertiesLauncher: java.io.InputStream getURLResource(java.lang.String)>
10	<org.springframework.boot.loader.PropertiesLauncher: boolean exists(java.net.URL)>
10	<org.springframework.boot.loader.PropertiesLauncher: void initializePaths()>
10	<org.springframework.boot.loader.PropertiesLauncher: java.lang.String[] getArgs(java.lang.String[])>
10	<org.springframework.boot.loader.PropertiesLauncher: java.lang.String getMainClass()>
10	<org.springframework.boot.loader.PropertiesLauncher: java.lang.ClassLoader createClassLoader(java.util.List)>
10	<org.springframework.boot.loader.PropertiesLauncher: java.lang.ClassLoader wrapWithCustomClassLoader(java.lang.ClassLoader,java.lang.String)>
10	<org.springframework.boot.loader.PropertiesLauncher: java.lang.String getProperty(java.lang.String)>
10	<org.springframework.boot.loader.PropertiesLauncher: java.lang.String getProperty(java.lang.String,java.lang.String)>
10	<org.springframework.boot.loader.PropertiesLauncher: java.lang.String getPropertyWithDefault(java.lang.String,java.lang.String)>
10	<org.springframework.boot.loader.PropertiesLauncher: java.lang.String getProperty(java.lang.String,java.lang.String,java.lang.String)>
10	<org.springframework.boot.loader.PropertiesLauncher: java.util.List getClassPathArchives()>
10	<org.springframework.boot.loader.PropertiesLauncher: java.util.List getClassPathArchives(java.lang.String)>
10	<org.springframework.boot.loader.PropertiesLauncher: org.springframework.boot.loader.archive.Archive getArchive(java.io.File)>
10	<org.springframework.boot.loader.PropertiesLauncher: java.util.List getNestedArchives(java.lang.String)>
3	<org.springframework.boot.loader.PropertiesLauncher: void main(java.lang.String[])>
168	<org.springframework.boot.loader.jar.CentralDirectoryParser: org.springframework.boot.loader.data.RandomAccessData parse(org.springframework.boot.loader.data.RandomAccessData,boolean)>
172	<org.springframework.boot.loader.jar.CentralDirectoryParser: org.springframework.boot.loader.data.RandomAccessData parse(org.springframework.boot.loader.data.RandomAccessData,boolean)>
184	<org.springframework.boot.loader.jar.CentralDirectoryParser: org.springframework.boot.loader.data.RandomAccessData parse(org.springframework.boot.loader.data.RandomAccessData,boolean)>
192	<org.springframework.boot.loader.jar.CentralDirectoryParser: org.springframework.boot.loader.data.RandomAccessData parse(org.springframework.boot.loader.data.RandomAccessData,boolean)>
168	<org.springframework.boot.loader.jar.CentralDirectoryParser: void parseEntries(org.springframework.boot.loader.jar.CentralDirectoryEndRecord,org.springframework.boot.loader.data.RandomAccessData)>
172	<org.springframework.boot.loader.jar.CentralDirectoryParser: void parseEntries(org.springframework.boot.loader.jar.CentralDirectoryEndRecord,org.springframework.boot.loader.data.RandomAccessData)>
184	<org.springframework.boot.loader.jar.CentralDirectoryParser: void parseEntries(org.springframework.boot.loader.jar.CentralDirectoryEndRecord,org.springframework.boot.loader.data.RandomAccessData)>
192	<org.springframework.boot.loader.jar.CentralDirectoryParser: void parseEntries(org.springframework.boot.loader.jar.CentralDirectoryEndRecord,org.springframework.boot.loader.data.RandomAccessData)>
213	<org.springframework.boot.loader.data.RandomAccessDataFile$DataInputStream: void <init>(org.springframework.boot.loader.data.RandomAccessDataFile,org.springframework.boot.loader.data.RandomAccessData$ResourceAccess)>
183	<org.springframework.boot.loader.jar.CentralDirectoryEndRecord: boolean isValid()>
183	<org.springframework.boot.loader.jar.CentralDirectoryEndRecord: long getStartOfArchive(org.springframework.boot.loader.data.RandomAccessData)>
183	<org.springframework.boot.loader.jar.CentralDirectoryEndRecord: org.springframework.boot.loader.data.RandomAccessData getCentralDirectory(org.springframework.boot.loader.data.RandomAccessData)>
183	<org.springframework.boot.loader.jar.CentralDirectoryEndRecord: int getNumberOfRecords()>
16	<org.springframework.boot.loader.jar.AsciiBytes: void <init>(byte[])>
17	<org.springframework.boot.loader.jar.AsciiBytes: void <init>(byte[])>
179	<org.springframework.boot.loader.jar.AsciiBytes: void <init>(byte[])>
188	<org.springframework.boot.loader.jar.AsciiBytes: void <init>(byte[])>
189	<org.springframework.boot.loader.jar.AsciiBytes: void <init>(byte[])>
222	<org.springframework.boot.loader.jar.AsciiBytes: void <init>(byte[])>
220	<org.springframework.boot.loader.jar.AsciiBytes: boolean equals(java.lang.Object)>
169	<org.springframework.boot.loader.jar.AsciiBytes: int hashCode(int,java.lang.String)>
173	<org.springframework.boot.loader.jar.AsciiBytes: int hashCode(int,java.lang.String)>
169	<org.springframework.boot.loader.jar.JarFileEntries: void <init>(org.springframework.boot.loader.jar.JarFile,org.springframework.boot.loader.jar.JarEntryFilter)>
173	<org.springframework.boot.loader.jar.JarFileEntries: void <init>(org.springframework.boot.loader.jar.JarFile,org.springframework.boot.loader.jar.JarEntryFilter)>
185	<org.springframework.boot.loader.jar.JarFileEntries: void <init>(org.springframework.boot.loader.jar.JarFile,org.springframework.boot.loader.jar.JarEntryFilter)>
191	<org.springframework.boot.loader.jar.JarFileEntries: void <init>(org.springframework.boot.loader.jar.JarFile,org.springframework.boot.loader.jar.JarEntryFilter)>
169	<org.springframework.boot.loader.jar.JarFileEntries: int getFirstIndex(int)>
173	<org.springframework.boot.loader.jar.JarFileEntries: int getFirstIndex(int)>
4	<org.springframework.boot.loader.data.RandomAccessData$ResourceAccess: void <clinit>()>
107	<org.springframework.boot.loader.data.RandomAccessDataFile: void <init>(java.io.File)>
107	<org.springframework.boot.loader.data.RandomAccessDataFile: void <init>(java.io.File,int)>
194	<org.springframework.boot.loader.jar.ZipInflaterInputStream: void <init>(java.io.InputStream,int)>
194	<org.springframework.boot.loader.jar.ZipInflaterInputStream: int getInflaterBufferSize(long)>
193	<org.springframework.boot.loader.jar.JarFileEntries$EntryIterator: void <init>(org.springframework.boot.loader.jar.JarFileEntries)>
4	<org.springframework.boot.loader.jar.JarFile$JarFileType: void <clinit>()>
218	<org.springframework.boot.loader.jar.CentralDirectoryFileHeader: int getMethod()>
218	<org.springframework.boot.loader.jar.CentralDirectoryFileHeader: long getTime()>
218	<org.springframework.boot.loader.jar.CentralDirectoryFileHeader: long getCrc()>
218	<org.springframework.boot.loader.jar.CentralDirectoryFileHeader: long getCompressedSize()>
218	<org.springframework.boot.loader.jar.CentralDirectoryFileHeader: long getSize()>
78	<org.springframework.boot.loader.PropertiesLauncher$PrefixMatchingArchiveFilter: boolean matches(org.springframework.boot.loader.archive.Archive$Entry)>
21	<org.springframework.boot.loader.archive.ExplodedArchive: void <init>(java.io.File)>
59	<org.springframework.boot.loader.archive.ExplodedArchive: void <init>(java.io.File)>
66	<org.springframework.boot.loader.archive.ExplodedArchive: void <init>(java.io.File)>
98	<org.springframework.boot.loader.archive.ExplodedArchive: void <init>(java.io.File)>
11	<org.springframework.boot.loader.WarLauncher: boolean isNestedArchive(org.springframework.boot.loader.archive.Archive$Entry)>
216	<org.springframework.boot.loader.jar.JarEntry: boolean hasName(java.lang.String,java.lang.String)>
169	<org.springframework.boot.loader.jar.Bytes: long littleEndianValue(byte[],int,int)>
173	<org.springframework.boot.loader.jar.Bytes: long littleEndianValue(byte[],int,int)>
183	<org.springframework.boot.loader.jar.Bytes: long littleEndianValue(byte[],int,int)>
186	<org.springframework.boot.loader.jar.Bytes: long littleEndianValue(byte[],int,int)>
218	<org.springframework.boot.loader.jar.Bytes: long littleEndianValue(byte[],int,int)>
23	<org.springframework.boot.loader.archive.JarFileArchive: java.io.File createUnpackFolder(java.io.File)>
58	<org.springframework.boot.loader.archive.JarFileArchive: java.io.File createUnpackFolder(java.io.File)>
67	<org.springframework.boot.loader.archive.JarFileArchive: java.io.File createUnpackFolder(java.io.File)>
77	<org.springframework.boot.loader.archive.JarFileArchive: java.io.File createUnpackFolder(java.io.File)>
79	<org.springframework.boot.loader.archive.JarFileArchive: java.io.File createUnpackFolder(java.io.File)>
113	<org.springframework.boot.loader.PropertiesLauncher$ArchiveEntryFilter: boolean matches(org.springframework.boot.loader.archive.Archive$Entry)>
10	<org.springframework.boot.loader.PropertiesLauncher: java.io.InputStream getClasspathResource(java.lang.String)>
10	<org.springframework.boot.loader.PropertiesLauncher: java.util.List parsePathsProperty(java.lang.String)>
10	<org.springframework.boot.loader.PropertiesLauncher: boolean isAbsolutePath(java.lang.String)>
10	<org.springframework.boot.loader.PropertiesLauncher: java.lang.String cleanupPath(java.lang.String)>
10	<org.springframework.boot.loader.PropertiesLauncher: java.lang.String toCamelCase(java.lang.CharSequence)>
10	<org.springframework.boot.loader.PropertiesLauncher: java.lang.String capitalize(java.lang.String)>
10	<org.springframework.boot.loader.util.SystemPropertyUtils: java.lang.String parseStringValue(java.util.Properties,java.lang.String,java.lang.String,java.util.Set)>
10	<org.springframework.boot.loader.util.SystemPropertyUtils: java.lang.String getProperty(java.lang.String,java.lang.String,java.lang.String)>
10	<org.springframework.boot.loader.util.SystemPropertyUtils: int findPlaceholderEndIndex(java.lang.CharSequence,int)>
10	<org.springframework.boot.loader.util.SystemPropertyUtils: boolean substringMatch(java.lang.CharSequence,int,java.lang.CharSequence)>
4	<org.springframework.boot.loader.util.SystemPropertyUtils: void <clinit>()>
168	<org.springframework.boot.loader.jar.CentralDirectoryParser: void <init>()>
172	<org.springframework.boot.loader.jar.CentralDirectoryParser: void <init>()>
184	<org.springframework.boot.loader.jar.CentralDirectoryParser: void <init>()>
192	<org.springframework.boot.loader.jar.CentralDirectoryParser: void <init>()>
153	<org.springframework.boot.loader.data.RandomAccessDataFile$FilePool: void <init>(java.io.File,int)>
125	<org.springframework.boot.loader.jar.Handler: void <init>(org.springframework.boot.loader.jar.JarFile)>
16	<org.springframework.boot.loader.jar.AsciiBytes: void <init>(java.lang.String)>
17	<org.springframework.boot.loader.jar.AsciiBytes: void <init>(java.lang.String)>
179	<org.springframework.boot.loader.jar.AsciiBytes: void <init>(java.lang.String)>
188	<org.springframework.boot.loader.jar.AsciiBytes: void <init>(java.lang.String)>
189	<org.springframework.boot.loader.jar.AsciiBytes: void <init>(java.lang.String)>
222	<org.springframework.boot.loader.jar.AsciiBytes: void <init>(java.lang.String)>
16	<org.springframework.boot.loader.jar.AsciiBytes: void <init>(byte[],int,int)>
17	<org.springframework.boot.loader.jar.AsciiBytes: void <init>(byte[],int,int)>
179	<org.springframework.boot.loader.jar.AsciiBytes: void <init>(byte[],int,int)>
188	<org.springframework.boot.loader.jar.AsciiBytes: void <init>(byte[],int,int)>
189	<org.springframework.boot.loader.jar.AsciiBytes: void <init>(byte[],int,int)>
201	<org.springframework.boot.loader.jar.AsciiBytes: void <init>(byte[],int,int)>
202	<org.springframework.boot.loader.jar.AsciiBytes: void <init>(byte[],int,int)>
220	<org.springframework.boot.loader.jar.AsciiBytes: void <init>(byte[],int,int)>
221	<org.springframework.boot.loader.jar.AsciiBytes: void <init>(byte[],int,int)>
222	<org.springframework.boot.loader.jar.AsciiBytes: void <init>(byte[],int,int)>
169	<org.springframework.boot.loader.jar.AsciiBytes: int hashCode(java.lang.String)>
173	<org.springframework.boot.loader.jar.AsciiBytes: int hashCode(java.lang.String)>
10	<org.springframework.boot.loader.Launcher: org.springframework.boot.loader.MainMethodRunner createMainMethodRunner(java.lang.String,java.lang.String[],java.lang.ClassLoader)>
11	<org.springframework.boot.loader.Launcher: org.springframework.boot.loader.MainMethodRunner createMainMethodRunner(java.lang.String,java.lang.String[],java.lang.ClassLoader)>
12	<org.springframework.boot.loader.Launcher: org.springframework.boot.loader.MainMethodRunner createMainMethodRunner(java.lang.String,java.lang.String[],java.lang.ClassLoader)>
169	<org.springframework.boot.loader.jar.JarFileEntries: org.springframework.boot.loader.jar.FileHeader getEntry(java.lang.String,java.lang.Class,boolean)>
173	<org.springframework.boot.loader.jar.JarFileEntries: org.springframework.boot.loader.jar.FileHeader getEntry(java.lang.String,java.lang.Class,boolean)>
169	<org.springframework.boot.loader.jar.JarFileEntries: org.springframework.boot.loader.jar.FileHeader getEntry(int,java.lang.String,java.lang.String,java.lang.Class,boolean)>
173	<org.springframework.boot.loader.jar.JarFileEntries: org.springframework.boot.loader.jar.FileHeader getEntry(int,java.lang.String,java.lang.String,java.lang.Class,boolean)>
169	<org.springframework.boot.loader.jar.JarFileEntries: org.springframework.boot.loader.jar.FileHeader getEntry(int,java.lang.Class,boolean)>
173	<org.springframework.boot.loader.jar.JarFileEntries: org.springframework.boot.loader.jar.FileHeader getEntry(int,java.lang.Class,boolean)>
100	<org.springframework.boot.loader.archive.JarFileArchive$EntryIterator: void <init>(java.util.Enumeration)>
118	<org.springframework.boot.loader.archive.JarFileArchive$EntryIterator: void <init>(java.util.Enumeration)>
121	<org.springframework.boot.loader.archive.JarFileArchive$EntryIterator: void <init>(java.util.Enumeration)>
135	<org.springframework.boot.loader.data.RandomAccessData$ResourceAccess: void <init>(java.lang.String,int)>
136	<org.springframework.boot.loader.data.RandomAccessData$ResourceAccess: void <init>(java.lang.String,int)>
196	<org.springframework.boot.loader.data.RandomAccessDataFile: void <init>(java.io.File,org.springframework.boot.loader.data.RandomAccessDataFile$FilePool,long,long)>
215	<org.springframework.boot.loader.data.RandomAccessDataFile: void <init>(java.io.File,org.springframework.boot.loader.data.RandomAccessDataFile$FilePool,long,long)>
107	<org.springframework.boot.loader.data.RandomAccessDataFile: org.springframework.boot.loader.data.RandomAccessData getSubsection(long,long)>
196	<org.springframework.boot.loader.data.RandomAccessDataFile: org.springframework.boot.loader.data.RandomAccessData getSubsection(long,long)>
215	<org.springframework.boot.loader.data.RandomAccessDataFile: org.springframework.boot.loader.data.RandomAccessData getSubsection(long,long)>
213	<org.springframework.boot.loader.data.RandomAccessDataFile: java.io.File access$000(org.springframework.boot.loader.data.RandomAccessDataFile)>
213	<org.springframework.boot.loader.data.RandomAccessDataFile: long access$100(org.springframework.boot.loader.data.RandomAccessDataFile)>
51	<org.springframework.boot.loader.PropertiesLauncher$1: void <init>(org.springframework.boot.loader.PropertiesLauncher)>
51	<org.springframework.boot.loader.PropertiesLauncher$1: boolean matches(org.springframework.boot.loader.archive.Archive$Entry)>
128	<org.springframework.boot.loader.archive.ExplodedArchive$FileEntryIterator$EntryComparator: void <init>(org.springframework.boot.loader.archive.ExplodedArchive$1)>
126	<org.springframework.boot.loader.jar.JarFile$2: void <init>(org.springframework.boot.loader.jar.JarFile,java.util.Iterator)>
96	<org.springframework.boot.loader.archive.ExplodedArchive$FileEntryIterator: void <init>(java.io.File,boolean)>
96	<org.springframework.boot.loader.archive.ExplodedArchive$FileEntryIterator: java.util.Iterator listFiles(java.io.File)>
193	<org.springframework.boot.loader.jar.JarFileEntries$EntryIterator: void <init>(org.springframework.boot.loader.jar.JarFileEntries,org.springframework.boot.loader.jar.JarFileEntries$1)>
131	<org.springframework.boot.loader.jar.JarFile$JarFileType: void <init>(java.lang.String,int)>
133	<org.springframework.boot.loader.jar.JarFile$JarFileType: void <init>(java.lang.String,int)>
134	<org.springframework.boot.loader.jar.JarFile$JarFileType: void <init>(java.lang.String,int)>
218	<org.springframework.boot.loader.jar.CentralDirectoryFileHeader: boolean hasName(java.lang.String,java.lang.String)>
218	<org.springframework.boot.loader.jar.CentralDirectoryFileHeader: java.util.Calendar decodeMsDosFormatDateTime(long,long)>
175	<org.springframework.boot.loader.jar.JarFile$3: void <init>(org.springframework.boot.loader.jar.JarFile,org.springframework.boot.loader.jar.AsciiBytes)>
47	<org.springframework.boot.loader.MainMethodRunner: void <init>(java.lang.String,java.lang.String[])>
55	<org.springframework.boot.loader.MainMethodRunner: void <init>(java.lang.String,java.lang.String[])>
62	<org.springframework.boot.loader.MainMethodRunner: void <init>(java.lang.String,java.lang.String[])>
29	<org.springframework.boot.loader.LaunchedURLClassLoader: void <init>(java.net.URL[],java.lang.ClassLoader)>
54	<org.springframework.boot.loader.LaunchedURLClassLoader: void <init>(java.net.URL[],java.lang.ClassLoader)>
61	<org.springframework.boot.loader.LaunchedURLClassLoader: void <init>(java.net.URL[],java.lang.ClassLoader)>
78	<org.springframework.boot.loader.PropertiesLauncher$PrefixMatchingArchiveFilter: void <init>(java.lang.String)>
78	<org.springframework.boot.loader.PropertiesLauncher$PrefixMatchingArchiveFilter: void <init>(java.lang.String,org.springframework.boot.loader.PropertiesLauncher$1)>
35	<org.springframework.boot.loader.ExecutableArchiveLauncher$1: void <init>(org.springframework.boot.loader.ExecutableArchiveLauncher)>
40	<org.springframework.boot.loader.ExecutableArchiveLauncher$1: void <init>(org.springframework.boot.loader.ExecutableArchiveLauncher)>
35	<org.springframework.boot.loader.ExecutableArchiveLauncher$1: boolean matches(org.springframework.boot.loader.archive.Archive$Entry)>
40	<org.springframework.boot.loader.ExecutableArchiveLauncher$1: boolean matches(org.springframework.boot.loader.archive.Archive$Entry)>
21	<org.springframework.boot.loader.archive.ExplodedArchive: void <init>(java.io.File,boolean)>
52	<org.springframework.boot.loader.archive.ExplodedArchive: void <init>(java.io.File,boolean)>
59	<org.springframework.boot.loader.archive.ExplodedArchive: void <init>(java.io.File,boolean)>
66	<org.springframework.boot.loader.archive.ExplodedArchive: void <init>(java.io.File,boolean)>
68	<org.springframework.boot.loader.archive.ExplodedArchive: void <init>(java.io.File,boolean)>
98	<org.springframework.boot.loader.archive.ExplodedArchive: void <init>(java.io.File,boolean)>
21	<org.springframework.boot.loader.archive.ExplodedArchive: java.io.File getManifestFile(java.io.File)>
52	<org.springframework.boot.loader.archive.ExplodedArchive: java.io.File getManifestFile(java.io.File)>
59	<org.springframework.boot.loader.archive.ExplodedArchive: java.io.File getManifestFile(java.io.File)>
66	<org.springframework.boot.loader.archive.ExplodedArchive: java.io.File getManifestFile(java.io.File)>
68	<org.springframework.boot.loader.archive.ExplodedArchive: java.io.File getManifestFile(java.io.File)>
98	<org.springframework.boot.loader.archive.ExplodedArchive: java.io.File getManifestFile(java.io.File)>
174	<org.springframework.boot.loader.jar.JarFile$1: void <init>(org.springframework.boot.loader.jar.JarFile)>
180	<org.springframework.boot.loader.jar.JarFile$1: void <init>(org.springframework.boot.loader.jar.JarFile)>
190	<org.springframework.boot.loader.jar.JarFile$1: void <init>(org.springframework.boot.loader.jar.JarFile)>
198	<org.springframework.boot.loader.jar.JarFile$1: void <init>(org.springframework.boot.loader.jar.JarFile)>
216	<org.springframework.boot.loader.jar.JarEntry: void <init>(org.springframework.boot.loader.jar.JarFile,org.springframework.boot.loader.jar.CentralDirectoryFileHeader)>
23	<org.springframework.boot.loader.archive.JarFileArchive: void <init>(org.springframework.boot.loader.jar.JarFile)>
58	<org.springframework.boot.loader.archive.JarFileArchive: void <init>(org.springframework.boot.loader.jar.JarFile)>
67	<org.springframework.boot.loader.archive.JarFileArchive: void <init>(org.springframework.boot.loader.jar.JarFile)>
72	<org.springframework.boot.loader.archive.JarFileArchive: void <init>(org.springframework.boot.loader.jar.JarFile)>
77	<org.springframework.boot.loader.archive.JarFileArchive: void <init>(org.springframework.boot.loader.jar.JarFile)>
79	<org.springframework.boot.loader.archive.JarFileArchive: void <init>(org.springframework.boot.loader.jar.JarFile)>
99	<org.springframework.boot.loader.archive.JarFileArchive: void <init>(org.springframework.boot.loader.jar.JarFile)>
103	<org.springframework.boot.loader.archive.JarFileArchive: void <init>(org.springframework.boot.loader.jar.JarFile)>
114	<org.springframework.boot.loader.archive.JarFileArchive: void <init>(org.springframework.boot.loader.jar.JarFile)>
115	<org.springframework.boot.loader.archive.JarFileArchive: void <init>(org.springframework.boot.loader.jar.JarFile)>
119	<org.springframework.boot.loader.archive.JarFileArchive: void <init>(org.springframework.boot.loader.jar.JarFile)>
138	<org.springframework.boot.loader.archive.JarFileArchive: void <init>(org.springframework.boot.loader.jar.JarFile)>
140	<org.springframework.boot.loader.archive.JarFileArchive: void <init>(org.springframework.boot.loader.jar.JarFile)>
12	<org.springframework.boot.loader.JarLauncher: boolean isNestedArchive(org.springframework.boot.loader.archive.Archive$Entry)>
32	<org.springframework.boot.loader.PropertiesLauncher$ArchiveEntryFilter: void <init>(org.springframework.boot.loader.PropertiesLauncher$1)>
113	<org.springframework.boot.loader.PropertiesLauncher$ArchiveEntryFilter: void <init>(org.springframework.boot.loader.PropertiesLauncher$1)>
10	<org.springframework.boot.loader.PropertiesLauncher: boolean isUrl(java.lang.String)>
10	<org.springframework.boot.loader.PropertiesLauncher: void addNestedEntries(java.util.List)>
10	<org.springframework.boot.loader.PropertiesLauncher: void debug(java.lang.String)>
10	<org.springframework.boot.loader.PropertiesLauncher: void warn(java.lang.String)>
10	<org.springframework.boot.loader.PropertiesLauncher: void log(java.lang.String)>
182	<org.springframework.boot.loader.jar.JarFileEntries$1: void <init>(org.springframework.boot.loader.jar.JarFileEntries,int,float,boolean)>
10	<org.springframework.boot.loader.util.SystemPropertyUtils: java.lang.String resolvePlaceholders(java.util.Properties,java.lang.String)>
10	<org.springframework.boot.loader.util.SystemPropertyUtils: java.lang.String resolvePlaceholder(java.util.Properties,java.lang.String,java.lang.String)>
10	<org.springframework.boot.loader.util.SystemPropertyUtils: java.lang.String getProperty(java.lang.String)>
168	<org.springframework.boot.loader.jar.CentralDirectoryParser: org.springframework.boot.loader.jar.CentralDirectoryVisitor addVisitor(org.springframework.boot.loader.jar.CentralDirectoryVisitor)>
172	<org.springframework.boot.loader.jar.CentralDirectoryParser: org.springframework.boot.loader.jar.CentralDirectoryVisitor addVisitor(org.springframework.boot.loader.jar.CentralDirectoryVisitor)>
184	<org.springframework.boot.loader.jar.CentralDirectoryParser: org.springframework.boot.loader.jar.CentralDirectoryVisitor addVisitor(org.springframework.boot.loader.jar.CentralDirectoryVisitor)>
192	<org.springframework.boot.loader.jar.CentralDirectoryParser: org.springframework.boot.loader.jar.CentralDirectoryVisitor addVisitor(org.springframework.boot.loader.jar.CentralDirectoryVisitor)>
168	<org.springframework.boot.loader.jar.CentralDirectoryParser: org.springframework.boot.loader.data.RandomAccessData getArchiveData(org.springframework.boot.loader.jar.CentralDirectoryEndRecord,org.springframework.boot.loader.data.RandomAccessData)>
172	<org.springframework.boot.loader.jar.CentralDirectoryParser: org.springframework.boot.loader.data.RandomAccessData getArchiveData(org.springframework.boot.loader.jar.CentralDirectoryEndRecord,org.springframework.boot.loader.data.RandomAccessData)>
184	<org.springframework.boot.loader.jar.CentralDirectoryParser: org.springframework.boot.loader.data.RandomAccessData getArchiveData(org.springframework.boot.loader.jar.CentralDirectoryEndRecord,org.springframework.boot.loader.data.RandomAccessData)>
192	<org.springframework.boot.loader.jar.CentralDirectoryParser: org.springframework.boot.loader.data.RandomAccessData getArchiveData(org.springframework.boot.loader.jar.CentralDirectoryEndRecord,org.springframework.boot.loader.data.RandomAccessData)>
168	<org.springframework.boot.loader.jar.CentralDirectoryParser: void visitStart(org.springframework.boot.loader.jar.CentralDirectoryEndRecord,org.springframework.boot.loader.data.RandomAccessData)>
172	<org.springframework.boot.loader.jar.CentralDirectoryParser: void visitStart(org.springframework.boot.loader.jar.CentralDirectoryEndRecord,org.springframework.boot.loader.data.RandomAccessData)>
184	<org.springframework.boot.loader.jar.CentralDirectoryParser: void visitStart(org.springframework.boot.loader.jar.CentralDirectoryEndRecord,org.springframework.boot.loader.data.RandomAccessData)>
192	<org.springframework.boot.loader.jar.CentralDirectoryParser: void visitStart(org.springframework.boot.loader.jar.CentralDirectoryEndRecord,org.springframework.boot.loader.data.RandomAccessData)>
168	<org.springframework.boot.loader.jar.CentralDirectoryParser: void visitFileHeader(int,org.springframework.boot.loader.jar.CentralDirectoryFileHeader)>
172	<org.springframework.boot.loader.jar.CentralDirectoryParser: void visitFileHeader(int,org.springframework.boot.loader.jar.CentralDirectoryFileHeader)>
184	<org.springframework.boot.loader.jar.CentralDirectoryParser: void visitFileHeader(int,org.springframework.boot.loader.jar.CentralDirectoryFileHeader)>
192	<org.springframework.boot.loader.jar.CentralDirectoryParser: void visitFileHeader(int,org.springframework.boot.loader.jar.CentralDirectoryFileHeader)>
11	<org.springframework.boot.loader.ExecutableArchiveLauncher: void <init>()>
12	<org.springframework.boot.loader.ExecutableArchiveLauncher: void <init>()>
4	<org.springframework.boot.loader.jar.Handler: void <clinit>()>
179	<org.springframework.boot.loader.jar.AsciiBytes: int length()>
188	<org.springframework.boot.loader.jar.AsciiBytes: int length()>
201	<org.springframework.boot.loader.jar.AsciiBytes: int length()>
202	<org.springframework.boot.loader.jar.AsciiBytes: int length()>
188	<org.springframework.boot.loader.jar.AsciiBytes: java.lang.String toString()>
220	<org.springframework.boot.loader.jar.AsciiBytes: java.lang.String toString()>
221	<org.springframework.boot.loader.jar.AsciiBytes: java.lang.String toString()>
4	<org.springframework.boot.loader.jar.AsciiBytes: void <clinit>()>
10	<org.springframework.boot.loader.Launcher: void <init>()>
11	<org.springframework.boot.loader.Launcher: void <init>()>
12	<org.springframework.boot.loader.Launcher: void <init>()>
169	<org.springframework.boot.loader.jar.JarFileEntries: java.util.Iterator iterator()>
107	<org.springframework.boot.loader.data.RandomAccessDataFile: java.io.File getFile()>
107	<org.springframework.boot.loader.data.RandomAccessDataFile: long getSize()>
196	<org.springframework.boot.loader.data.RandomAccessDataFile: long getSize()>
215	<org.springframework.boot.loader.data.RandomAccessDataFile: long getSize()>
84	<org.springframework.boot.loader.jar.JarFile: org.springframework.boot.loader.jar.CentralDirectoryVisitor centralDirectoryVisitor()>
110	<org.springframework.boot.loader.jar.JarFile: org.springframework.boot.loader.jar.CentralDirectoryVisitor centralDirectoryVisitor()>
111	<org.springframework.boot.loader.jar.JarFile: org.springframework.boot.loader.jar.CentralDirectoryVisitor centralDirectoryVisitor()>
112	<org.springframework.boot.loader.jar.JarFile: org.springframework.boot.loader.jar.CentralDirectoryVisitor centralDirectoryVisitor()>
122	<org.springframework.boot.loader.jar.JarFile: org.springframework.boot.loader.jar.CentralDirectoryVisitor centralDirectoryVisitor()>
142	<org.springframework.boot.loader.jar.JarFile: org.springframework.boot.loader.jar.CentralDirectoryVisitor centralDirectoryVisitor()>
146	<org.springframework.boot.loader.jar.JarFile: org.springframework.boot.loader.jar.CentralDirectoryVisitor centralDirectoryVisitor()>
151	<org.springframework.boot.loader.jar.JarFile: org.springframework.boot.loader.jar.CentralDirectoryVisitor centralDirectoryVisitor()>
176	<org.springframework.boot.loader.jar.JarFile: org.springframework.boot.loader.jar.CentralDirectoryVisitor centralDirectoryVisitor()>
178	<org.springframework.boot.loader.jar.JarFile: org.springframework.boot.loader.jar.CentralDirectoryVisitor centralDirectoryVisitor()>
84	<org.springframework.boot.loader.jar.JarFile: org.springframework.boot.loader.data.RandomAccessDataFile getRootJarFile()>
122	<org.springframework.boot.loader.jar.JarFile: org.springframework.boot.loader.data.RandomAccessDataFile getRootJarFile()>
151	<org.springframework.boot.loader.jar.JarFile: org.springframework.boot.loader.data.RandomAccessDataFile getRootJarFile()>
84	<org.springframework.boot.loader.jar.JarFile: org.springframework.boot.loader.data.RandomAccessData getData()>
110	<org.springframework.boot.loader.jar.JarFile: org.springframework.boot.loader.data.RandomAccessData getData()>
111	<org.springframework.boot.loader.jar.JarFile: org.springframework.boot.loader.data.RandomAccessData getData()>
112	<org.springframework.boot.loader.jar.JarFile: org.springframework.boot.loader.data.RandomAccessData getData()>
122	<org.springframework.boot.loader.jar.JarFile: org.springframework.boot.loader.data.RandomAccessData getData()>
142	<org.springframework.boot.loader.jar.JarFile: org.springframework.boot.loader.data.RandomAccessData getData()>
146	<org.springframework.boot.loader.jar.JarFile: org.springframework.boot.loader.data.RandomAccessData getData()>
151	<org.springframework.boot.loader.jar.JarFile: org.springframework.boot.loader.data.RandomAccessData getData()>
84	<org.springframework.boot.loader.jar.JarFile: java.util.Enumeration entries()>
111	<org.springframework.boot.loader.jar.JarFile: java.util.Enumeration entries()>
112	<org.springframework.boot.loader.jar.JarFile: java.util.Enumeration entries()>
84	<org.springframework.boot.loader.jar.JarFile: java.lang.String getName()>
111	<org.springframework.boot.loader.jar.JarFile: java.lang.String getName()>
112	<org.springframework.boot.loader.jar.JarFile: java.lang.String getName()>
10	<org.springframework.boot.loader.jar.JarFile: void registerUrlProtocolHandler()>
11	<org.springframework.boot.loader.jar.JarFile: void registerUrlProtocolHandler()>
12	<org.springframework.boot.loader.jar.JarFile: void registerUrlProtocolHandler()>
10	<org.springframework.boot.loader.jar.JarFile: void resetCachedUrlHandlers()>
11	<org.springframework.boot.loader.jar.JarFile: void resetCachedUrlHandlers()>
12	<org.springframework.boot.loader.jar.JarFile: void resetCachedUrlHandlers()>
4	<org.springframework.boot.loader.jar.JarFile: void <clinit>()>
128	<org.springframework.boot.loader.archive.ExplodedArchive$FileEntryIterator$EntryComparator: void <init>()>
96	<org.springframework.boot.loader.archive.ExplodedArchive$FileEntryIterator: java.io.File poll()>
186	<org.springframework.boot.loader.jar.CentralDirectoryFileHeader: void <init>()>
218	<org.springframework.boot.loader.jar.CentralDirectoryFileHeader: void <init>()>
186	<org.springframework.boot.loader.jar.CentralDirectoryFileHeader: org.springframework.boot.loader.jar.AsciiBytes getName()>
218	<org.springframework.boot.loader.jar.CentralDirectoryFileHeader: org.springframework.boot.loader.jar.AsciiBytes getName()>
186	<org.springframework.boot.loader.jar.CentralDirectoryFileHeader: byte[] getExtra()>
218	<org.springframework.boot.loader.jar.CentralDirectoryFileHeader: byte[] getExtra()>
186	<org.springframework.boot.loader.jar.CentralDirectoryFileHeader: org.springframework.boot.loader.jar.AsciiBytes getComment()>
218	<org.springframework.boot.loader.jar.CentralDirectoryFileHeader: org.springframework.boot.loader.jar.AsciiBytes getComment()>
218	<org.springframework.boot.loader.jar.CentralDirectoryFileHeader: long getLocalHeaderOffset()>
4	<org.springframework.boot.loader.jar.CentralDirectoryFileHeader: void <clinit>()>
4	<org.springframework.boot.loader.LaunchedURLClassLoader: void performParallelCapableRegistration()>
4	<org.springframework.boot.loader.LaunchedURLClassLoader: void <clinit>()>
21	<org.springframework.boot.loader.archive.ExplodedArchive: java.util.Iterator iterator()>
59	<org.springframework.boot.loader.archive.ExplodedArchive: java.util.Iterator iterator()>
66	<org.springframework.boot.loader.archive.ExplodedArchive: java.util.Iterator iterator()>
96	<org.springframework.boot.loader.archive.ExplodedArchive: java.util.Set access$100()>
4	<org.springframework.boot.loader.archive.ExplodedArchive: void <clinit>()>
11	<org.springframework.boot.loader.WarLauncher: void <init>()>
216	<org.springframework.boot.loader.jar.JarEntry: long getLocalHeaderOffset()>
4	<org.springframework.boot.loader.jar.Bytes: void <clinit>()>
23	<org.springframework.boot.loader.archive.JarFileArchive: java.util.Iterator iterator()>
58	<org.springframework.boot.loader.archive.JarFileArchive: java.util.Iterator iterator()>
67	<org.springframework.boot.loader.archive.JarFileArchive: java.util.Iterator iterator()>
77	<org.springframework.boot.loader.archive.JarFileArchive: java.util.Iterator iterator()>
79	<org.springframework.boot.loader.archive.JarFileArchive: java.util.Iterator iterator()>
23	<org.springframework.boot.loader.archive.JarFileArchive: java.io.File getTempUnpackFolder()>
58	<org.springframework.boot.loader.archive.JarFileArchive: java.io.File getTempUnpackFolder()>
67	<org.springframework.boot.loader.archive.JarFileArchive: java.io.File getTempUnpackFolder()>
77	<org.springframework.boot.loader.archive.JarFileArchive: java.io.File getTempUnpackFolder()>
79	<org.springframework.boot.loader.archive.JarFileArchive: java.io.File getTempUnpackFolder()>
12	<org.springframework.boot.loader.JarLauncher: void <init>()>
32	<org.springframework.boot.loader.PropertiesLauncher$ArchiveEntryFilter: void <init>()>
113	<org.springframework.boot.loader.PropertiesLauncher$ArchiveEntryFilter: void <init>()>
10	<org.springframework.boot.loader.PropertiesLauncher: void <init>()>
10	<org.springframework.boot.loader.PropertiesLauncher: java.io.File getHomeDirectory()>
4	<org.springframework.boot.loader.PropertiesLauncher: void <clinit>()>
168	<org.springframework.boot.loader.jar.CentralDirectoryParser: void visitEnd()>
172	<org.springframework.boot.loader.jar.CentralDirectoryParser: void visitEnd()>
184	<org.springframework.boot.loader.jar.CentralDirectoryParser: void visitEnd()>
192	<org.springframework.boot.loader.jar.CentralDirectoryParser: void visitEnd()>
10	<java.lang.Object: void <init>()>
11	<java.lang.Object: void <init>()>
12	<java.lang.Object: void <init>()>
16	<java.lang.Object: void <init>()>
17	<java.lang.Object: void <init>()>
21	<java.lang.Object: void <init>()>
23	<java.lang.Object: void <init>()>
32	<java.lang.Object: void <init>()>
35	<java.lang.Object: void <init>()>
40	<java.lang.Object: void <init>()>
47	<java.lang.Object: void <init>()>
51	<java.lang.Object: void <init>()>
52	<java.lang.Object: void <init>()>
55	<java.lang.Object: void <init>()>
58	<java.lang.Object: void <init>()>
59	<java.lang.Object: void <init>()>
62	<java.lang.Object: void <init>()>
66	<java.lang.Object: void <init>()>
67	<java.lang.Object: void <init>()>
68	<java.lang.Object: void <init>()>
72	<java.lang.Object: void <init>()>
77	<java.lang.Object: void <init>()>
78	<java.lang.Object: void <init>()>
79	<java.lang.Object: void <init>()>
96	<java.lang.Object: void <init>()>
98	<java.lang.Object: void <init>()>
99	<java.lang.Object: void <init>()>
100	<java.lang.Object: void <init>()>
103	<java.lang.Object: void <init>()>
107	<java.lang.Object: void <init>()>
113	<java.lang.Object: void <init>()>
114	<java.lang.Object: void <init>()>
115	<java.lang.Object: void <init>()>
118	<java.lang.Object: void <init>()>
119	<java.lang.Object: void <init>()>
121	<java.lang.Object: void <init>()>
126	<java.lang.Object: void <init>()>
128	<java.lang.Object: void <init>()>
138	<java.lang.Object: void <init>()>
140	<java.lang.Object: void <init>()>
153	<java.lang.Object: void <init>()>
168	<java.lang.Object: void <init>()>
169	<java.lang.Object: void <init>()>
172	<java.lang.Object: void <init>()>
173	<java.lang.Object: void <init>()>
174	<java.lang.Object: void <init>()>
175	<java.lang.Object: void <init>()>
179	<java.lang.Object: void <init>()>
180	<java.lang.Object: void <init>()>
183	<java.lang.Object: void <init>()>
184	<java.lang.Object: void <init>()>
185	<java.lang.Object: void <init>()>
186	<java.lang.Object: void <init>()>
188	<java.lang.Object: void <init>()>
189	<java.lang.Object: void <init>()>
190	<java.lang.Object: void <init>()>
191	<java.lang.Object: void <init>()>
192	<java.lang.Object: void <init>()>
193	<java.lang.Object: void <init>()>
196	<java.lang.Object: void <init>()>
198	<java.lang.Object: void <init>()>
201	<java.lang.Object: void <init>()>
202	<java.lang.Object: void <init>()>
215	<java.lang.Object: void <init>()>
218	<java.lang.Object: void <init>()>
220	<java.lang.Object: void <init>()>
221	<java.lang.Object: void <init>()>
222	<java.lang.Object: void <init>()>
18	<java.lang.StringBuilder: void <init>()>
187	<java.io.IOException: void <init>(java.lang.String)>
200	<java.io.IOException: void <init>(java.lang.String)>
204	<java.io.IOException: void <init>(java.lang.String)>
207	<java.io.IOException: void <init>(java.lang.String)>
208	<java.io.IOException: void <init>(java.lang.String)>
223	<java.io.IOException: void <init>(java.lang.String)>
20	<java.lang.IllegalStateException: void <init>(java.lang.String)>
22	<java.lang.IllegalStateException: void <init>(java.lang.String)>
26	<java.lang.IllegalStateException: void <init>(java.lang.String)>
39	<java.lang.IllegalStateException: void <init>(java.lang.String)>
43	<java.lang.IllegalStateException: void <init>(java.lang.String)>
56	<java.lang.IllegalStateException: void <init>(java.lang.String)>
57	<java.lang.IllegalStateException: void <init>(java.lang.String)>
63	<java.lang.IllegalStateException: void <init>(java.lang.String)>
65	<java.lang.IllegalStateException: void <init>(java.lang.String)>
161	<java.lang.IllegalStateException: void <init>(java.lang.String)>
164	<java.lang.IllegalStateException: void <init>(java.lang.String)>
167	<java.lang.IllegalStateException: void <init>(java.lang.String)>
177	<java.lang.IllegalStateException: void <init>(java.lang.String)>
197	<java.lang.IllegalStateException: void <init>(java.lang.String)>
13	<java.lang.IllegalStateException: void <init>(java.lang.Throwable)>
25	<java.lang.IllegalStateException: void <init>(java.lang.Throwable)>
34	<java.lang.IllegalStateException: void <init>(java.lang.Throwable)>
38	<java.lang.IllegalStateException: void <init>(java.lang.Throwable)>
217	<java.lang.IllegalStateException: void <init>(java.lang.Throwable)>
33	<java.util.ArrayList: void <init>(java.util.Collection)>
36	<java.util.ArrayList: void <init>(java.util.Collection)>
41	<java.util.ArrayList: void <init>(java.util.Collection)>
80	<java.util.ArrayList: void <init>(java.util.Collection)>
170	<java.util.concurrent.Semaphore: void <init>(int)>
171	<java.util.concurrent.ConcurrentLinkedQueue: void <init>()>
219	<java.io.RandomAccessFile: void <init>(java.io.File,java.lang.String)>
125	<java.net.URLStreamHandler: void <init>()>
69	<java.lang.IllegalArgumentException: void <init>(java.lang.String)>
83	<java.lang.IllegalArgumentException: void <init>(java.lang.String)>
87	<java.lang.IllegalArgumentException: void <init>(java.lang.String)>
90	<java.lang.IllegalArgumentException: void <init>(java.lang.String)>
141	<java.lang.IllegalArgumentException: void <init>(java.lang.String)>
149	<java.lang.IllegalArgumentException: void <init>(java.lang.String)>
150	<java.lang.IllegalArgumentException: void <init>(java.lang.String)>
73	<java.net.URL: void <init>(java.lang.String)>
24	<java.io.File: void <init>(java.lang.String)>
27	<java.io.File: void <init>(java.lang.String)>
48	<java.io.File: void <init>(java.lang.String)>
60	<java.io.File: void <init>(java.lang.String)>
64	<java.io.File: void <init>(java.lang.String)>
70	<java.io.File: void <init>(java.lang.String)>
75	<java.io.File: void <init>(java.lang.String)>
143	<java.io.File: void <init>(java.lang.String)>
147	<java.io.File: void <init>(java.lang.String)>
156	<java.io.File: void <init>(java.lang.String)>
160	<java.io.File: void <init>(java.lang.String)>
162	<java.io.File: void <init>(java.lang.String)>
165	<java.io.File: void <init>(java.lang.String)>
145	<java.io.IOException: void <init>(java.lang.String,java.lang.Throwable)>
124	<java.lang.ref.SoftReference: void <init>(java.lang.Object)>
132	<java.lang.ref.SoftReference: void <init>(java.lang.Object)>
154	<java.lang.ref.SoftReference: void <init>(java.lang.Object)>
91	<java.lang.IndexOutOfBoundsException: void <init>()>
92	<java.lang.IndexOutOfBoundsException: void <init>()>
195	<java.lang.IndexOutOfBoundsException: void <init>()>
199	<java.lang.IndexOutOfBoundsException: void <init>()>
205	<java.lang.IndexOutOfBoundsException: void <init>()>
206	<java.lang.IndexOutOfBoundsException: void <init>()>
209	<java.lang.IndexOutOfBoundsException: void <init>()>
210	<java.lang.IndexOutOfBoundsException: void <init>()>
214	<java.lang.IndexOutOfBoundsException: void <init>()>
228	<java.lang.IndexOutOfBoundsException: void <init>()>
225	<java.lang.String: void <init>(byte[],int,int,java.nio.charset.Charset)>
226	<java.lang.String: void <init>(byte[],int,int,java.nio.charset.Charset)>
227	<java.lang.String: void <init>(byte[],int,int,java.nio.charset.Charset)>
37	<java.util.ArrayList: void <init>(int)>
42	<java.util.ArrayList: void <init>(int)>
131	<java.lang.Enum: void <init>(java.lang.String,int)>
133	<java.lang.Enum: void <init>(java.lang.String,int)>
134	<java.lang.Enum: void <init>(java.lang.String,int)>
135	<java.lang.Enum: void <init>(java.lang.String,int)>
136	<java.lang.Enum: void <init>(java.lang.String,int)>
84	<java.util.jar.JarFile: void <init>(java.io.File)>
110	<java.util.jar.JarFile: void <init>(java.io.File)>
111	<java.util.jar.JarFile: void <init>(java.io.File)>
112	<java.util.jar.JarFile: void <init>(java.io.File)>
122	<java.util.jar.JarFile: void <init>(java.io.File)>
142	<java.util.jar.JarFile: void <init>(java.io.File)>
146	<java.util.jar.JarFile: void <init>(java.io.File)>
151	<java.util.jar.JarFile: void <init>(java.io.File)>
176	<java.util.jar.JarFile: void <init>(java.io.File)>
178	<java.util.jar.JarFile: void <init>(java.io.File)>
89	<java.util.jar.Manifest: void <init>(java.io.InputStream)>
94	<java.util.jar.Manifest: void <init>(java.io.InputStream)>
123	<java.util.jar.Manifest: void <init>(java.io.InputStream)>
152	<java.util.jar.Manifest: void <init>(java.io.InputStream)>
127	<java.net.URL: void <init>(java.lang.String,java.lang.String,int,java.lang.String,java.net.URLStreamHandler)>
203	<java.util.zip.Inflater: void <init>(boolean)>
194	<java.util.zip.InflaterInputStream: void <init>(java.io.InputStream,java.util.zip.Inflater,int)>
129	<java.util.LinkedList: void <init>()>
224	<java.util.GregorianCalendar: void <init>(int,int,int,int,int,int)>
29	<java.net.URLClassLoader: void <init>(java.net.URL[],java.lang.ClassLoader)>
54	<java.net.URLClassLoader: void <init>(java.net.URL[],java.lang.ClassLoader)>
61	<java.net.URLClassLoader: void <init>(java.net.URL[],java.lang.ClassLoader)>
53	<java.io.File: void <init>(java.io.File,java.lang.String)>
74	<java.io.File: void <init>(java.io.File,java.lang.String)>
76	<java.io.File: void <init>(java.io.File,java.lang.String)>
95	<java.io.File: void <init>(java.io.File,java.lang.String)>
97	<java.io.File: void <init>(java.io.File,java.lang.String)>
102	<java.io.File: void <init>(java.io.File,java.lang.String)>
104	<java.io.File: void <init>(java.io.File,java.lang.String)>
105	<java.io.File: void <init>(java.io.File,java.lang.String)>
106	<java.io.File: void <init>(java.io.File,java.lang.String)>
116	<java.io.File: void <init>(java.io.File,java.lang.String)>
137	<java.io.File: void <init>(java.io.File,java.lang.String)>
139	<java.io.File: void <init>(java.io.File,java.lang.String)>
157	<java.io.File: void <init>(java.io.File,java.lang.String)>
158	<java.io.File: void <init>(java.io.File,java.lang.String)>
159	<java.io.File: void <init>(java.io.File,java.lang.String)>
163	<java.io.File: void <init>(java.io.File,java.lang.String)>
166	<java.io.File: void <init>(java.io.File,java.lang.String)>
71	<java.io.FileInputStream: void <init>(java.io.File)>
88	<java.io.FileInputStream: void <init>(java.io.File)>
93	<java.io.FileInputStream: void <init>(java.io.File)>
15	<java.util.ArrayList: void <init>()>
28	<java.util.ArrayList: void <init>()>
31	<java.util.ArrayList: void <init>()>
49	<java.util.ArrayList: void <init>()>
50	<java.util.ArrayList: void <init>()>
85	<java.util.ArrayList: void <init>()>
86	<java.util.ArrayList: void <init>()>
108	<java.util.ArrayList: void <init>()>
109	<java.util.ArrayList: void <init>()>
181	<java.util.ArrayList: void <init>()>
45	<java.util.HashSet: void <init>(java.util.Collection)>
216	<java.util.jar.JarEntry: void <init>(java.lang.String)>
101	<java.lang.IllegalStateException: void <init>(java.lang.String,java.lang.Throwable)>
117	<java.lang.IllegalStateException: void <init>(java.lang.String,java.lang.Throwable)>
120	<java.lang.IllegalStateException: void <init>(java.lang.String,java.lang.Throwable)>
144	<java.io.FileOutputStream: void <init>(java.io.File)>
148	<java.io.FileOutputStream: void <init>(java.io.File)>
155	<java.io.FileOutputStream: void <init>(java.io.File)>
14	<java.util.Properties: void <init>()>
30	<java.util.LinkedHashSet: void <init>(int)>
182	<java.util.LinkedHashMap: void <init>(int,float,boolean)>
46	<java.util.HashSet: void <init>()>
18	<java.lang.StringBuilder: void <init>(java.lang.String)>
213	<java.io.InputStream: void <init>()>
183	<java.lang.Math: long min(long,long)>
10	<java.net.URLDecoder: java.lang.String decode(java.lang.String,java.lang.String)>
4	<java.util.regex.Pattern: java.util.regex.Pattern compile(java.lang.String)>
4	<java.nio.charset.Charset: java.nio.charset.Charset forName(java.lang.String)>
169	<java.util.Collections: java.util.Map synchronizedMap(java.util.Map)>
173	<java.util.Collections: java.util.Map synchronizedMap(java.util.Map)>
185	<java.util.Collections: java.util.Map synchronizedMap(java.util.Map)>
191	<java.util.Collections: java.util.Map synchronizedMap(java.util.Map)>
169	<java.lang.Integer: java.lang.Integer valueOf(int)>
173	<java.lang.Integer: java.lang.Integer valueOf(int)>
169	<java.util.Arrays: int binarySearch(int[],int,int,int)>
173	<java.util.Arrays: int binarySearch(int[],int,int,int)>
107	<java.lang.String: java.lang.String format(java.lang.String,java.lang.Object[])>
10	<java.lang.System: java.lang.String getProperty(java.lang.String,java.lang.String)>
11	<java.lang.System: java.lang.String getProperty(java.lang.String,java.lang.String)>
12	<java.lang.System: java.lang.String getProperty(java.lang.String,java.lang.String)>
10	<java.lang.System: java.lang.String setProperty(java.lang.String,java.lang.String)>
11	<java.lang.System: java.lang.String setProperty(java.lang.String,java.lang.String)>
12	<java.lang.System: java.lang.String setProperty(java.lang.String,java.lang.String)>
10	<java.net.URL: void setURLStreamHandlerFactory(java.net.URLStreamHandlerFactory)>
11	<java.net.URL: void setURLStreamHandlerFactory(java.net.URLStreamHandlerFactory)>
12	<java.net.URL: void setURLStreamHandlerFactory(java.net.URLStreamHandlerFactory)>
96	<java.util.Collections: java.util.List emptyList()>
96	<java.util.Arrays: void sort(java.lang.Object[],java.util.Comparator)>
4	<java.util.Arrays: java.util.List asList(java.lang.Object[])>
96	<java.util.Arrays: java.util.List asList(java.lang.Object[])>
4	<java.lang.ClassLoader: boolean registerAsParallelCapable()>
21	<java.util.Collections: java.util.List unmodifiableList(java.util.List)>
23	<java.util.Collections: java.util.List unmodifiableList(java.util.List)>
58	<java.util.Collections: java.util.List unmodifiableList(java.util.List)>
59	<java.util.Collections: java.util.List unmodifiableList(java.util.List)>
66	<java.util.Collections: java.util.List unmodifiableList(java.util.List)>
67	<java.util.Collections: java.util.List unmodifiableList(java.util.List)>
77	<java.util.Collections: java.util.List unmodifiableList(java.util.List)>
79	<java.util.Collections: java.util.List unmodifiableList(java.util.List)>
10	<java.lang.System: java.lang.String getProperty(java.lang.String)>
23	<java.lang.System: java.lang.String getProperty(java.lang.String)>
58	<java.lang.System: java.lang.String getProperty(java.lang.String)>
67	<java.lang.System: java.lang.String getProperty(java.lang.String)>
77	<java.lang.System: java.lang.String getProperty(java.lang.String)>
79	<java.lang.System: java.lang.String getProperty(java.lang.String)>
23	<java.util.UUID: java.util.UUID randomUUID()>
58	<java.util.UUID: java.util.UUID randomUUID()>
67	<java.util.UUID: java.util.UUID randomUUID()>
77	<java.util.UUID: java.util.UUID randomUUID()>
79	<java.util.UUID: java.util.UUID randomUUID()>
10	<java.util.Collections: java.util.ArrayList list(java.util.Enumeration)>
10	<java.lang.Class: java.lang.Class forName(java.lang.String,boolean,java.lang.ClassLoader)>
10	<java.lang.Character: char toUpperCase(char)>
10	<java.lang.Boolean: boolean getBoolean(java.lang.String)>
10	<java.lang.System: java.lang.String getenv(java.lang.String)>
