/usr/bin/time: cannot run /home/gfun5990/info3600-bugchecker/digger/logic/doop_logic/1-call-site-sensitve/./j8: No such file or directory
Command exited with non-zero status 127
	Command being timed: "/home/gfun5990/info3600-bugchecker/digger/logic/doop_logic/1-call-site-sensitve/./j8"
	User time (seconds): 0.00
	System time (seconds): 0.00
	Percent of CPU this job got: ?%
	Elapsed (wall clock) time (h:mm:ss or m:ss): 0:00.00
	Average shared text size (kbytes): 0
	Average unshared data size (kbytes): 0
	Average stack size (kbytes): 0
	Average total size (kbytes): 0
	Maximum resident set size (kbytes): 1124
	Average resident set size (kbytes): 0
	Major (requiring I/O) page faults: 0
	Minor (reclaiming a frame) page faults: 26
	Voluntary context switches: 1
	Involuntary context switches: 0
	Swaps: 0
	File system inputs: 0
	File system outputs: 8
	Socket messages sent: 0
	Socket messages received: 0
	Signals delivered: 0
	Page size (bytes): 4096
	Exit status: 127
