added manifest
Moving generated jar file into 'out' directory

> Task :run
:: loading settings :: url = jar:file:/home/gfun5990/.gradle/caches/modules-2/files-2.1/org.apache.ivy/ivy/2.3.0/c5ebf1c253ad4959a29f4acfe696ee48cdd9f473/ivy-2.3.0.jar!/org/apache/ivy/core/settings/ivysettings.xml

WARNING: Handling of Java reflection is disabled!

New context-insensitive analysis
Id       : ArrayNullObjectStore
Inputs   : /home/gfun5990/info3600-bugchecker/digger/out/ArrayNullObjectStore.jar
Libraries: 
Using a timeout of 90 min.
[Task FACTS...]
[Task COMPILE...]
-- Fact Generation --
Using cached analysis executable 98d51335747232d25c50e2bfa330ee487158beade013c5e813f922e0f64ec123 from /home/gfun5990/info3600-bugchecker/doop/cache/souffle-analyses/context-insensitive
[Task COMPILE Done]







DIRECTORY: /home/gfun5990/info3600-bugchecker/doop/out/context-insensitive/ArrayNullObjectStore/facts
Preprocessing application: /home/gfun5990/info3600-bugchecker/digger/out/ArrayNullObjectStore.jar
Preprocessing library: /tmp/rt_5212881546612172021.jar
Preprocessing library: /tmp/jce_6453759538498596704.jar
Preprocessing library: /tmp/jsse_8868068745914040274.jar
Preprocessing library: /tmp/tools_1991134371591011822.jar
Adding archive for resolving: /tmp/rt_5212881546612172021.jar
Adding archive for resolving: /tmp/jce_6453759538498596704.jar
Adding archive for resolving: /tmp/jsse_8868068745914040274.jar
Adding archive for resolving: /tmp/tools_1991134371591011822.jar
Classes in input (application) jar(s): 0
Total classes in Scene: 0
Retrieved all bodies
Fact generation cores: 3
Generated artifact-to-class map for 4 artifacts.
Soot fact generation time: 8
Caching facts in /home/gfun5990/info3600-bugchecker/doop/cache/cf9e4a939f0cecdff39640fecef9138a0fe745bfe828d5af5a24bd5838035dd9
----
[Task FACTS Done]
Running analysis
Runtime info monitored in /home/gfun5990/info3600-bugchecker/doop/out/context-insensitive/ArrayNullObjectStore/monitoring.txt (& /home/gfun5990/info3600-bugchecker/doop/out/context-insensitive/ArrayNullObjectStore/monitoring.latest.txt)
Analysis execution time (sec): 0
-- Runtime metrics --
analysis compilation time (sec)                                                  0
analysis execution time (sec)                                                    0
disk footprint (KB)                                                              1
soot-fact-generation time (sec)                                                  8
-- Statistics --
var points-to (INS)                                                              0
var points-to (SENS)                                                             0
reachable variables (INS)                                                        0
reachable variables (SENS)                                                       0
reachable methods (INS)                                                          0
reachable methods (SENS)                                                         0
virtual call sites (statically)                                                  0
reachable virtual call sites                                                     0
polymorphic virtual call sites                                                   0
null virtual call sites                                                          0
empty virtual call sites                                                         0
app virtual call sites (statically)                                              0
app reachable virtual call sites                                                 0
app polymorphic virtual call sites                                               0
app null virtual call sites                                                      0
app empty virtual call sites                                                     0
array index points-to (INS)                                                      0
array index points-to (SENS)                                                     0
casts (statically)                                                               0
reachable casts                                                                  0
reachable casts that may fail                                                    0
app casts (statically)                                                           0
app reachable casts                                                              0
app reachable casts that may fail                                                0
app reachable methods                                                            0
instance field points-to (INS)                                                   0
instance field points-to (SENS)                                                  0
static field points-to (INS)                                                     0
static field points-to (SENS)                                                    0
app array index points-to (INS)                                                  0
app array index points-to (SENS)                                                 0
app instance field points-to (INS)                                               0
app instance field points-to (SENS)                                              0
call graph edges (INS)                                                           0
call graph edges (SENS)                                                          0
non-reachable app concrete methods                                               0
Making database available at /home/gfun5990/info3600-bugchecker/doop/results/ArrayNullObjectStore/context-insensitive/java_7/ArrayNullObjectStore
Making database available at /home/gfun5990/info3600-bugchecker/doop/last-analysis

BUILD SUCCESSFUL in 22s
5 actionable tasks: 1 executed, 4 up-to-date
added manifest
adding: ArrayNullObjectStore.class(in = 477) (out= 306)(deflated 35%)
adding: Rex.class(in = 403) (out= 285)(deflated 29%)
Moving generated jar file into 'out' directory

> Task :run
:: loading settings :: url = jar:file:/home/gfun5990/.gradle/caches/modules-2/files-2.1/org.apache.ivy/ivy/2.3.0/c5ebf1c253ad4959a29f4acfe696ee48cdd9f473/ivy-2.3.0.jar!/org/apache/ivy/core/settings/ivysettings.xml

WARNING: Handling of Java reflection is disabled!

New context-insensitive analysis
Id       : ArrayNullObjectStore
Inputs   : /home/gfun5990/info3600-bugchecker/digger/out/ArrayNullObjectStore.jar
Libraries: 
Using a timeout of 90 min.
[Task FACTS...]
[Task COMPILE...]
-- Fact Generation --
Using cached analysis executable 98d51335747232d25c50e2bfa330ee487158beade013c5e813f922e0f64ec123 from /home/gfun5990/info3600-bugchecker/doop/cache/souffle-analyses/context-insensitive
[Task COMPILE Done]







DIRECTORY: /home/gfun5990/info3600-bugchecker/doop/out/context-insensitive/ArrayNullObjectStore/facts
Preprocessing application: /home/gfun5990/info3600-bugchecker/digger/out/ArrayNullObjectStore.jar
Preprocessing library: /tmp/rt_8550803640590129114.jar
Preprocessing library: /tmp/jce_2538338303554517426.jar
Preprocessing library: /tmp/jsse_1655440136935114046.jar
Preprocessing library: /tmp/tools_2207529746751285205.jar
Adding archive for resolving: /tmp/rt_8550803640590129114.jar
Adding archive for resolving: /tmp/jce_2538338303554517426.jar
Adding archive for resolving: /tmp/jsse_1655440136935114046.jar
Adding archive for resolving: /tmp/tools_2207529746751285205.jar
Classes in input (application) jar(s): 2
Total classes in Scene: 2
Retrieved all bodies
Fact generation cores: 3
writeClassOrInterfaceType
SourceFileTag
this#_0 := @this: Rex
1
grade#_0 := @parameter0: int
2
specialinvoke this#_0.<java.lang.Object: void <init>()>()
3
this#_0.<Rex: int grade> = grade#_0
4
return
5
this#_0 := @this: Rex
1
$i0 = this#_0.<Rex: int grade>
2
return $i0
3
writeClassOrInterfaceType
SourceFileTag
this#_0 := @this: ArrayNullObjectStore
1
specialinvoke this#_0.<java.lang.Object: void <init>()>()
2
return
3
args#_0 := @parameter0: java.lang.String[]
1
array#_14 = null
2
$n0 = array#_14[0]
3
$n0 = array#_14[0]
4
$n0.<Rex: int age> = 99
5
$n0.<Rex: int age> = 99
6
return
7
Generated artifact-to-class map for 5 artifacts.
Soot fact generation time: 8
Caching facts in /home/gfun5990/info3600-bugchecker/doop/cache/aa0e167cf0019e71951d8921f6223881e8ad4784387383da418400e91d716ab5
----
[Task FACTS Done]
Running analysis
Runtime info monitored in /home/gfun5990/info3600-bugchecker/doop/out/context-insensitive/ArrayNullObjectStore/monitoring.txt (& /home/gfun5990/info3600-bugchecker/doop/out/context-insensitive/ArrayNullObjectStore/monitoring.latest.txt)
Analysis execution time (sec): 5
-- Runtime metrics --
analysis compilation time (sec)                                                  0
analysis execution time (sec)                                                    5
disk footprint (KB)                                                              3
soot-fact-generation time (sec)                                                  8
-- Statistics --
var points-to (INS)                                                              3
var points-to (SENS)                                                             3
reachable variables (INS)                                                        3
reachable variables (SENS)                                                       3
reachable methods (INS)                                                          1
reachable methods (SENS)                                                         1
virtual call sites (statically)                                                  0
reachable virtual call sites                                                     0
polymorphic virtual call sites                                                   0
null virtual call sites                                                          0
empty virtual call sites                                                         0
app virtual call sites (statically)                                              0
app reachable virtual call sites                                                 0
app polymorphic virtual call sites                                               0
app null virtual call sites                                                      0
app empty virtual call sites                                                     0
array index points-to (INS)                                                      1
array index points-to (SENS)                                                     1
casts (statically)                                                               0
reachable casts                                                                  0
reachable casts that may fail                                                    0
app casts (statically)                                                           0
app reachable casts                                                              0
app reachable casts that may fail                                                0
app reachable methods                                                            1
instance field points-to (INS)                                                   0
instance field points-to (SENS)                                                  0
static field points-to (INS)                                                     0
static field points-to (SENS)                                                    0
app array index points-to (INS)                                                  0
app array index points-to (SENS)                                                 0
app instance field points-to (INS)                                               0
app instance field points-to (SENS)                                              0
call graph edges (INS)                                                           0
call graph edges (SENS)                                                          0
non-reachable app concrete methods                                               3
Making database available at /home/gfun5990/info3600-bugchecker/doop/results/ArrayNullObjectStore/context-insensitive/java_7/ArrayNullObjectStore
Making database available at /home/gfun5990/info3600-bugchecker/doop/last-analysis

BUILD SUCCESSFUL in 29s
5 actionable tasks: 1 executed, 4 up-to-date
added manifest
adding: ArrayNullObjectStore.class(in = 477) (out= 306)(deflated 35%)
adding: Rex.class(in = 403) (out= 285)(deflated 29%)
Moving generated jar file into 'out' directory

> Task :run
:: loading settings :: url = jar:file:/home/gfun5990/.gradle/caches/modules-2/files-2.1/org.apache.ivy/ivy/2.3.0/c5ebf1c253ad4959a29f4acfe696ee48cdd9f473/ivy-2.3.0.jar!/org/apache/ivy/core/settings/ivysettings.xml

WARNING: Handling of Java reflection is disabled!

New context-insensitive analysis
Id       : ArrayNullObjectStore
Inputs   : /home/gfun5990/info3600-bugchecker/digger/out/ArrayNullObjectStore.jar
Libraries: 
Using a timeout of 90 min.
[Task FACTS...]
[Task COMPILE...]
-- Fact Generation --
Using cached analysis executable 98d51335747232d25c50e2bfa330ee487158beade013c5e813f922e0f64ec123 from /home/gfun5990/info3600-bugchecker/doop/cache/souffle-analyses/context-insensitive
[Task COMPILE Done]







DIRECTORY: /home/gfun5990/info3600-bugchecker/doop/out/context-insensitive/ArrayNullObjectStore/facts
Preprocessing application: /home/gfun5990/info3600-bugchecker/digger/out/ArrayNullObjectStore.jar
Preprocessing library: /tmp/rt_2541396380649177584.jar
Preprocessing library: /tmp/jce_4174843223245943719.jar
Preprocessing library: /tmp/jsse_5988771932911622855.jar
Preprocessing library: /tmp/tools_3387336423146893538.jar
Adding archive for resolving: /tmp/rt_2541396380649177584.jar
Adding archive for resolving: /tmp/jce_4174843223245943719.jar
Adding archive for resolving: /tmp/jsse_5988771932911622855.jar
Adding archive for resolving: /tmp/tools_3387336423146893538.jar
Classes in input (application) jar(s): 2
Total classes in Scene: 2
Retrieved all bodies
Fact generation cores: 3
writeClassOrInterfaceType
SourceFileTag
this#_0 := @this: Rex
1
grade#_0 := @parameter0: int
2
specialinvoke this#_0.<java.lang.Object: void <init>()>()
3
this#_0.<Rex: int grade> = grade#_0
4
return
5
this#_0 := @this: Rex
1
$i0 = this#_0.<Rex: int grade>
2
return $i0
3
writeClassOrInterfaceType
SourceFileTag
this#_0 := @this: ArrayNullObjectStore
1
specialinvoke this#_0.<java.lang.Object: void <init>()>()
2
return
3
args#_0 := @parameter0: java.lang.String[]
1
array#_14 = null
2
$n0 = array#_14[0]
3
$n0 = array#_14[0]
4
$n0.<Rex: int age> = 99
5
$n0.<Rex: int age> = 99
6
return
7
Generated artifact-to-class map for 5 artifacts.
Soot fact generation time: 8
Caching facts in /home/gfun5990/info3600-bugchecker/doop/cache/8f818b831a475bafa834bb4c66e0fbc71e1e82531e6bc97ea48f7d5f6eed786c
----
[Task FACTS Done]
Running analysis
Runtime info monitored in /home/gfun5990/info3600-bugchecker/doop/out/context-insensitive/ArrayNullObjectStore/monitoring.txt (& /home/gfun5990/info3600-bugchecker/doop/out/context-insensitive/ArrayNullObjectStore/monitoring.latest.txt)
Analysis execution time (sec): 0
-- Runtime metrics --
analysis compilation time (sec)                                                  0
analysis execution time (sec)                                                    0
disk footprint (KB)                                                              3
soot-fact-generation time (sec)                                                  8
-- Statistics --
var points-to (INS)                                                              3
var points-to (SENS)                                                             3
reachable variables (INS)                                                        3
reachable variables (SENS)                                                       3
reachable methods (INS)                                                          1
reachable methods (SENS)                                                         1
virtual call sites (statically)                                                  0
reachable virtual call sites                                                     0
polymorphic virtual call sites                                                   0
null virtual call sites                                                          0
empty virtual call sites                                                         0
app virtual call sites (statically)                                              0
app reachable virtual call sites                                                 0
app polymorphic virtual call sites                                               0
app null virtual call sites                                                      0
app empty virtual call sites                                                     0
array index points-to (INS)                                                      1
array index points-to (SENS)                                                     1
casts (statically)                                                               0
reachable casts                                                                  0
reachable casts that may fail                                                    0
app casts (statically)                                                           0
app reachable casts                                                              0
app reachable casts that may fail                                                0
app reachable methods                                                            1
instance field points-to (INS)                                                   0
instance field points-to (SENS)                                                  0
static field points-to (INS)                                                     0
static field points-to (SENS)                                                    0
app array index points-to (INS)                                                  0
app array index points-to (SENS)                                                 0
app instance field points-to (INS)                                               0
app instance field points-to (SENS)                                              0
call graph edges (INS)                                                           0
call graph edges (SENS)                                                          0
non-reachable app concrete methods                                               3
Making database available at /home/gfun5990/info3600-bugchecker/doop/results/ArrayNullObjectStore/context-insensitive/java_7/ArrayNullObjectStore
Making database available at /home/gfun5990/info3600-bugchecker/doop/last-analysis

BUILD SUCCESSFUL in 24s
5 actionable tasks: 1 executed, 4 up-to-date
added manifest
adding: ArrayNullObjectStore.class(in = 477) (out= 306)(deflated 35%)
adding: Rex.class(in = 403) (out= 285)(deflated 29%)
Moving generated jar file into 'out' directory
added manifest
adding: ArrayNullObjectStore.class(in = 477) (out= 306)(deflated 35%)
adding: Rex.class(in = 403) (out= 285)(deflated 29%)
Moving generated jar file into 'out' directory
added manifest
adding: ArrayNullObjectStore.class(in = 477) (out= 306)(deflated 35%)
adding: Rex.class(in = 403) (out= 285)(deflated 29%)
added manifest
Moving generated jar file into 'out' directory
added manifest
Moving generated jar file into 'out' directory
added manifest
adding: Rex.class(in = 403) (out= 285)(deflated 29%)
adding: ArrayNullObjectStore.class(in = 477) (out= 306)(deflated 35%)
Moving generated jar file into 'out' directory
added manifest
adding: Rex.class(in = 403) (out= 285)(deflated 29%)
adding: ArrayNullObjectStore.class(in = 477) (out= 306)(deflated 35%)
Moving generated jar file into 'out' directory

> Task :run
:: loading settings :: url = jar:file:/home/gfun5990/.gradle/caches/modules-2/files-2.1/org.apache.ivy/ivy/2.3.0/c5ebf1c253ad4959a29f4acfe696ee48cdd9f473/ivy-2.3.0.jar!/org/apache/ivy/core/settings/ivysettings.xml

WARNING: Handling of Java reflection is disabled!

New context-insensitive analysis
Id       : ArrayNullObjectStore
Inputs   : /home/gfun5990/info3600-bugchecker/digger/out/ArrayNullObjectStore.jar
Libraries: 
Using a timeout of 90 min.
[Task FACTS...]
[Task COMPILE...]
-- Fact Generation --
Using cached analysis executable da037622649955e9af185c1dd65e44ef8abfce9ba8ba29150a3e916c1e0a07ff from /home/gfun5990/info3600-bugchecker/doop/cache/souffle-analyses/context-insensitive
[Task COMPILE Done]







DIRECTORY: /home/gfun5990/info3600-bugchecker/doop/out/context-insensitive/ArrayNullObjectStore/facts
Preprocessing application: /home/gfun5990/info3600-bugchecker/digger/out/ArrayNullObjectStore.jar
Preprocessing library: /tmp/rt_4385131769301577478.jar
Preprocessing library: /tmp/jce_8010581366596572379.jar
Preprocessing library: /tmp/jsse_3678663311401930033.jar
Preprocessing library: /tmp/tools_5845401225114515545.jar
Adding archive for resolving: /tmp/rt_4385131769301577478.jar
Adding archive for resolving: /tmp/jce_8010581366596572379.jar
Adding archive for resolving: /tmp/jsse_3678663311401930033.jar
Adding archive for resolving: /tmp/tools_5845401225114515545.jar
Classes in input (application) jar(s): 2
Total classes in Scene: 2
Retrieved all bodies
Fact generation cores: 8
writeClassOrInterfaceType
SourceFileTag
this#_0 := @this: Rex
1
grade#_0 := @parameter0: int
2
specialinvoke this#_0.<java.lang.Object: void <init>()>()
3
this#_0.<Rex: int grade> = grade#_0
4
return
5
this#_0 := @this: Rex
1
$i0 = this#_0.<Rex: int grade>
2
return $i0
3
writeClassOrInterfaceType
SourceFileTag
this#_0 := @this: ArrayNullObjectStore
1
specialinvoke this#_0.<java.lang.Object: void <init>()>()
2
return
3
args#_0 := @parameter0: java.lang.String[]
1
array#_14 = null
2
$n0 = array#_14[0]
3
$n0 = array#_14[0]
4
$n0.<Rex: int age> = 99
5
$n0.<Rex: int age> = 99
6
return
7
Generated artifact-to-class map for 5 artifacts.
Soot fact generation time: 7
Caching facts in /home/gfun5990/info3600-bugchecker/doop/cache/d982e9ef8deded10db613198e83defe03d60dd02421baa2cc14406fe58ae8eae
----
[Task FACTS Done]
Running analysis
Analysis execution time (sec): 0
Runtime info monitored in /home/gfun5990/info3600-bugchecker/doop/out/context-insensitive/ArrayNullObjectStore/monitoring.txt (& /home/gfun5990/info3600-bugchecker/doop/out/context-insensitive/ArrayNullObjectStore/monitoring.latest.txt)
-- Runtime metrics --
analysis compilation time (sec)                                                  0
analysis execution time (sec)                                                    0
disk footprint (KB)                                                              3
soot-fact-generation time (sec)                                                  7
-- Statistics --
var points-to (INS)                                                              3
var points-to (SENS)                                                             3
reachable variables (INS)                                                        3
reachable variables (SENS)                                                       3
reachable methods (INS)                                                          1
reachable methods (SENS)                                                         1
virtual call sites (statically)                                                  0
reachable virtual call sites                                                     0
polymorphic virtual call sites                                                   0
null virtual call sites                                                          0
empty virtual call sites                                                         0
app virtual call sites (statically)                                              0
app reachable virtual call sites                                                 0
app polymorphic virtual call sites                                               0
app null virtual call sites                                                      0
app empty virtual call sites                                                     0
array index points-to (INS)                                                      1
array index points-to (SENS)                                                     1
casts (statically)                                                               0
reachable casts                                                                  0
reachable casts that may fail                                                    0
app casts (statically)                                                           0
app reachable casts                                                              0
app reachable casts that may fail                                                0
app reachable methods                                                            1
instance field points-to (INS)                                                   0
instance field points-to (SENS)                                                  0
static field points-to (INS)                                                     0
static field points-to (SENS)                                                    0
app array index points-to (INS)                                                  0
app array index points-to (SENS)                                                 0
app instance field points-to (INS)                                               0
app instance field points-to (SENS)                                              0
call graph edges (INS)                                                           0
call graph edges (SENS)                                                          0
non-reachable app concrete methods                                               3
Making database available at /home/gfun5990/info3600-bugchecker/doop/results/ArrayNullObjectStore/context-insensitive/java_7/ArrayNullObjectStore
Making database available at /home/gfun5990/info3600-bugchecker/doop/last-analysis

BUILD SUCCESSFUL in 19s
5 actionable tasks: 1 executed, 4 up-to-date
added manifest
adding: Rex.class(in = 403) (out= 285)(deflated 29%)
adding: ArrayNullObjectStore.class(in = 477) (out= 306)(deflated 35%)
Moving generated jar file into 'out' directory
added manifest
adding: Rex.class(in = 403) (out= 285)(deflated 29%)
adding: ArrayNullObjectStore.class(in = 477) (out= 306)(deflated 35%)
Moving generated jar file into 'out' directory
