Moving generated jar file into 'out' directory
added manifest
adding: ArrayNullStore.class(in = 422) (out= 275)(deflated 34%)
Moving generated jar file into 'out' directory

> Task :run
:: loading settings :: url = jar:file:/home/gfun5990/.gradle/caches/modules-2/files-2.1/org.apache.ivy/ivy/2.3.0/c5ebf1c253ad4959a29f4acfe696ee48cdd9f473/ivy-2.3.0.jar!/org/apache/ivy/core/settings/ivysettings.xml

WARNING: Handling of Java reflection is disabled!

New context-insensitive analysis
Id       : ArrayNullStore
Inputs   : /home/gfun5990/info3600-bugchecker/digger/out/ArrayNullStore.jar
Libraries: 
Using a timeout of 90 min.
[Task FACTS...]
[Task COMPILE...]
-- Fact Generation --
Using cached analysis executable da037622649955e9af185c1dd65e44ef8abfce9ba8ba29150a3e916c1e0a07ff from /home/gfun5990/info3600-bugchecker/doop/cache/souffle-analyses/context-insensitive
[Task COMPILE Done]







DIRECTORY: /home/gfun5990/info3600-bugchecker/doop/out/context-insensitive/ArrayNullStore/facts
Preprocessing application: /home/gfun5990/info3600-bugchecker/digger/out/ArrayNullStore.jar
Preprocessing library: /tmp/rt_8574023468153338604.jar
Preprocessing library: /tmp/jce_1942005118926579403.jar
Preprocessing library: /tmp/jsse_8167223246427265784.jar
Preprocessing library: /tmp/tools_3610848746747708979.jar
Adding archive for resolving: /tmp/rt_8574023468153338604.jar
Adding archive for resolving: /tmp/jce_1942005118926579403.jar
Adding archive for resolving: /tmp/jsse_8167223246427265784.jar
Adding archive for resolving: /tmp/tools_3610848746747708979.jar
Classes in input (application) jar(s): 1
Total classes in Scene: 1
Retrieved all bodies
Fact generation cores: 8
writeClassOrInterfaceType
SourceFileTag
this#_0 := @this: ArrayNullStore
1
specialinvoke this#_0.<java.lang.Object: void <init>()>()
2
return
3
args#_0 := @parameter0: java.lang.String[]
1
array#_3 = null
2
tmp$780033443 = 2
3
tmp$511131909 = (null_type) tmp$780033443
4
array#_3[4] = tmp$511131909
5
array#_3[4] = tmp$511131909
6
return
7
Generated artifact-to-class map for 5 artifacts.
Soot fact generation time: 7
Caching facts in /home/gfun5990/info3600-bugchecker/doop/cache/dcd6fdc232fab1cc298c3768bd52ca9cbae2b3ac520ba64ee7857a1b08bc2847
----
[Task FACTS Done]
Running analysis
Analysis execution time (sec): 0
Runtime info monitored in /home/gfun5990/info3600-bugchecker/doop/out/context-insensitive/ArrayNullStore/monitoring.txt (& /home/gfun5990/info3600-bugchecker/doop/out/context-insensitive/ArrayNullStore/monitoring.latest.txt)
-- Runtime metrics --
analysis compilation time (sec)                                                  0
analysis execution time (sec)                                                    0
disk footprint (KB)                                                              3
soot-fact-generation time (sec)                                                  7
-- Statistics --
var points-to (INS)                                                              3
var points-to (SENS)                                                             3
reachable variables (INS)                                                        3
reachable variables (SENS)                                                       3
reachable methods (INS)                                                          1
reachable methods (SENS)                                                         1
virtual call sites (statically)                                                  0
reachable virtual call sites                                                     0
polymorphic virtual call sites                                                   0
null virtual call sites                                                          0
empty virtual call sites                                                         0
app virtual call sites (statically)                                              0
app reachable virtual call sites                                                 0
app polymorphic virtual call sites                                               0
app null virtual call sites                                                      0
app empty virtual call sites                                                     0
array index points-to (INS)                                                      1
array index points-to (SENS)                                                     1
casts (statically)                                                               1
reachable casts                                                                  0
reachable casts that may fail                                                    0
app casts (statically)                                                           1
app reachable casts                                                              0
app reachable casts that may fail                                                0
app reachable methods                                                            1
instance field points-to (INS)                                                   0
instance field points-to (SENS)                                                  0
static field points-to (INS)                                                     0
static field points-to (SENS)                                                    0
app array index points-to (INS)                                                  0
app array index points-to (SENS)                                                 0
app instance field points-to (INS)                                               0
app instance field points-to (SENS)                                              0
call graph edges (INS)                                                           0
call graph edges (SENS)                                                          0
non-reachable app concrete methods                                               1
Making database available at /home/gfun5990/info3600-bugchecker/doop/results/ArrayNullStore/context-insensitive/java_7/ArrayNullStore
Making database available at /home/gfun5990/info3600-bugchecker/doop/last-analysis

BUILD SUCCESSFUL in 19s
5 actionable tasks: 1 executed, 4 up-to-date
added manifest
adding: ArrayNullStore.class(in = 422) (out= 275)(deflated 34%)
Moving generated jar file into 'out' directory
added manifest
adding: ArrayNullStore.class(in = 422) (out= 275)(deflated 34%)
Moving generated jar file into 'out' directory
