java.lang.String	6
java.lang.Class	5
java.lang.invoke.MethodHandle	12
boolean	7
byte	4
char	4
short	5
int	3
long	4
float	5
double	6
void	4
null_type	9
java.lang.Object	6
java.lang.String[]	8
java.lang.StringBuilder	13
java.lang.ThreadGroup	11
java.lang.Thread	6
java.io.Serializable	12
java.lang.ClassLoader	11
java.lang.Throwable	9
psiprobe.controllers.error.Error404Controller	18
psiprobe.controllers.quickcheck.BaseTomcatAvailabilityController	32
psiprobe.model.certificates.CertificateInfo	15
psiprobe.controllers.apps.ViewContextXmlConfController	28
psiprobe.controllers.sql.ExecuteSqlController	20
psiprobe.controllers.apps.ListApplicationResourcesController	34
psiprobe.scheduler.jobs.AppStatsJobDetail	17
psiprobe.controllers.connectors.ToggleConnectorStatusController	31
psiprobe.tools.MailMessage	11
psiprobe.controllers.deploy.DeployConfigController	22
psiprobe.controllers.apps.ListWebappsController	21
psiprobe.tools.logging.log4j2.Log4J2AppenderAccessor	22
psiprobe.scheduler.triggers.ConnectorStatsTrigger	21
psiprobe.tools.Instruments	11
psiprobe.controllers.quickcheck.TomcatAvailabilityXmlController	31
psiprobe.mappers.AjaxDecoratorMapper	19
psiprobe.controllers.threads.ImplSelectorController	22
psiprobe.TomcatContainer	15
psiprobe.model.Attribute	9
psiprobe.tools.BackwardsLineReader	19
psiprobe.controllers.apps.StartSummaryContextController	29
psiprobe.beans.stats.collectors.AbstractStatsCollectorBean$Entry	32
psiprobe.controllers.cluster.ClusterStatsController	22
psiprobe.jsp.AddQueryParamTag	16
psiprobe.controllers.help.HelpThreadsController	21
psiprobe.controllers.apps.AjaxToggleContextController	27
psiprobe.model.certificates.ConnectorInfo	13
psiprobe.controllers.apps.GetApplicationSummaryController	31
psiprobe.model.ApplicationResource	19
psiprobe.tokenizer.TokenizerSymbol	15
psiprobe.controllers.logs.AbstractLogHandlerController	28
psiprobe.controllers.datasources.ResetDataSourceController	25
psiprobe.tokenizer.UniqueList	10
psiprobe.beans.ResourceResolverBean	20
psiprobe.ProbeConfig	11
psiprobe.beans.JvmMemoryInfoAccessorBean	25
psiprobe.model.IpInfo	6
psiprobe.model.ThreadPool	10
psiprobe.model.certificates.OldConnectorInfo	16
psiprobe.beans.ContainerListenerBean	21
psiprobe.tools.AsyncSocketFactory	18
psiprobe.controllers.apps.BaseStartContextController	26
psiprobe.AbstractTomcatContainer$FilterMapType	37
psiprobe.beans.accessors.ViburCpDatasourceAccessor	25
psiprobe.model.jmx.ClusterSender	13
psiprobe.controllers.apps.BaseReloadContextController	27
psiprobe.controllers.jsp.ViewServletSourceController	27
psiprobe.controllers.servlets.ListServletMapsController	25
psiprobe.controllers.apps.ViewWebXmlConfController	24
psiprobe.model.jsp.Summary	7
psiprobe.tools.Whois	5
psiprobe.controllers.apps.BaseDownloadXmlConfController	29
psiprobe.tools.logging.FileLogAccessor	15
psiprobe.controllers.cluster.BaseClusterStatsController	26
psiprobe.ProbeSecurityConfig	19
psiprobe.model.TransportableModel	18
psiprobe.controllers.threads.KillThreadController	20
psiprobe.tools.UpdateCommitLock	16
psiprobe.controllers.apps.GetApplicationRequestDetailsController	38
psiprobe.tools.logging.logback.LogbackFactoryAccessor	22
psiprobe.controllers.sessions.ExpireSessionController	23
psiprobe.tools.logging.commons.AbstractLoggerAccessorVisitor	29
psiprobe.beans.ContainerWrapperBean	20
psiprobe.tools.SimpleAccessor	14
psiprobe.controllers.datasources.ListAllJdbcResourceGroupsController	35
psiprobe.beans.LogResolverBean$1	17
psiprobe.controllers.threads.ListSunThreadsController	24
psiprobe.jsp.DurationTag	11
psiprobe.controllers.help.HelpSessionSearchController	27
psiprobe.beans.stats.collectors.ConnectorStatsCollectorBean	27
psiprobe.tools.AsyncSocketFactory$SocketRunnable	33
psiprobe.tools.Accessor	8
psiprobe.tools.logging.commons.GetAllDestinationsVisitor	25
psiprobe.model.jmx.RuntimeInformation	18
psiprobe.controllers.threads.ListThreadPoolsController	25
psiprobe.model.java.ThreadModel	11
psiprobe.scheduler.triggers.StatsSerializerTrigger	22
psiprobe.controllers.sessions.ListSessionsController	22
psiprobe.controllers.wrapper.ThreadDumpController	20
psiprobe.controllers.certificates.SslHostConfigHelper	19
psiprobe.scheduler.jobs.DatasourceStatsJobDetail	24
psiprobe.controllers.datasources.ListAllJdbcResourcesController	30
psiprobe.model.Application	11
psiprobe.beans.stats.listeners.MemoryPoolMailingListener	25
psiprobe.controllers.sessions.ListSessionAttributesController	31
psiprobe.controllers.apps.StopContextController	21
psiprobe.beans.LogResolverBean$AbstractLogComparator	37
psiprobe.controllers.RememberVisibilityController	28
psiprobe.beans.stats.listeners.StatsCollectionListener	23
psiprobe.jsp.Functions	9
psiprobe.beans.stats.providers.StandardSeriesProvider	22
psiprobe.tools.logging.commons.GetSingleDestinationVisitor	27
psiprobe.model.sql.DataSourceTestInfo	18
psiprobe.scheduler.jobs.RuntimeStatsJobDetail	21
psiprobe.model.ApplicationSession	18
psiprobe.controllers.deploy.UndeployContextController	25
psiprobe.tools.logging.log4j.Log4JAppenderAccessor	21
psiprobe.model.ServletMapping	14
psiprobe.model.jsp.CompilerException	17
psiprobe.controllers.filters.ListAppFiltersController	24
psiprobe.beans.accessors.TomcatJdbcPoolDatasourceAccessor	32
psiprobe.AbstractTomcatContainer	23
psiprobe.Utils	5
psiprobe.model.FilterInfo	10
psiprobe.ProbeServlet	12
psiprobe.beans.stats.collectors.RuntimeStatsCollectorBean	25
psiprobe.scheduler.triggers.ClusterStatsTrigger	19
psiprobe.controllers.jsp.DisplayJspController	20
psiprobe.beans.stats.listeners.AbstractStatsCollectionListener	31
psiprobe.controllers.threads.ThreadStackController	21
psiprobe.tools.AsyncSocketFactory$TimeoutRunnable	34
psiprobe.tokenizer.Tokenizer	9
psiprobe.tools.logging.slf4jlogback.TomcatSlf4jLogbackLoggerAccessor	32
psiprobe.tools.Whois$Response	14
psiprobe.controllers.system.AdviseGarbageCollectionController	33
psiprobe.tools.logging.log4j.Log4JLoggerAccessor	19
psiprobe.controllers.AbstractContextHandlerController	32
psiprobe.controllers.system.OsInfoController	16
psiprobe.controllers.apps.ListAppAttributesController	27
psiprobe.controllers.deploy.CopySingleFileController	24
psiprobe.tools.logging.log4j2.Log4J2LoggerContextAccessor	27
psiprobe.controllers.jsp.DownloadServletController	25
psiprobe.scheduler.jobs.ConnectorStatsJobDetail	23
psiprobe.controllers.system.BaseSysInfoController	21
psiprobe.model.FilterMapping	13
psiprobe.tools.logging.commons.CommonsLoggerAccessor	21
psiprobe.model.stats.StatsCollection	15
psiprobe.controllers.sql.QueryHistoryController	22
psiprobe.beans.stats.collectors.ClusterStatsCollectorBean	25
psiprobe.tools.logging.log4j2.Log4J2WebLoggerContextUtilsAccessor	35
psiprobe.beans.stats.providers.MultipleSeriesProvider$2	24
psiprobe.controllers.apps.BaseViewXmlConfController	25
psiprobe.model.RequestProcessor	16
psiprobe.model.DataSourceInfoGroup	19
psiprobe.beans.accessors.Dbcp2DatasourceAccessor	23
psiprobe.tools.TimeExpression	14
psiprobe.controllers.connectors.GetConnectorProcTimeController	30
psiprobe.controllers.wrapper.WrapperInfoController	21
psiprobe.controllers.sessions.RemoveSessAttributeController	29
psiprobe.controllers.deploy.DeployContextController	23
psiprobe.tools.AccessorFactory	15
psiprobe.scheduler.triggers.RuntimeStatsTrigger	19
psiprobe.controllers.sql.DataSourceTestController	24
psiprobe.controllers.apps.GetApplicationRuntimeInfoController	35
psiprobe.controllers.jsp.DiscardCompiledJspController	28
psiprobe.controllers.servlets.ListServletsController	22
psiprobe.controllers.help.HelpApplicationsController	26
psiprobe.controllers.apps.BaseGetApplicationController	28
psiprobe.tools.logging.AbstractLogDestination	22
psiprobe.controllers.servlets.ServletsController	18
psiprobe.controllers.jsp.ViewSourceController	20
psiprobe.model.SunThread	9
psiprobe.model.SystemInformation	17
psiprobe.controllers.apps.AllAppStatsController	21
psiprobe.beans.stats.providers.AbstractSeriesProvider	22
psiprobe.tokenizer.StringTokenizer	15
psiprobe.controllers.filters.ListAppFilterMapsController	27
psiprobe.controllers.apps.RemoveApplicationAttributeController	36
psiprobe.scheduler.triggers.AppStatsTrigger	15
psiprobe.tools.url.UrlParser	9
psiprobe.jsp.OutTag	6
psiprobe.controllers.help.HelpDatasourceTestController	28
psiprobe.controllers.system.SysInfoController	17
psiprobe.controllers.connectors.ResetConnectorStatsController	29
psiprobe.ProbeInitializer	16
psiprobe.controllers.apps.ReloadContextController	23
psiprobe.controllers.sql.QueryHistoryItemController	26
psiprobe.tools.logging.logback.LogbackLoggerAccessor	21
psiprobe.jsp.VolumeTag	9
psiprobe.model.jmx.MemoryPool	10
psiprobe.beans.stats.collectors.DatasourceStatsCollectorBean	28
psiprobe.AwtAppContextClassloaderListener	32
psiprobe.controllers.DecoratorController	19
psiprobe.controllers.RenderChartController	21
psiprobe.controllers.help.HelpDatasourcesController	25
psiprobe.controllers.logs.DownloadLogController	21
psiprobe.tools.SecurityUtils	13
psiprobe.controllers.apps.AjaxReloadContextController	27
psiprobe.tools.ReflectiveAccessor	18
psiprobe.beans.stats.providers.MultipleSeriesProvider	22
psiprobe.tools.logging.LogDestination	14
psiprobe.model.SessionSearchInfo	17
psiprobe.model.jmx.Cluster	7
psiprobe.beans.accessors.TomEeJdbcPoolDatasourceAccessor	31
psiprobe.controllers.connectors.GetConnectorTrafficController	29
psiprobe.controllers.sessions.ExpireSessionsController	24
psiprobe.model.certificates.SslHostConfigInfo	17
psiprobe.controllers.AbstractTomcatContainerController	33
psiprobe.controllers.deploy.UndeploySummaryContextController	32
psiprobe.controllers.apps.DownloadContextXmlConfController	32
psiprobe.model.jmx.SyncClusterSender	17
psiprobe.beans.stats.collectors.AbstractStatsCollectorBean	26
psiprobe.tools.JmxTools	8
psiprobe.controllers.cluster.ClusterTrafficStatsController	29
psiprobe.controllers.oshi.OshiController	14
psiprobe.controllers.truststore.TrustStoreController	20
psiprobe.controllers.quickcheck.TomcatAvailabilityController	28
psiprobe.model.jsp.Item	4
psiprobe.beans.LogResolverBean	15
psiprobe.controllers.logs.ChangeLogLevelController	24
psiprobe.controllers.wrapper.RestartJvmController	20
psiprobe.PostParameterizableViewController	33
psiprobe.tools.ObjectWrapper	13
psiprobe.model.wrapper.WrapperInfo	11
psiprobe.tools.logging.DefaultAccessor	15
psiprobe.model.jmx.ThreadPoolObjectName	20
psiprobe.controllers.system.SysPropsController	18
psiprobe.controllers.wrapper.StopJvmController	17
psiprobe.beans.accessors.DbcpDatasourceAccessor	22
psiprobe.beans.LogResolverBean$LogDestinationComparator	40
psiprobe.controllers.system.OsInfoAjaxController	20
psiprobe.model.ThreadStackElement	18
psiprobe.tools.ApplicationUtils	16
psiprobe.model.ApplicationParam	16
psiprobe.scheduler.jobs.ClusterStatsJobDetail	21
psiprobe.tools.LogOutputStream	15
psiprobe.controllers.threads.ListThreadsController	21
psiprobe.beans.accessors.C3P0DatasourceAccessor	22
psiprobe.beans.stats.collectors.JvmMemoryStatsCollectorBean	27
psiprobe.tools.logging.slf4jlogback.TomcatSlf4jLogbackFactoryAccessor	33
psiprobe.model.ServletInfo	11
psiprobe.beans.accessors.HikariCpDatasourceAccessor	26
psiprobe.model.certificates.Cert	4
psiprobe.beans.stats.listeners.AbstractFlapListener	20
psiprobe.controllers.apps.ListAppInitParamsController	27
psiprobe.controllers.error.Error403Controller	18
psiprobe.controllers.logs.FollowedFileInfoController	26
psiprobe.jsp.ParamToggleTag	14
psiprobe.controllers.help.HelpThreads2Controller	22
psiprobe.tools.logging.catalina.CatalinaLoggerAccessor	22
psiprobe.beans.stats.providers.MultipleSeriesProvider$1	24
psiprobe.tools.AsyncSocketFactory$SocketWrapper	32
psiprobe.beans.stats.providers.MultipleSeriesProvider$Series	29
psiprobe.beans.stats.listeners.StatsCollectionEvent	20
psiprobe.tools.logging.jdk.Jdk14ManagerAccessor	20
psiprobe.controllers.system.BaseMemoryStatsController	25
psiprobe.tools.Mailer	6
psiprobe.controllers.threads.GetClassLoaderUrlsController	28
psiprobe.tools.BackwardsFileStream	19
psiprobe.controllers.WhoisController	15
psiprobe.controllers.deploy.DeployController	16
psiprobe.scheduler.jobs.StatsSerializerJobDetail	24
psiprobe.tools.logging.logback.LogbackAppenderAccessor	23
psiprobe.model.jmx.AsyncClusterSender	18
psiprobe.model.Connector	9
psiprobe.beans.accessors.BoneCpDatasourceAccessor	24
psiprobe.controllers.system.MemoryStatsAjaxController	25
psiprobe.beans.accessors.OpenEjbBasicDatasourceAccessor	30
psiprobe.controllers.logs.SetupFollowController	21
psiprobe.controllers.connectors.ZoomChartController	19
psiprobe.controllers.apps.DownloadWebXmlConfController	28
psiprobe.controllers.connectors.BaseGetConnectorController	26
psiprobe.tools.SizeExpression	14
psiprobe.tools.logging.slf4jlogback.TomcatSlf4jLogbackAppenderAccessor	34
psiprobe.tools.logging.jdk.Jdk14FileHandlerAccessor	24
psiprobe.model.DisconnectedLogDestination	26
psiprobe.controllers.system.MemoryStatsController	21
psiprobe.tools.logging.jdk.JuliHandlerAccessor	19
psiprobe.controllers.apps.GetApplicationProcDetailsController	35
psiprobe.tokenizer.Tokenizer$TokenizerToken	24
psiprobe.beans.stats.providers.ConnectorSeriesProvider	23
psiprobe.controllers.logs.FollowController	16
psiprobe.tools.logging.jdk.Jdk14HandlerAccessor	20
psiprobe.jsp.VisualScoreTag	14
psiprobe.scheduler.triggers.DatasourceStatsTrigger	22
psiprobe.controllers.apps.StartContextController	22
psiprobe.controllers.deploy.BaseUndeployContextController	29
psiprobe.beans.ResourceResolver	16
psiprobe.beans.LogResolverBean$LogSourceComparator	35
psiprobe.tokenizer.Token	5
psiprobe.beans.RuntimeInfoAccessorBean	23
psiprobe.beans.accessors.OpenEjbManagedDatasourceAccessor	32
psiprobe.tools.logging.jdk.Jdk14LoggerAccessor	19
psiprobe.beans.stats.collectors.AppStatsCollectorBean	21
psiprobe.controllers.certificates.ListCertificatesController	26
psiprobe.controllers.logs.ListLogsController	18
psiprobe.controllers.cluster.ClusterRequestsStatsController	30
psiprobe.tools.TimeoutException	16
psiprobe.beans.stats.listeners.AbstractThresholdListener	25
psiprobe.controllers.sql.ConnectionTestController	24
psiprobe.controllers.connectors.ListConnectorsController	24
psiprobe.scheduler.triggers.MemoryStatsTrigger	18
psiprobe.controllers.deploy.UploadWarController	19
psiprobe.controllers.apps.AbstractNoSelfContextHandlerController	38
psiprobe.beans.ClusterWrapperBean	18
psiprobe.controllers.connectors.GetConnectorRequestController	29
psiprobe.controllers.jsp.RecompileJspController	22
psiprobe.controllers.apps.BaseStopContextController	25
psiprobe.scheduler.jobs.MemoryStatsJobDetail	20
psiprobe.controllers.apps.StopSummaryContextController	28
psiprobe.controllers.BeanToXmlController	19
psiprobe.controllers.apps.ReloadSummaryContextController	30
psiprobe.controllers.datasources.ListAllJdbcResourceGroupsController$1	37
psiprobe.controllers.apps.ResetAppStatsController	23
psiprobe.controllers.sql.CachedRecordSetController	25
psiprobe.beans.stats.providers.SeriesProvider	14
psiprobe.beans.JBossResourceResolverBean	25
psiprobe.controllers.cluster.ClusterMembersStatsController	29
psiprobe.tools.logging.log4j2.Log4J2LoggerConfigAccessor	26
psiprobe.model.TomcatTestReport	16
psiprobe.tools.logging.log4j.Log4JManagerAccessor	20
psiprobe.model.jmx.PooledClusterSender	19
java.lang.Object[]	8
java.nio.file.OpenOption[]	12
byte[]	6
org.apache.catalina.connector.Connector[]	11
org.apache.catalina.Container[]	11
java.net.URL[]	5
java.lang.Long[]	6
javax.activation.DataSource[]	12
java.io.File[]	6
java.lang.reflect.Field[]	7
java.lang.Thread[]	8
long[]	6
javax.management.openmbean.CompositeData[]	15
char[]	6
org.quartz.Trigger[]	9
psiprobe.AbstractTomcatContainer$FilterMapType[]	39
java.lang.Class[]	7
javax.servlet.Filter[]	8
org.springframework.security.web.authentication.logout.LogoutHandler[]	15
org.apache.catalina.Session[]	9
org.apache.tomcat.util.net.SSLHostConfig[]	15
int[]	5
javax.management.MBeanAttributeInfo[]	20
oshi.hardware.PowerSource[]	13
oshi.hardware.HWDiskStore[]	13
oshi.hardware.NetworkIF[]	11
oshi.hardware.Display[]	9
oshi.hardware.UsbDevice[]	11
double[]	8
oshi.software.os.OSProcess[]	11
java.security.cert.Certificate[]	13
oshi.hardware.HWPartition[]	13
oshi.software.os.OSFileStore[]	13
javax.management.ObjectName[]	12
javax.mail.internet.InternetAddress[]	17
org.springframework.web.servlet.view.JstlView	8
org.vibur.dbcp.ViburMonitoringMBean	20
javax.servlet.ServletContext	14
com.jolbox.bonecp.BoneCPDataSource	16
java.lang.reflect.Field	5
com.zaxxer.hikari.HikariPoolMXBean	16
java.nio.file.OpenOption	10
org.apache.catalina.connector.Connector	9
org.apache.catalina.Container	9
java.net.URL	3
java.lang.Long	4
javax.activation.DataSource	10
java.io.File	4
javax.management.openmbean.CompositeData	13
org.quartz.Trigger	7
javax.servlet.Filter	6
org.springframework.security.web.authentication.logout.LogoutHandler	13
org.apache.catalina.Session	7
org.apache.tomcat.util.net.SSLHostConfig	13
javax.management.MBeanAttributeInfo	18
oshi.hardware.PowerSource	11
oshi.hardware.HWDiskStore	11
oshi.hardware.NetworkIF	9
oshi.hardware.Display	7
oshi.hardware.UsbDevice	9
oshi.software.os.OSProcess	9
java.security.cert.Certificate	11
oshi.hardware.HWPartition	11
oshi.software.os.OSFileStore	11
javax.management.ObjectName	10
javax.mail.internet.InternetAddress	15
org.springframework.web.servlet.mvc.ParameterizableViewController	29
org.springframework.scheduling.quartz.MethodInvokingJobDetailFactoryBean	34
java.lang.Exception	9
org.springframework.scheduling.quartz.CronTriggerFactoryBean	22
com.opensymphony.module.sitemesh.mapper.AbstractDecoratorMapper	23
org.springframework.web.servlet.mvc.AbstractController	18
org.springframework.web.servlet.DispatcherServlet	17
javax.servlet.jsp.tagext.TagSupport	10
java.util.ArrayList	9
org.springframework.web.servlet.config.annotation.WebMvcConfigurerAdapter	23
java.lang.Enum	4
psiprobe.model.DataSourceInfo	14
org.springframework.security.config.annotation.web.configuration.WebSecurityConfigurerAdapter	28
javax.servlet.jsp.tagext.BodyTagSupport	14
java.io.IOException	11
java.io.OutputStream	12
java.io.InputStream	11
psiprobe.beans.accessors.DatasourceAccessor	18
org.apache.catalina.ContainerServlet	16
java.lang.Comparable	10
java.lang.Runnable	8
javax.management.NotificationListener	20
org.springframework.beans.factory.InitializingBean	16
org.springframework.beans.factory.DisposableBean	14
org.springframework.context.ApplicationContextAware	23
java.util.Comparator	10
org.springframework.context.MessageSourceAware	18
javax.servlet.ServletContextListener	22
org.springframework.web.context.ServletContextAware	19
org.springframework.web.WebApplicationInitializer	25
javax.naming.NamingException	15
java.lang.InstantiationException	22
javax.servlet.ServletException	16
javax.servlet.jsp.JspException	12
java.lang.InterruptedException	20
java.lang.ClassNotFoundException	22
java.lang.IllegalAccessException	22
java.lang.reflect.InvocationTargetException	25
java.net.MalformedURLException	21
java.lang.NoSuchMethodException	21
javax.mail.MessagingException	18
javax.mail.internet.AddressException	16
java.util.LinkedList	10
java.util.Date	4
org.springframework.web.servlet.ModelAndView	12
java.io.ByteArrayOutputStream	21
org.apache.jasper.EmbeddedServletOptions	22
org.apache.jasper.compiler.JspRuntimeContext	17
java.net.URLClassLoader	14
java.util.LinkedHashMap	13
java.util.HashMap	7
org.springframework.web.servlet.view.RedirectView	12
javax.activation.FileDataSource	14
java.io.BufferedReader	14
java.io.InputStreamReader	17
java.util.Scanner	7
java.lang.IllegalStateException	21
java.util.HashSet	7
java.io.RandomAccessFile	16
java.io.ByteArrayInputStream	20
java.util.zip.ZipOutputStream	15
java.io.BufferedInputStream	19
java.util.zip.ZipEntry	8
java.lang.IllegalArgumentException	24
javax.naming.InitialContext	14
java.util.TreeMap	7
org.springframework.web.servlet.view.InternalResourceViewResolver	28
org.springframework.web.servlet.theme.FixedThemeResolver	18
org.springframework.context.support.ReloadableResourceBundleMessageSource	37
org.springframework.web.servlet.i18n.CookieLocaleResolver	20
org.springframework.web.servlet.handler.BeanNameUrlHandlerMapping	25
org.springframework.web.servlet.i18n.LocaleChangeInterceptor	23
org.springframework.beans.factory.config.PropertyPlaceholderConfigurer	29
org.springframework.core.io.ClassPathResource	17
java.util.Properties	10
org.springframework.beans.factory.config.PropertiesFactoryBean	21
org.springframework.scheduling.quartz.SchedulerFactoryBean	20
org.apache.tomcat.util.http.fileupload.servlet.ServletRequestContext	21
org.apache.tomcat.util.http.fileupload.disk.DiskFileItemFactory	19
org.apache.tomcat.util.http.fileupload.servlet.ServletFileUpload	17
org.springframework.web.servlet.view.InternalResourceView	20
java.util.Locale	6
com.maxmind.geoip2.DatabaseReader$Builder	22
com.maxmind.db.CHMCache	8
com.thoughtworks.xstream.XStream	7
org.jfree.data.xy.XYDataItem	10
java.lang.NullPointerException	20
java.lang.RuntimeException	16
java.io.PrintStream	11
org.springframework.security.web.DefaultSecurityFilterChain	26
org.springframework.security.web.util.matcher.AntPathRequestMatcher	21
org.springframework.security.web.FilterChainProxy	16
org.springframework.security.authentication.ProviderManager	15
org.springframework.security.web.context.SecurityContextPersistenceFilter	32
org.springframework.security.web.authentication.preauth.PreAuthenticatedAuthenticationProvider	38
org.springframework.security.web.authentication.preauth.PreAuthenticatedGrantedAuthoritiesUserDetailsService	52
org.springframework.security.web.authentication.preauth.j2ee.J2eePreAuthenticatedProcessingFilter	36
org.springframework.security.web.authentication.Http403ForbiddenEntryPoint	26
org.springframework.security.web.authentication.logout.LogoutFilter	12
org.springframework.security.web.authentication.logout.SecurityContextLogoutHandler	28
org.springframework.security.web.authentication.preauth.j2ee.J2eeBasedPreAuthenticatedWebAuthenticationDetailsSource	55
org.springframework.security.core.authority.mapping.SimpleAttributes2GrantedAuthoritiesMapper	41
org.springframework.security.web.authentication.preauth.j2ee.WebXmlMappableAttributesRetriever	33
org.springframework.security.web.access.ExceptionTranslationFilter	26
org.springframework.security.access.vote.AffirmativeBased	16
org.springframework.security.web.access.intercept.FilterSecurityInterceptor	25
org.springframework.security.web.access.intercept.DefaultFilterInvocationSecurityMetadataSource	45
org.springframework.security.access.vote.RoleVoter	9
org.springframework.security.web.servletapi.SecurityContextHolderAwareRequestFilter	39
org.springframework.security.web.savedrequest.HttpSessionRequestCache	23
java.sql.Timestamp	9
org.jfree.data.xy.XYSeries	8
java.net.Socket	6
java.io.StringReader	12
org.springframework.context.support.MessageSourceAccessor	21
java.text.SimpleDateFormat	16
org.jfree.data.xy.DefaultTableXYDataset	21
org.jfree.chart.renderer.xy.XYLine3DRenderer	16
java.awt.BasicStroke	11
java.awt.Color	5
org.jfree.chart.axis.DateAxis	8
org.jfree.ui.RectangleInsets	15
java.lang.NumberFormatException	21
oshi.SystemInfo	10
java.lang.UnsupportedOperationException	29
org.springframework.web.context.support.AnnotationConfigWebApplicationContext	37
org.springframework.web.context.ContextLoaderListener	21
javax.mail.internet.MimeMultipart	13
javax.mail.internet.MimeMessage	11
javax.mail.internet.MimeBodyPart	12
javax.activation.DataHandler	11
javax.servlet.http.HttpServletRequest	18
javax.servlet.http.HttpServletResponse	19
java.util.List	4
java.nio.file.Path	4
java.nio.charset.Charset	7
org.slf4j.Logger	6
java.util.Iterator	8
org.apache.catalina.Context	7
org.apache.tomcat.jdbc.pool.DataSource	10
org.apache.catalina.Wrapper	7
org.apache.catalina.Valve	5
org.apache.catalina.Engine	6
org.apache.catalina.Service	7
javax.management.MalformedObjectNameException	28
org.apache.catalina.Host	4
org.apache.catalina.Pipeline	8
javax.management.MBeanServer	11
org.apache.catalina.core.StandardContext	15
javax.servlet.ServletConfig	13
org.apache.jasper.JspCompilationContext	21
javax.servlet.http.HttpSession	11
java.sql.ResultSet	9
java.sql.SQLException	12
javax.sql.DataSource	10
org.apache.catalina.Loader	6
java.util.Map	3
org.apache.jasper.compiler.Compiler	8
java.sql.Connection	10
java.sql.PreparedStatement	17
java.sql.ResultSetMetaData	17
java.util.Collection	10
java.util.Set	3
org.apache.catalina.LifecycleState	14
java.net.URISyntaxException	18
java.net.URI	3
org.apache.jasper.Options	7
org.apache.jasper.compiler.JspConfig	9
java.lang.AutoCloseable	13
java.lang.Boolean	7
javax.servlet.ServletOutputStream	19
com.opensymphony.module.sitemesh.Config	6
com.opensymphony.module.sitemesh.DecoratorMapper	15
com.uwyn.jhighlight.renderer.Renderer	8
com.opensymphony.module.sitemesh.Page	4
com.opensymphony.module.sitemesh.Decorator	9
javax.management.QueryExp	8
javax.servlet.jsp.PageContext	11
javax.servlet.ServletRequest	14
java.util.Enumeration	11
javax.servlet.jsp.JspWriter	9
org.springframework.security.core.context.SecurityContext	15
org.springframework.web.context.WebApplicationContext	21
org.springframework.security.core.Authentication	14
java.lang.Package	7
java.lang.Integer	7
java.lang.Character	9
java.io.Reader	6
javax.naming.Context	7
java.lang.NoClassDefFoundError	20
javax.management.JMException	11
org.apache.catalina.Server	6
java.lang.Runtime	7
org.springframework.web.servlet.config.annotation.InterceptorRegistry	19
org.quartz.JobDetail	9
org.apache.tomcat.util.http.fileupload.FileItem	8
org.quartz.CronTrigger	11
javax.management.ObjectInstance	14
javax.management.openmbean.CompositeDataSupport	20
javax.management.Notification	12
javax.management.MBeanServerNotification	23
javax.management.NotificationFilter	18
javax.management.InstanceNotFoundException	25
java.lang.Number	6
java.util.Map$Entry	9
com.maxmind.geoip2.record.Country	7
java.net.InetAddress	11
com.maxmind.geoip2.exception.AddressNotFoundException	24
javax.management.RuntimeOperationsException	26
com.maxmind.geoip2.DatabaseReader	14
com.maxmind.geoip2.model.CountryResponse	15
org.vibur.dbcp.ViburDBCPDataSource	19
org.springframework.context.ApplicationContext	18
java.lang.reflect.Method	6
org.apache.commons.dbcp2.BasicDataSource	15
org.tanukisoftware.wrapper.WrapperUser	11
org.apache.catalina.Manager	7
java.lang.ReflectiveOperationException	28
org.apache.jasper.compiler.JspConfig$JspProperty	21
java.lang.SecurityException	17
java.util.regex.Pattern	7
java.util.regex.Matcher	7
org.apache.coyote.http11.AbstractHttp11JsseProtocol	26
org.apache.tomcat.util.net.SSLHostConfigCertificate	24
org.springframework.context.MessageSource	13
java.net.UnknownHostException	20
javax.servlet.ServletContextEvent	19
ch.qos.logback.core.OutputStreamAppender	20
ch.qos.logback.core.encoder.Encoder	7
ch.qos.logback.core.encoder.LayoutWrappingEncoder	21
java.lang.management.RuntimeMXBean	13
org.apache.commons.logging.Log	3
java.lang.NoSuchMethodError	17
com.jolbox.bonecp.BoneCP	6
org.jfree.chart.plot.XYPlot	6
java.awt.image.BufferedImage	13
org.jfree.chart.renderer.xy.XYItemRenderer	14
org.jfree.chart.plot.PlotOrientation	15
org.jfree.chart.renderer.xy.XYAreaRenderer	14
org.jfree.chart.JFreeChart	10
java.text.NumberFormat	12
org.springframework.security.core.GrantedAuthority	16
java.security.PrivilegedAction	16
java.util.ListIterator	12
java.util.regex.PatternSyntaxException	22
javax.servlet.jsp.tagext.BodyContent	11
javax.management.AttributeNotFoundException	26
org.apache.tomcat.jdbc.pool.PoolConfiguration	17
org.apache.tomcat.jdbc.pool.DataSourceProxy	15
org.apache.openejb.resource.jdbc.managed.local.ManagedDataSource	17
javax.sql.CommonDataSource	16
javax.management.MBeanInfo	9
oshi.hardware.HardwareAbstractionLayer	24
oshi.software.os.OperatingSystem	15
oshi.hardware.ComputerSystem	14
oshi.hardware.CentralProcessor	16
oshi.hardware.GlobalMemory	12
oshi.hardware.Sensors	7
oshi.software.os.FileSystem	10
oshi.software.os.NetworkParams	13
oshi.hardware.Firmware	8
oshi.hardware.Baseboard	9
org.threeten.bp.LocalDate	9
oshi.hardware.CentralProcessor$TickType	25
java.lang.Double	6
oshi.software.os.OperatingSystem$ProcessSort	27
java.security.cert.X509Certificate	15
java.security.KeyStore	8
org.apache.coyote.ProtocolHandler	15
java.net.URLConnection	13
java.security.Principal	9
java.security.KeyStoreException	17
java.sql.DatabaseMetaData	16
org.apache.juli.logging.Log	3
org.springframework.http.HttpMethod	10
org.springframework.web.servlet.mvc.Controller	10
java.io.PrintWriter	11
org.apache.commons.dbcp.BasicDataSource	15
org.w3c.dom.Element	7
org.w3c.dom.NodeList	8
org.w3c.dom.Node	4
org.w3c.dom.NamedNodeMap	12
org.apache.catalina.core.StandardWrapper	15
com.mchange.v2.c3p0.ComboPooledDataSource	21
com.zaxxer.hikari.HikariDataSource	16
javax.servlet.ServletResponse	15
java.io.UnsupportedEncodingException	28
javax.servlet.ServletRegistration$Dynamic	27
javax.servlet.FilterRegistration$Dynamic	26
javax.servlet.DispatcherType	14
java.util.EnumSet	7
javax.servlet.SessionCookieConfig	19
javax.servlet.SessionTrackingMode	19
java.util.EventListener	13
java.lang.IndexOutOfBoundsException	25
javax.mail.Session	7
javax.mail.Message$RecipientType	21
