{
"ArrayElementNull": [6],
"ArrayNullParams":[9, 10, 11],
"BinopNull": [4],
"ConvertNull": [5],
"ImplicitCastNull":[8],
"NullSyncronized":[4],
"PrimitiveNull":[6],
"ThrowNull":[3],
"ThrowNullException":[3]
}
