	Command being timed: "/home/gfun5990/info3600-bugchecker/digger/logic/doop_logic/context-insensitive/./j4"
	User time (seconds): 1.62
	System time (seconds): 0.12
	Percent of CPU this job got: 312%
	Elapsed (wall clock) time (h:mm:ss or m:ss): 0:00.56
	Average shared text size (kbytes): 0
	Average unshared data size (kbytes): 0
	Average stack size (kbytes): 0
	Average total size (kbytes): 0
	Maximum resident set size (kbytes): 151864
	Average resident set size (kbytes): 0
	Major (requiring I/O) page faults: 0
	Minor (reclaiming a frame) page faults: 50517
	Voluntary context switches: 21669
	Involuntary context switches: 6
	Swaps: 0
	File system inputs: 0
	File system outputs: 11960
	Socket messages sent: 0
	Socket messages received: 0
	Signals delivered: 0
	Page size (bytes): 4096
	Exit status: 0
