	Command being timed: "/home/gfun5990/info3600-bugchecker/digger/logic/doop_logic/context-insensitive/./j6"
	User time (seconds): 4.50
	System time (seconds): 0.42
	Percent of CPU this job got: 340%
	Elapsed (wall clock) time (h:mm:ss or m:ss): 0:01.44
	Average shared text size (kbytes): 0
	Average unshared data size (kbytes): 0
	Average stack size (kbytes): 0
	Average total size (kbytes): 0
	Maximum resident set size (kbytes): 405120
	Average resident set size (kbytes): 0
	Major (requiring I/O) page faults: 0
	Minor (reclaiming a frame) page faults: 126205
	Voluntary context switches: 107602
	Involuntary context switches: 20
	Swaps: 0
	File system inputs: 0
	File system outputs: 44832
	Socket messages sent: 0
	Socket messages received: 0
	Signals delivered: 0
	Page size (bytes): 4096
	Exit status: 0
